{"photo":{"person":[{"nsid":"105175385@N06","username":"@philipcomp.philipcomp","realname":"philipcomp philipcomp","favedate":"1386505354","iconserver":"3838","iconfarm":4,"contact":0,"friend":0,"family":0},{"nsid":"33512830@N05","username":"playadora2","realname":"","favedate":"1366948382","iconserver":"2793","iconfarm":3,"contact":0,"friend":0,"family":0},{"nsid":"68666109@N07","username":"xiaoai_88","realname":"","favedate":"1339405443","iconserver":"0","iconfarm":0,"contact":0,"friend":0,"family":0},{"nsid":"60611761@N08","username":"lldatou","realname":"","favedate":"1301628958","iconserver":"2869","iconfarm":3,"contact":0,"friend":0,"family":0},{"nsid":"44898077@N08","username":"\u0416\u0438\u0432\u044b\u0435 \u0443\u043b\u0438\u0446\u044b \/ Live Streets","realname":"Vladimir Zlokazov","favedate":"1301214419","iconserver":"2658","iconfarm":3,"contact":0,"friend":0,"family":0},{"nsid":"63125501@N00","username":"bricoleurbanism","realname":"","favedate":"1257509466","iconserver":"1206","iconfarm":2,"contact":0,"friend":0,"family":0},{"nsid":"7998285@N08","username":"dawneday","realname":"Dawn Easterday","favedate":"1238455485","iconserver":"8556","iconfarm":9,"contact":0,"friend":0,"family":0},{"nsid":"31650633@N08","username":"Nathanjo12","realname":"","favedate":"1236268166","iconserver":"3286","iconfarm":4,"contact":0,"friend":0,"family":0},{"nsid":"68708948@N00","username":"lannadelarosa","realname":"","favedate":"1234674481","iconserver":"3281","iconfarm":4,"contact":0,"friend":0,"family":0},{"nsid":"35028224@N02","username":"red_design_team","realname":"","favedate":"1233708322","iconserver":"0","iconfarm":0,"contact":0,"friend":0,"family":0}],"id":"2822734177","secret":"d19afa53cd","server":"3135","farm":4,"page":1,"pages":2,"perpage":10,"total":"16"},"stat":"ok"}