{"photo":{"person":[{"nsid":"105175385@N06","username":"@philipcomp.philipcomp","realname":"philipcomp philipcomp","favedate":"1386505353","iconserver":"3838","iconfarm":4,"contact":0,"friend":0,"family":0},{"nsid":"44898077@N08","username":"\u0416\u0438\u0432\u044b\u0435 \u0443\u043b\u0438\u0446\u044b \/ Live Streets","realname":"Vladimir Zlokazov","favedate":"1306503757","iconserver":"2658","iconfarm":3,"contact":0,"friend":0,"family":0},{"nsid":"52528526@N05","username":"meta_design","realname":"","favedate":"1303090614","iconserver":"0","iconfarm":0,"contact":0,"friend":0,"family":0},{"nsid":"61094893@N03","username":"misi\u0142o","realname":"Daria","favedate":"1301847746","iconserver":"5058","iconfarm":6,"contact":0,"friend":0,"family":0},{"nsid":"79645741@N00","username":"poorboyoftroy1","realname":"","favedate":"1277772846","iconserver":"0","iconfarm":0,"contact":0,"friend":0,"family":0},{"nsid":"32887567@N04","username":"salmonprotection","realname":"","favedate":"1269840046","iconserver":"3160","iconfarm":4,"contact":0,"friend":0,"family":0},{"nsid":"32402909@N03","username":"Niun Brillo","realname":"","favedate":"1240615168","iconserver":"0","iconfarm":0,"contact":0,"friend":0,"family":0},{"nsid":"23085886@N00","username":"mattw2418","realname":"Matt","favedate":"1232662696","iconserver":"3258","iconfarm":4,"contact":0,"friend":0,"family":0},{"nsid":"10241895@N08","username":"loudpop","realname":"","favedate":"1232073890","iconserver":"3292","iconfarm":4,"contact":0,"friend":0,"family":0},{"nsid":"72822802@N00","username":"studio-d","realname":"karen","favedate":"1227804906","iconserver":"6","iconfarm":1,"contact":0,"friend":0,"family":0}],"id":"2629052621","secret":"91a0c8343e","server":"3024","farm":4,"page":1,"pages":2,"perpage":10,"total":"11"},"stat":"ok"}