{"photo":{"person":[{"nsid":"46347773@N04","username":"ecker39","realname":"","favedate":"1398106083","iconserver":"0","iconfarm":0,"contact":0,"friend":0,"family":0},{"nsid":"37723075@N00","username":"ropergees","realname":"Paul & Rebecca","favedate":"1342952818","iconserver":"3954","iconfarm":4,"contact":0,"friend":0,"family":0},{"nsid":"44898077@N08","username":"\u0416\u0438\u0432\u044b\u0435 \u0443\u043b\u0438\u0446\u044b \/ Live Streets","realname":"Vladimir Zlokazov","favedate":"1306503380","iconserver":"2658","iconfarm":3,"contact":0,"friend":0,"family":0},{"nsid":"61439498@N06","username":"S.Graemer","realname":"","favedate":"1303808344","iconserver":"0","iconfarm":0,"contact":0,"friend":0,"family":0},{"nsid":"52528526@N05","username":"meta_design","realname":"","favedate":"1303090580","iconserver":"0","iconfarm":0,"contact":0,"friend":0,"family":0},{"nsid":"61094893@N03","username":"misi\u0142o","realname":"Daria","favedate":"1301847768","iconserver":"5058","iconfarm":6,"contact":0,"friend":0,"family":0},{"nsid":"19424599@N00","username":"janewoo","realname":"Jane Woo","favedate":"1273827692","iconserver":"210","iconfarm":1,"contact":0,"friend":0,"family":0},{"nsid":"96098291@N00","username":"paulhillsdon","realname":"Paul Hillsdon","favedate":"1273455877","iconserver":"44","iconfarm":1,"contact":0,"friend":0,"family":0},{"nsid":"32887567@N04","username":"salmonprotection","realname":"","favedate":"1269840031","iconserver":"3160","iconfarm":4,"contact":0,"friend":0,"family":0},{"nsid":"21019300@N02","username":"Shawn Smith","realname":"","favedate":"1257783548","iconserver":"3172","iconfarm":4,"contact":0,"friend":0,"family":0}],"id":"2629874914","secret":"034178cd1a","server":"3069","farm":4,"page":1,"pages":2,"perpage":10,"total":"16"},"stat":"ok"}