{"photo":{"person":[{"nsid":"46347773@N04","username":"ecker39","realname":"","favedate":"1397209423","iconserver":"0","iconfarm":0,"contact":0,"friend":0,"family":0},{"nsid":"95962876@N02","username":"JuFrolov","realname":"\u042e\u0440\u0438\u0439 \u0424\u0440\u043e\u043b\u043e\u0432","favedate":"1382701018","iconserver":"0","iconfarm":0,"contact":0,"friend":0,"family":0},{"nsid":"88046605@N03","username":"JJ_GHDG","realname":"Jenn Judge","favedate":"1360778547","iconserver":"8462","iconfarm":9,"contact":0,"friend":0,"family":0},{"nsid":"65125158@N02","username":"areedie","realname":"","favedate":"1334078585","iconserver":"2843","iconfarm":3,"contact":0,"friend":0,"family":0},{"nsid":"44898077@N08","username":"\u0416\u0438\u0432\u044b\u0435 \u0443\u043b\u0438\u0446\u044b \/ Live Streets","realname":"Vladimir Zlokazov","favedate":"1306498764","iconserver":"2658","iconfarm":3,"contact":0,"friend":0,"family":0},{"nsid":"60171135@N07","username":"oseseattle","realname":"","favedate":"1300913452","iconserver":"0","iconfarm":0,"contact":0,"friend":0,"family":0},{"nsid":"23085886@N00","username":"mattw2418","realname":"Matt","favedate":"1284566540","iconserver":"3258","iconfarm":4,"contact":0,"friend":0,"family":0},{"nsid":"96098291@N00","username":"paulhillsdon","realname":"Paul Hillsdon","favedate":"1273455529","iconserver":"44","iconfarm":1,"contact":0,"friend":0,"family":0},{"nsid":"57877823@N00","username":"sprig & sprout","realname":"","favedate":"1272212346","iconserver":"65","iconfarm":1,"contact":0,"friend":0,"family":0},{"nsid":"52919708@N00","username":"messyurbanist","realname":"Eric Orozco","favedate":"1270176811","iconserver":"3528","iconfarm":4,"contact":0,"friend":0,"family":0}],"id":"3923882335","secret":"ea4a32bbcd","server":"3466","farm":4,"page":1,"pages":2,"perpage":10,"total":"11"},"stat":"ok"}