{"photo":{"person":[{"nsid":"114589828@N06","username":"Rebekah H. Photographie","realname":"R. H.","favedate":"1428130616","iconserver":"3933","iconfarm":4,"contact":0,"friend":0,"family":0},{"nsid":"91290155@N03","username":"grant0825","realname":"","favedate":"1427389552","iconserver":"5536","iconfarm":6,"contact":0,"friend":0,"family":0},{"nsid":"58454354@N03","username":"Stace Harris","realname":"Stacey  Harris","favedate":"1424812193","iconserver":"0","iconfarm":0,"contact":0,"friend":0,"family":0},{"nsid":"129856219@N03","username":"brechtvhb","realname":"","favedate":"1422516835","iconserver":"8626","iconfarm":9,"contact":0,"friend":0,"family":0},{"nsid":"30611182@N06","username":"TKPhotos47","realname":"Teresa Klinkenberg","favedate":"1422202891","iconserver":"2902","iconfarm":3,"contact":0,"friend":0,"family":0},{"nsid":"100030247@N06","username":"http:\/\/ryanosman.weebly.com\/","realname":"Ryan Osman","favedate":"1421987758","iconserver":"2922","iconfarm":3,"contact":0,"friend":0,"family":0},{"nsid":"34671038@N07","username":"Elite Videos & Photos","realname":"Derrick Green","favedate":"1421891894","iconserver":"3795","iconfarm":4,"contact":0,"friend":0,"family":0},{"nsid":"95101727@N04","username":"Pushpendra1992","realname":"Pushpendra Yadav","favedate":"1421731136","iconserver":"5469","iconfarm":6,"contact":0,"friend":0,"family":0},{"nsid":"94137407@N06","username":"SiobhanSaunders","realname":"Siobhan Saunders","favedate":"1421550517","iconserver":"8717","iconfarm":9,"contact":0,"friend":0,"family":0},{"nsid":"83133472@N05","username":"timp37","realname":"tim putala","favedate":"1421548132","iconserver":"3731","iconfarm":4,"contact":0,"friend":0,"family":0}],"id":"16116939290","secret":"49b70e0981","server":"7517","farm":8,"page":1,"pages":2,"perpage":10,"total":"13"},"stat":"ok"}