{"photo":{"person":[{"nsid":"125032464@N05","username":"Sigma Scorpii","realname":"\ud83d\udeb2 Giuseppe.","favedate":"1407187744","iconserver":"303","iconfarm":1,"contact":0,"friend":0,"family":0},{"nsid":"91114293@N05","username":"ar-mart","realname":"","favedate":"1392705505","iconserver":"0","iconfarm":0,"contact":0,"friend":0,"family":0},{"nsid":"103247188@N03","username":"uncleginger","realname":"Ginger Gu","favedate":"1392620260","iconserver":"2815","iconfarm":3,"contact":0,"friend":0,"family":0},{"nsid":"105607457@N03","username":"FaustoDiGoethe","realname":"Fausto Di Goethe","favedate":"1391982129","iconserver":"3681","iconfarm":4,"contact":0,"friend":0,"family":0},{"nsid":"115351023@N05","username":"RomyBye ( off for some days)","realname":"Romy  Bye","favedate":"1391970611","iconserver":"7559","iconfarm":8,"contact":0,"friend":0,"family":0},{"nsid":"20908775@N04","username":"lorenzoviolone","realname":"Lorenzo Viola","favedate":"1391943788","iconserver":"519","iconfarm":1,"contact":0,"friend":0,"family":0},{"nsid":"28928577@N04","username":"jonahhhh","realname":"","favedate":"1391891307","iconserver":"5535","iconfarm":6,"contact":0,"friend":0,"family":0},{"nsid":"93565819@N02","username":"Dimitris_D","realname":"","favedate":"1391890466","iconserver":"7353","iconfarm":8,"contact":0,"friend":0,"family":0},{"nsid":"29633034@N02","username":"Shelly MacNeil - Conway","realname":"","favedate":"1391888910","iconserver":"3782","iconfarm":4,"contact":0,"friend":0,"family":0},{"nsid":"66321765@N05","username":"Sam Halladay","realname":"Sam Halladay","favedate":"1391886103","iconserver":"3940","iconfarm":4,"contact":0,"friend":0,"family":0}],"id":"12386356974","secret":"c570b8b2b9","server":"5484","farm":6,"page":1,"pages":2,"perpage":10,"total":"16"},"stat":"ok"}