{"photo":{"person":[{"nsid":"38336928@N04","username":"cr8visions - Robert Boisson","realname":"Robert ( Bob ) Boisson","favedate":"1294008211","iconserver":"3588","iconfarm":4,"contact":0,"friend":0,"family":0},{"nsid":"10601066@N05","username":"christil","realname":"","favedate":"1291548855","iconserver":"3873","iconfarm":4,"contact":0,"friend":0,"family":0},{"nsid":"49562605@N03","username":"jules dernier","realname":"julien rodet","favedate":"1290980336","iconserver":"4060","iconfarm":5,"contact":0,"friend":0,"family":0},{"nsid":"88345903@N00","username":"xgray","realname":"Stephen Gray","favedate":"1290686454","iconserver":"7522","iconfarm":8,"contact":0,"friend":0,"family":0},{"nsid":"49079461@N03","username":"Teresa's Place\/","realname":"Teresa's Place","favedate":"1290387894","iconserver":"5321","iconfarm":6,"contact":0,"friend":0,"family":0},{"nsid":"29432720@N02","username":"_JamesDavies","realname":"","favedate":"1289993860","iconserver":"4139","iconfarm":5,"contact":0,"friend":0,"family":0},{"nsid":"39179091@N03","username":"nick gruenberg","realname":"Nick Gruenberg","favedate":"1289858185","iconserver":"3382","iconfarm":4,"contact":0,"friend":0,"family":0},{"nsid":"49469560@N07","username":"POP SNAP","realname":"","favedate":"1289831862","iconserver":"2854","iconfarm":3,"contact":0,"friend":0,"family":0},{"nsid":"94829248@N00","username":"RTC1","realname":"Richard Clapp","favedate":"1289784817","iconserver":"7766","iconfarm":8,"contact":0,"friend":0,"family":0},{"nsid":"26254230@N04","username":"slow aesthetic","realname":"","favedate":"1289772078","iconserver":"3103","iconfarm":4,"contact":0,"friend":0,"family":0}],"id":"5170431521","secret":"5ac94e35f6","server":"4149","farm":5,"page":1,"pages":4,"perpage":10,"total":"33"},"stat":"ok"}