{"photo":{"person":[{"nsid":"95157376@N07","username":"07834 160 755 Stay-Focused.co.uk","realname":"Tom Hoey","favedate":"1421396155","iconserver":"7390","iconfarm":8,"contact":0,"friend":0,"family":0},{"nsid":"7997148@N05","username":"Kh\u00e1nh Hmoong","realname":"Kh\u00e1nh Hmoong","favedate":"1421386658","iconserver":"8140","iconfarm":9,"contact":0,"friend":0,"family":0},{"nsid":"68938002@N08","username":"kup huynh","realname":"Kup Huynh","favedate":"1421337812","iconserver":"7639","iconfarm":8,"contact":0,"friend":0,"family":0},{"nsid":"128052629@N05","username":"sandpc","realname":"","favedate":"1415340752","iconserver":"3946","iconfarm":4,"contact":0,"friend":0,"family":0},{"nsid":"15107442@N00","username":"Hsuanya Tsai","realname":"","favedate":"1414255946","iconserver":"7313","iconfarm":8,"contact":0,"friend":0,"family":0},{"nsid":"126771170@N07","username":"JoanaCMF","realname":"","favedate":"1411249017","iconserver":"353","iconfarm":1,"contact":0,"friend":0,"family":0},{"nsid":"117071192@N04","username":"AloTrip","realname":"Alo Trip","favedate":"1411186178","iconserver":"2848","iconfarm":3,"contact":0,"friend":0,"family":0},{"nsid":"46484616@N04","username":"Mr. Happy Face - Peace :)","realname":"","favedate":"1411150663","iconserver":"5450","iconfarm":6,"contact":0,"friend":0,"family":0},{"nsid":"45644656@N05","username":"thiagu_dr","realname":"Thiago Domingos da Rocha","favedate":"1411150160","iconserver":"3895","iconfarm":4,"contact":0,"friend":0,"family":0},{"nsid":"16230743@N06","username":"Open your eyes<::::::::::::::::::::::::::::","realname":"","favedate":"1411149792","iconserver":"5604","iconfarm":6,"contact":0,"friend":0,"family":0}],"id":"14362813500","secret":"4b4c5b8d92","server":"3912","farm":4,"page":1,"pages":2,"perpage":10,"total":"12"},"stat":"ok"}