{"photo":{"person":[{"nsid":"129341115@N05","username":"westendfoto","realname":"WestEndFoto","favedate":"1436751708","iconserver":"7516","iconfarm":8,"contact":0,"friend":0,"family":0},{"nsid":"129362368@N04","username":"vfrgk","realname":"vasili f","favedate":"1435662037","iconserver":"7563","iconfarm":8,"contact":0,"friend":0,"family":0},{"nsid":"131525597@N06","username":"geethamathi","realname":"Geetha Mathivanan","favedate":"1435624055","iconserver":"7704","iconfarm":8,"contact":0,"friend":0,"family":0},{"nsid":"130304681@N02","username":"elena_d80","realname":"Elena Daniela","favedate":"1433448821","iconserver":"8747","iconfarm":9,"contact":0,"friend":0,"family":0},{"nsid":"64548571@N05","username":"Ematos2011","realname":"E Matos","favedate":"1432779238","iconserver":"7665","iconfarm":8,"contact":0,"friend":0,"family":0},{"nsid":"18205706@N06","username":"ShutterJack","realname":"James Hale","favedate":"1432660901","iconserver":"8868","iconfarm":9,"contact":0,"friend":0,"family":0},{"nsid":"124093236@N04","username":"Hasan Yuzeir","realname":"","favedate":"1432642084","iconserver":"7284","iconfarm":8,"contact":0,"friend":0,"family":0},{"nsid":"44855005@N04","username":"PeteHuu","realname":"Pete Huu","favedate":"1432640347","iconserver":"2879","iconfarm":3,"contact":0,"friend":0,"family":0},{"nsid":"95568530@N05","username":"Draopsnai","realname":"","favedate":"1432585066","iconserver":"8749","iconfarm":9,"contact":0,"friend":0,"family":0},{"nsid":"118403141@N02","username":"jeans.man59","realname":"Jeans Man59","favedate":"1432584233","iconserver":"5616","iconfarm":6,"contact":0,"friend":0,"family":0}],"id":"18082843695","secret":"26085ed128","server":"5336","farm":6,"page":1,"pages":2,"perpage":10,"total":"12"},"stat":"ok"}