{"photo":{"person":[{"nsid":"86370526@N02","username":"fstkkk","realname":"","favedate":"1392126582","iconserver":"7307","iconfarm":8,"contact":0,"friend":0,"family":0},{"nsid":"7294954@N02","username":"love_child_kyoto","realname":"VEGF ov canc Y K Kyoto","favedate":"1390653175","iconserver":"224","iconfarm":1,"contact":0,"friend":0,"family":0},{"nsid":"9346693@N05","username":"bajuavik","realname":"Avik Roy","favedate":"1389544296","iconserver":"3753","iconfarm":4,"contact":0,"friend":0,"family":0},{"nsid":"94663471@N08","username":"Donkey_Tramp","realname":"","favedate":"1388923443","iconserver":"7055","iconfarm":8,"contact":0,"friend":0,"family":0},{"nsid":"97541759@N04","username":"manapen","realname":"manapen","favedate":"1388809907","iconserver":"3721","iconfarm":4,"contact":0,"friend":0,"family":0},{"nsid":"97060315@N02","username":"Besarb","realname":"","favedate":"1388771841","iconserver":"5114","iconfarm":6,"contact":0,"friend":0,"family":0},{"nsid":"61051447@N03","username":"Singer \u6674\u54e5","realname":"Singer \u6674\u54e5","favedate":"1387644850","iconserver":"7761","iconfarm":8,"contact":0,"friend":0,"family":0},{"nsid":"21527859@N00","username":"yameme","realname":"","favedate":"1387641480","iconserver":"2854","iconfarm":3,"contact":0,"friend":0,"family":0},{"nsid":"10765581@N02","username":"tropicalart77 (Tammy Dial Gray)","realname":"","favedate":"1387243010","iconserver":"7369","iconfarm":8,"contact":0,"friend":0,"family":0},{"nsid":"21403039@N06","username":"Nam2@7676","realname":"Yasunari(\u5eb7\u5c31) Nakamura(\u4e2d\u6751)","favedate":"1387242039","iconserver":"8055","iconfarm":9,"contact":0,"friend":0,"family":0}],"id":"11339806475","secret":"3f930f2c11","server":"2864","farm":3,"page":1,"pages":2,"perpage":10,"total":"18"},"stat":"ok"}