{"photo":{"person":[{"nsid":"23928922@N08","username":"[~lisa.park~]","realname":"","favedate":"1261969529","iconserver":"3669","iconfarm":4,"contact":0,"friend":0,"family":0},{"nsid":"25172725@N04","username":"arthurdecacao","realname":"","favedate":"1207401852","iconserver":"0","iconfarm":0,"contact":0,"friend":0,"family":0},{"nsid":"7436870@N06","username":"Jesu Rodr\u00edguez","realname":"Jes\u00fas Rodr\u00edguez","favedate":"1203727637","iconserver":"5522","iconfarm":6,"contact":0,"friend":0,"family":0},{"nsid":"13489916@N04","username":"pkauden","realname":"","favedate":"1196408884","iconserver":"1385","iconfarm":2,"contact":0,"friend":0,"family":0},{"nsid":"14915921@N00","username":"Shane Henderson","realname":"Shane Henderson","favedate":"1195852575","iconserver":"5344","iconfarm":6,"contact":0,"friend":0,"family":0},{"nsid":"70386761@N00","username":"katiek2","realname":"","favedate":"1192481160","iconserver":"7385","iconfarm":8,"contact":0,"friend":0,"family":0},{"nsid":"7581830@N06","username":"katmos\u2665JMJ\u2665","realname":"","favedate":"1175908131","iconserver":"1083","iconfarm":2,"contact":0,"friend":0,"family":0},{"nsid":"87889801@N00","username":"A Sutanto","realname":"","favedate":"1157909534","iconserver":"2832","iconfarm":3,"contact":0,"friend":0,"family":0},{"nsid":"95351495@N00","username":"joaqy","realname":"Joaquin Zamora","favedate":"1150844774","iconserver":"22","iconfarm":1,"contact":0,"friend":0,"family":0},{"nsid":"75771006@N00","username":"Camil Tulcan","realname":"Camil Tulcan","favedate":"1149972508","iconserver":"7317","iconfarm":8,"contact":0,"friend":0,"family":0}],"id":"159127311","secret":"a6946e359d","server":"64","farm":1,"page":1,"pages":2,"perpage":10,"total":"19"},"stat":"ok"}