{"photo":{"person":[{"nsid":"124731382@N05","username":"kokovp1975@ymail.com","realname":"Socorro Villalobos pe\u00f1a","favedate":"1420171078","iconserver":"2929","iconfarm":3,"contact":0,"friend":0,"family":0},{"nsid":"87261125@N06","username":"PoemsAboutMe","realname":"","favedate":"1401252960","iconserver":"8442","iconfarm":9,"contact":0,"friend":0,"family":0},{"nsid":"95187848@N05","username":"blueplanetcreations","realname":"Mary Graham","favedate":"1367268465","iconserver":"7045","iconfarm":8,"contact":0,"friend":0,"family":0},{"nsid":"63968440@N08","username":"Fresh! Pamplemousse","realname":"","favedate":"1366382059","iconserver":"8206","iconfarm":9,"contact":0,"friend":0,"family":0},{"nsid":"54963857@N03","username":"mara\u00f1a accesorios","realname":"MARA\u00d1A ACCESORIOS","favedate":"1365201143","iconserver":"5341","iconfarm":6,"contact":0,"friend":0,"family":0},{"nsid":"41969249@N05","username":"Mezei Vir\u00e1g","realname":"","favedate":"1361308250","iconserver":"3924","iconfarm":4,"contact":0,"friend":0,"family":0},{"nsid":"25638663@N08","username":"Arcadia Lyons","realname":"Arcadia Lyons","favedate":"1359031491","iconserver":"3265","iconfarm":4,"contact":0,"friend":0,"family":0},{"nsid":"16865817@N04","username":"square one studio","realname":"","favedate":"1349013369","iconserver":"7447","iconfarm":8,"contact":0,"friend":0,"family":0},{"nsid":"42036011@N04","username":"jocelyn810","realname":"","favedate":"1348590492","iconserver":"3155","iconfarm":4,"contact":0,"friend":0,"family":0},{"nsid":"17434239@N00","username":"Arielluria","realname":"Ariel Luria","favedate":"1346163626","iconserver":"127","iconfarm":1,"contact":0,"friend":0,"family":0}],"id":"5693415186","secret":"eb0f20a91b","server":"5147","farm":6,"page":1,"pages":10,"perpage":10,"total":"93"},"stat":"ok"}