{"photo":{"person":[{"nsid":"50074869@N04","username":"baka neko *_*)-~","realname":"","favedate":"1433596558","iconserver":"1402","iconfarm":2,"contact":0,"friend":0,"family":0},{"nsid":"24702042@N08","username":"deerpix","realname":"BOB HUEBNER","favedate":"1433087435","iconserver":"2809","iconfarm":3,"contact":0,"friend":0,"family":0},{"nsid":"100061496@N08","username":"jojo 28","realname":"Jo Jo","favedate":"1431787820","iconserver":"0","iconfarm":0,"contact":0,"friend":0,"family":0},{"nsid":"22822941@N08","username":"Bartholomew K Poonsiri","realname":"","favedate":"1429711439","iconserver":"2918","iconfarm":3,"contact":0,"friend":0,"family":0},{"nsid":"128023596@N08","username":"suhridranjandas","realname":"Suhrid Ranjan Das","favedate":"1429679574","iconserver":"7551","iconfarm":8,"contact":0,"friend":0,"family":0},{"nsid":"76525357@N05","username":"Va.Rose","realname":"","favedate":"1428784637","iconserver":"3858","iconfarm":4,"contact":0,"friend":0,"family":0},{"nsid":"65243203@N02","username":"\u745c\u73c9","realname":"\u745c\u73c9 \u5f20","favedate":"1428585188","iconserver":"8872","iconfarm":9,"contact":0,"friend":0,"family":0},{"nsid":"101289507@N04","username":"adam.yzhang","realname":"Adam Y Zhang","favedate":"1428459747","iconserver":"2948","iconfarm":3,"contact":0,"friend":0,"family":0},{"nsid":"100312562@N04","username":"basbaz","realname":"Bas Baz","favedate":"1428289702","iconserver":"2857","iconfarm":3,"contact":0,"friend":0,"family":0},{"nsid":"127081596@N08","username":"Saint\u00e9","realname":"Dju Lius","favedate":"1428268903","iconserver":"8624","iconfarm":9,"contact":0,"friend":0,"family":0}],"id":"17038127541","secret":"50d8f07830","server":"7630","farm":8,"page":1,"pages":3,"perpage":10,"total":"29"},"stat":"ok"}