{"photo":{"person":[{"nsid":"99833499@N02","username":"dougsooley","realname":"Doug Sooley Photography","favedate":"1398142688","iconserver":"7489","iconfarm":8,"contact":0,"friend":0,"family":0},{"nsid":"32073758@N06","username":"bjebie","realname":"","favedate":"1397264143","iconserver":"3145","iconfarm":4,"contact":0,"friend":0,"family":0},{"nsid":"41827056@N08","username":"Harsubagh","realname":"","favedate":"1396880146","iconserver":"7518","iconfarm":8,"contact":0,"friend":0,"family":0},{"nsid":"75468125@N00","username":"JimmyMac210 - just returned home from hospital","realname":"","favedate":"1396525983","iconserver":"2950","iconfarm":3,"contact":0,"friend":0,"family":0},{"nsid":"21789669@N00","username":"Professor Bop","realname":"","favedate":"1396434516","iconserver":"7348","iconfarm":8,"contact":0,"friend":0,"family":0},{"nsid":"100603362@N08","username":"gibaelaura","realname":"Gilberto Vieira","favedate":"1396357609","iconserver":"7560","iconfarm":8,"contact":0,"friend":0,"family":0},{"nsid":"93608894@N02","username":"Jean-Pierre ARIBAU","realname":"Jean-Pierre  ARIBAU","favedate":"1396352733","iconserver":"5482","iconfarm":6,"contact":0,"friend":0,"family":0},{"nsid":"7788428@N06","username":"soniaadammurray - OFF","realname":"Sonia Adam Murray","favedate":"1396151483","iconserver":"278","iconfarm":1,"contact":0,"friend":0,"family":0},{"nsid":"56770085@N05","username":"fede rod","realname":"Federico Rodriguez","favedate":"1396028849","iconserver":"3791","iconfarm":4,"contact":0,"friend":0,"family":0},{"nsid":"50571442@N06","username":"@DafaPhoto","realname":"David","favedate":"1396028578","iconserver":"7286","iconfarm":8,"contact":0,"friend":0,"family":0}],"id":"13322499383","secret":"f85b0bc822","server":"7381","farm":8,"page":1,"pages":5,"perpage":10,"total":"45"},"stat":"ok"}