{"photo":{"person":[{"nsid":"126017600@N04","username":"vestinaklus","realname":"Vestina Klus","favedate":"1409418601","iconserver":"7394","iconfarm":8,"contact":0,"friend":0,"family":0},{"nsid":"122896032@N02","username":"andrzej56urbanski","realname":"Andrzej Urba\u0144ski","favedate":"1405081640","iconserver":"7132","iconfarm":8,"contact":0,"friend":0,"family":0},{"nsid":"96597755@N00","username":"Gytis","realname":"Gytis Cibulskis","favedate":"1405065983","iconserver":"2863","iconfarm":3,"contact":0,"friend":0,"family":0},{"nsid":"52548935@N03","username":"Fj Garc\u00eda","realname":"Fran  Garc\u00eda","favedate":"1401645689","iconserver":"5516","iconfarm":6,"contact":0,"friend":0,"family":0},{"nsid":"66930454@N04","username":"aivas14","realname":"","favedate":"1400700299","iconserver":"2877","iconfarm":3,"contact":0,"friend":0,"family":0},{"nsid":"91570359@N07","username":"Vitalis Gerin","realname":"Vitalis Gerin","favedate":"1394642987","iconserver":"2848","iconfarm":3,"contact":0,"friend":0,"family":0},{"nsid":"105483725@N04","username":"Justina Gabnyt\u0117","realname":"Justina Gabnyt\u0117","favedate":"1394561496","iconserver":"308","iconfarm":1,"contact":0,"friend":0,"family":0},{"nsid":"100673319@N05","username":"Leonardo Cabo Frio RJ","realname":"","favedate":"1394474285","iconserver":"8131","iconfarm":9,"contact":0,"friend":0,"family":0},{"nsid":"98332997@N05","username":"Arijus Katauskas","realname":"","favedate":"1394038259","iconserver":"5533","iconfarm":6,"contact":0,"friend":0,"family":0},{"nsid":"118703723@N04","username":"ilgrii","realname":"","favedate":"1393687438","iconserver":"7457","iconfarm":8,"contact":0,"friend":0,"family":0}],"id":"7988185659","secret":"c7c91de73f","server":"8460","farm":9,"page":1,"pages":2,"perpage":10,"total":"17"},"stat":"ok"}