{"photo":{"person":[{"nsid":"131047379@N04","username":"evelynthomas2010","realname":"Evelyn Thomas","favedate":"1425913731","iconserver":"8616","iconfarm":9,"contact":0,"friend":0,"family":0},{"nsid":"46542599@N03","username":"heavyed","realname":"","favedate":"1421292677","iconserver":"7310","iconfarm":8,"contact":0,"friend":0,"family":0},{"nsid":"48928495@N02","username":"Juan Pablo Roldan","realname":"","favedate":"1419829317","iconserver":"443","iconfarm":1,"contact":0,"friend":0,"family":0},{"nsid":"91566178@N04","username":"Preserving Happiness.","realname":"","favedate":"1419654444","iconserver":"7378","iconfarm":8,"contact":0,"friend":0,"family":0},{"nsid":"125368235@N07","username":"PatrickChambon","realname":"patrick chambon","favedate":"1410156198","iconserver":"410","iconfarm":1,"contact":0,"friend":0,"family":0},{"nsid":"103190994@N04","username":"its Jason B","realname":"","favedate":"1385594544","iconserver":"8793","iconfarm":9,"contact":0,"friend":0,"family":0},{"nsid":"21789669@N00","username":"Professor Bop","realname":"","favedate":"1383618841","iconserver":"7348","iconfarm":8,"contact":0,"friend":0,"family":0},{"nsid":"72671601@N00","username":"G2-2005","realname":"","favedate":"1362278209","iconserver":"8243","iconfarm":9,"contact":0,"friend":0,"family":0},{"nsid":"22575749@N00","username":"MDBKLN","realname":"","favedate":"1354113154","iconserver":"5454","iconfarm":6,"contact":0,"friend":0,"family":0},{"nsid":"36521965462@N01","username":"dasar","realname":"","favedate":"1349867005","iconserver":"7307","iconfarm":8,"contact":0,"friend":0,"family":0}],"id":"7105851569","secret":"84fbe37f05","server":"7180","farm":8,"page":1,"pages":3,"perpage":10,"total":"27"},"stat":"ok"}