{"photo":{"person":[{"nsid":"99216864@N06","username":"zen.tan","realname":"Zen Tan","favedate":"1434349092","iconserver":"7292","iconfarm":8,"contact":0,"friend":0,"family":0},{"nsid":"130509072@N04","username":"doloresa.lapina","realname":"Doloresa Lapina","favedate":"1432236544","iconserver":"7588","iconfarm":8,"contact":0,"friend":0,"family":0},{"nsid":"83227206@N02","username":"ivona eriuivona","realname":"","favedate":"1429396238","iconserver":"7687","iconfarm":8,"contact":0,"friend":0,"family":0},{"nsid":"28180431@N05","username":"natasja db","realname":"","favedate":"1424431023","iconserver":"3084","iconfarm":4,"contact":0,"friend":0,"family":0},{"nsid":"108788421@N02","username":"francisco.pereira28","realname":"Francisco Pereira","favedate":"1423857886","iconserver":"5160","iconfarm":6,"contact":0,"friend":0,"family":0},{"nsid":"11473706@N03","username":"Cost3l","realname":"Costel Slincu","favedate":"1423269550","iconserver":"3906","iconfarm":4,"contact":0,"friend":0,"family":0},{"nsid":"108839935@N04","username":"silentpuma2","realname":"Jun L","favedate":"1421901568","iconserver":"0","iconfarm":0,"contact":0,"friend":0,"family":0},{"nsid":"102058705@N06","username":"SpringZephyr","realname":"","favedate":"1421624297","iconserver":"7324","iconfarm":8,"contact":0,"friend":0,"family":0},{"nsid":"127890472@N08","username":"Ho\u00e0ng Ph\u01b0\u01a1ng Anh","realname":"Ph\u01b0\u01a1ng Anh Ho\u00e0ng","favedate":"1419701763","iconserver":"5605","iconfarm":6,"contact":0,"friend":0,"family":0},{"nsid":"107600145@N05","username":"Anastasia Gentil","realname":"Anastasia Gentil","favedate":"1419527985","iconserver":"8653","iconfarm":9,"contact":0,"friend":0,"family":0}],"id":"8326144391","secret":"451e963f8a","server":"8213","farm":9,"page":1,"pages":12,"perpage":10,"total":"114"},"stat":"ok"}