{"photo":{"person":[{"nsid":"102744693@N05","username":"aarnokurkela","realname":"Aarno Kurkela","favedate":"1436297951","iconserver":"3797","iconfarm":4,"contact":0,"friend":0,"family":0},{"nsid":"65042165@N07","username":"\u2600galaxius2013\u2600","realname":"Patrick Steinert","favedate":"1434715624","iconserver":"3678","iconfarm":4,"contact":0,"friend":0,"family":0},{"nsid":"99255026@N07","username":"FinnCamera","realname":"","favedate":"1434029903","iconserver":"7378","iconfarm":8,"contact":0,"friend":0,"family":0},{"nsid":"97295115@N04","username":"clkdoglover","realname":"cheryl k","favedate":"1433849357","iconserver":"0","iconfarm":0,"contact":0,"friend":0,"family":0},{"nsid":"11015562@N04","username":"benlgraham","realname":"Ben Graham","favedate":"1433172774","iconserver":"7532","iconfarm":8,"contact":0,"friend":0,"family":0},{"nsid":"104633395@N05","username":"bibilamy","realname":"Barbara Lamy","favedate":"1432830448","iconserver":"5516","iconfarm":6,"contact":0,"friend":0,"family":0},{"nsid":"117042942@N04","username":"frankvampiry","realname":"Duc Nguyen","favedate":"1432595055","iconserver":"5331","iconfarm":6,"contact":0,"friend":0,"family":0},{"nsid":"111845084@N07","username":"Marc\u00e3o1001","realname":"MARCO ANTONIO LIMA SILVA","favedate":"1432580469","iconserver":"7788","iconfarm":8,"contact":0,"friend":0,"family":0},{"nsid":"132841136@N03","username":"joxesk","realname":"Joakim Eskildsen","favedate":"1432574398","iconserver":"0","iconfarm":0,"contact":0,"friend":0,"family":0},{"nsid":"84129858@N03","username":"Victor Porof","realname":"Victor Porof","favedate":"1432559788","iconserver":"8655","iconfarm":9,"contact":0,"friend":0,"family":0}],"id":"17098543348","secret":"2f0cbd5273","server":"7674","farm":8,"page":1,"pages":28,"perpage":10,"total":"271"},"stat":"ok"}