{"photo":{"person":[{"nsid":"69644089@N08","username":"M7CCF STYLE! 2014","realname":"Chris C Ferguson","favedate":"1366066353","iconserver":"7593","iconfarm":8,"contact":0,"friend":0,"family":0},{"nsid":"11814165@N07","username":"Wyethia","realname":"","favedate":"1365734918","iconserver":"7163","iconfarm":8,"contact":0,"friend":0,"family":0},{"nsid":"18583713@N06","username":"josefontheroad","realname":"","favedate":"1365716151","iconserver":"3203","iconfarm":4,"contact":0,"friend":0,"family":0},{"nsid":"14556247@N05","username":"Robert in Toronto","realname":"","favedate":"1365647430","iconserver":"7458","iconfarm":8,"contact":0,"friend":0,"family":0},{"nsid":"7558695@N05","username":"stuartcroy","realname":"stuart croy","favedate":"1365533489","iconserver":"5034","iconfarm":6,"contact":0,"friend":0,"family":0},{"nsid":"82296211@N08","username":"steigiotto","realname":"","favedate":"1365529323","iconserver":"8094","iconfarm":9,"contact":0,"friend":0,"family":0},{"nsid":"9810894@N08","username":"nO_ok","realname":"Not real No name","favedate":"1365527615","iconserver":"7498","iconfarm":8,"contact":0,"friend":0,"family":0},{"nsid":"63096542@N02","username":"[imperfect]","realname":"Dominik  Schmitt","favedate":"1365523390","iconserver":"7483","iconfarm":8,"contact":0,"friend":0,"family":0},{"nsid":"68180040@N02","username":"Louis Bamford","realname":"Louis  Bamford","favedate":"1365520859","iconserver":"3831","iconfarm":4,"contact":0,"friend":0,"family":0},{"nsid":"47764086@N00","username":"Traigh Mhor","realname":"John","favedate":"1365508907","iconserver":"5324","iconfarm":6,"contact":0,"friend":0,"family":0}],"id":"8633388275","secret":"29b5d1809b","server":"8527","farm":9,"page":1,"pages":2,"perpage":10,"total":"15"},"stat":"ok"}