{"photo":{"person":[{"nsid":"94190588@N03","username":"Riyad Enakoua","realname":"Riyad Enakoua","favedate":"1391644262","iconserver":"5497","iconfarm":6,"contact":0,"friend":0,"family":0},{"nsid":"68778436@N04","username":"The Open Wall (Catching Up)","realname":"","favedate":"1372772470","iconserver":"7306","iconfarm":8,"contact":0,"friend":0,"family":0},{"nsid":"92205962@N08","username":"blackm0one","realname":"","favedate":"1371641978","iconserver":"8677","iconfarm":9,"contact":0,"friend":0,"family":0},{"nsid":"88502812@N07","username":"new_day_new_life","realname":"Freund des Lichts","favedate":"1357659088","iconserver":"8235","iconfarm":9,"contact":0,"friend":0,"family":0},{"nsid":"83228460@N03","username":"M\u00e1rio Triskal","realname":"M\u00e1rio Nunes Neto","favedate":"1356717931","iconserver":"3873","iconfarm":4,"contact":0,"friend":0,"family":0},{"nsid":"53268408@N02","username":"fotoeluci.eu \"why not get a friends-contact?\"","realname":"Fotoeluci.eu +200.000 view","favedate":"1356655626","iconserver":"8383","iconfarm":9,"contact":0,"friend":0,"family":0},{"nsid":"35308669@N02","username":"Maurizio Carlieri","realname":"","favedate":"1356607953","iconserver":"3682","iconfarm":4,"contact":0,"friend":0,"family":0},{"nsid":"78618880@N02","username":"J*Style","realname":"jeff baik","favedate":"1356232163","iconserver":"7243","iconfarm":8,"contact":0,"friend":0,"family":0},{"nsid":"46626457@N07","username":"djr.aquarelle","realname":"Doris","favedate":"1356166508","iconserver":"3723","iconfarm":4,"contact":0,"friend":0,"family":0},{"nsid":"23601849@N05","username":"silwittmann","realname":"silwittmann","favedate":"1356137460","iconserver":"2835","iconfarm":3,"contact":0,"friend":0,"family":0}],"id":"8070380130","secret":"4ab3848322","server":"8169","farm":9,"page":1,"pages":13,"perpage":10,"total":"128"},"stat":"ok"}