{"photo":{"person":[{"nsid":"129577305@N08","username":"davidchu1021","realname":"david Chu","favedate":"1424959514","iconserver":"7647","iconfarm":8,"contact":0,"friend":0,"family":0},{"nsid":"54312761@N05","username":"DERLY2","realname":"","favedate":"1409243904","iconserver":"4152","iconfarm":5,"contact":0,"friend":0,"family":0},{"nsid":"101637188@N08","username":"jayaprakash9999","realname":"Jaya Prakash","favedate":"1409156715","iconserver":"7332","iconfarm":8,"contact":0,"friend":0,"family":0},{"nsid":"73260897@N03","username":"ultravivid imaging","realname":"Richard Thot","favedate":"1409027761","iconserver":"7313","iconfarm":8,"contact":0,"friend":0,"family":0},{"nsid":"100188990@N02","username":"Shootmania","realname":"","favedate":"1408308809","iconserver":"7443","iconfarm":8,"contact":0,"friend":0,"family":0},{"nsid":"11563376@N03","username":"SolarScot.","realname":"","favedate":"1408133225","iconserver":"7537","iconfarm":8,"contact":0,"friend":0,"family":0},{"nsid":"23236791@N05","username":"Peggy_V","realname":"Peggy V","favedate":"1408055908","iconserver":"0","iconfarm":0,"contact":0,"friend":0,"family":0},{"nsid":"16431636@N07","username":"Chris*Bolton","realname":"","favedate":"1408043444","iconserver":"8643","iconfarm":9,"contact":0,"friend":0,"family":0},{"nsid":"14279081@N08","username":"\u039eSS\u039e\u00ae\u00ae\u039e","realname":"Stefano Rugolo","favedate":"1408033129","iconserver":"7786","iconfarm":8,"contact":0,"friend":0,"family":0},{"nsid":"18761825@N00","username":"Ashley1954","realname":"","favedate":"1408014358","iconserver":"7310","iconfarm":8,"contact":0,"friend":0,"family":0}],"id":"14904021681","secret":"701fa436d8","server":"3867","farm":4,"page":1,"pages":4,"perpage":10,"total":"37"},"stat":"ok"}