{"photo":{"person":[{"nsid":"58725234@N04","username":"netlunatic","realname":"AArash Shams Mohammadi","favedate":"1406334287","iconserver":"3907","iconfarm":4,"contact":0,"friend":0,"family":0},{"nsid":"103865249@N08","username":"Iran In Photos","realname":"Aryana M.G.","favedate":"1380775442","iconserver":"3761","iconfarm":4,"contact":0,"friend":0,"family":0},{"nsid":"28232720@N04","username":"pangzihu","realname":"Jianglie Hu","favedate":"1322632528","iconserver":"2889","iconfarm":3,"contact":0,"friend":0,"family":0},{"nsid":"32776049@N02","username":"stlblues_bass","realname":"","favedate":"1311559401","iconserver":"0","iconfarm":0,"contact":0,"friend":0,"family":0},{"nsid":"38592047@N08","username":"gregory gardener","realname":"","favedate":"1293624456","iconserver":"2564","iconfarm":3,"contact":0,"friend":0,"family":0},{"nsid":"39076792@N02","username":"Raheel Adnan","realname":"Raheel Adnan","favedate":"1292315786","iconserver":"4050","iconfarm":5,"contact":0,"friend":0,"family":0},{"nsid":"55757047@N07","username":"homayunshariatzade","realname":"","favedate":"1290239247","iconserver":"0","iconfarm":0,"contact":0,"friend":0,"family":0},{"nsid":"33731812@N02","username":"Andreas (no-nick)","realname":"","favedate":"1252409181","iconserver":"7242","iconfarm":8,"contact":0,"friend":0,"family":0},{"nsid":"15180975@N06","username":"N.Khodaie","realname":"Nasseh Khodaie","favedate":"1213365639","iconserver":"5483","iconfarm":6,"contact":0,"friend":0,"family":0},{"nsid":"9773886@N04","username":"Anna.Andres","realname":"Anna Gu\u00f0mundsd\u00f3ttir","favedate":"1200941069","iconserver":"3723","iconfarm":4,"contact":0,"friend":0,"family":0}],"id":"2061670941","secret":"cbed1796fa","server":"2310","farm":3,"page":1,"pages":2,"perpage":10,"total":"15"},"stat":"ok"}