{"photo":{"person":[{"nsid":"62176098@N06","username":"Rcckt","realname":"Alexander","favedate":"1427785389","iconserver":"7438","iconfarm":8,"contact":0,"friend":0,"family":0},{"nsid":"64085688@N00","username":"Ennev","realname":"Stephane Venne","favedate":"1398520182","iconserver":"3949","iconfarm":4,"contact":0,"friend":0,"family":0},{"nsid":"38523785@N00","username":"It'sGreg","realname":"greg","favedate":"1398352736","iconserver":"5337","iconfarm":6,"contact":0,"friend":0,"family":0},{"nsid":"22751620@N00","username":"Pedalhead'71","realname":"","favedate":"1398296077","iconserver":"8405","iconfarm":9,"contact":0,"friend":0,"family":0},{"nsid":"69053211@N06","username":"lilvicks22 (they call me Vicky)","realname":"Vicky","favedate":"1398280733","iconserver":"3730","iconfarm":4,"contact":0,"friend":0,"family":0},{"nsid":"41089974@N07","username":"bytegirl24","realname":"Photography by Bytegirl","favedate":"1398266528","iconserver":"5560","iconfarm":6,"contact":0,"friend":0,"family":0},{"nsid":"20087352@N06","username":"vivagirlco","realname":"","favedate":"1398263159","iconserver":"7348","iconfarm":8,"contact":0,"friend":0,"family":0},{"nsid":"73433131@N05","username":"Solent101","realname":"","favedate":"1398246268","iconserver":"5607","iconfarm":6,"contact":0,"friend":0,"family":0},{"nsid":"88795127@N02","username":"LPiH","realname":"Louis-Pierre Henry","favedate":"1398237250","iconserver":"2808","iconfarm":3,"contact":0,"friend":0,"family":0},{"nsid":"105543807@N06","username":"bat7000","realname":"","favedate":"1398233609","iconserver":"7440","iconfarm":8,"contact":0,"friend":0,"family":0}],"id":"13977172604","secret":"d2c36e95d8","server":"7035","farm":8,"page":1,"pages":2,"perpage":10,"total":"13"},"stat":"ok"}