{"photo":{"person":[{"nsid":"88299642@N07","username":"emphotos103 (Away )","realname":"Em","favedate":"1356989471","iconserver":"8462","iconfarm":9,"contact":0,"friend":0,"family":0},{"nsid":"13608713@N07","username":"shaman_healing","realname":"","favedate":"1356455546","iconserver":"2868","iconfarm":3,"contact":0,"friend":0,"family":0},{"nsid":"36426732@N05","username":"ZUCCONY","realname":"Bobby Zucco","favedate":"1356370278","iconserver":"5616","iconfarm":6,"contact":0,"friend":0,"family":0},{"nsid":"13675180@N08","username":"bjarne.stokke","realname":"","favedate":"1356258186","iconserver":"5345","iconfarm":6,"contact":0,"friend":0,"family":0},{"nsid":"8790322@N02","username":"ruthiedee","realname":"Ruth Douillette","favedate":"1356106466","iconserver":"3830","iconfarm":4,"contact":0,"friend":0,"family":0},{"nsid":"49123319@N08","username":"T\u00f3ta. 27.12.1964.","realname":"\u00de\u00f3runn \u00deorsteinsd\u00f3ttir.","favedate":"1356023773","iconserver":"3758","iconfarm":4,"contact":0,"friend":0,"family":0},{"nsid":"81893592@N07","username":"Mary H.C.","realname":"Mary Healy Carter","favedate":"1355607306","iconserver":"377","iconfarm":1,"contact":0,"friend":0,"family":0},{"nsid":"23503261@N07","username":"Toan N.","realname":"Toan N.","favedate":"1355539824","iconserver":"7429","iconfarm":8,"contact":0,"friend":0,"family":0},{"nsid":"75782993@N00","username":"zunyang","realname":"zunyang","favedate":"1355501501","iconserver":"7337","iconfarm":8,"contact":0,"friend":0,"family":0},{"nsid":"40610636@N03","username":"Reina Smallenbroek","realname":"Reina","favedate":"1355500508","iconserver":"2946","iconfarm":3,"contact":0,"friend":0,"family":0}],"id":"8267443086","secret":"3f70bf4795","server":"8209","farm":9,"page":1,"pages":2,"perpage":10,"total":"13"},"stat":"ok"}