{"photo":{"person":[{"nsid":"22591100@N08","username":"claudinodebarba","realname":"","favedate":"1278460099","iconserver":"2759","iconfarm":3,"contact":0,"friend":0,"family":0},{"nsid":"21333727@N07","username":"wayne j","realname":"Wayne Jackson","favedate":"1198376834","iconserver":"2210","iconfarm":3,"contact":0,"friend":0,"family":0},{"nsid":"94912782@N00","username":"4tunate1","realname":"Bill","favedate":"1183934348","iconserver":"98","iconfarm":1,"contact":0,"friend":0,"family":0},{"nsid":"71423247@N00","username":"outro_olhar79","realname":"","favedate":"1183672861","iconserver":"3864","iconfarm":4,"contact":0,"friend":0,"family":0},{"nsid":"99373710@N00","username":"(\u00af`\u00b7._.\u00b7[Phoenix Ocean]\u00b7._.\u00b7\u00b4\u00af)","realname":"","favedate":"1183651096","iconserver":"121","iconfarm":1,"contact":0,"friend":0,"family":0},{"nsid":"14973970@N00","username":"M\u00e1ximo","realname":"","favedate":"1183647224","iconserver":"96","iconfarm":1,"contact":0,"friend":0,"family":0},{"nsid":"49824392@N00","username":"*Gabisa Motonia","realname":"","favedate":"1183646315","iconserver":"83","iconfarm":1,"contact":0,"friend":0,"family":0},{"nsid":"8897771@N06","username":"a.renate","realname":"Renate Adolfs","favedate":"1183637792","iconserver":"1142","iconfarm":2,"contact":0,"friend":0,"family":0},{"nsid":"86372464@N00","username":"zocalo2010","realname":"","favedate":"1183616472","iconserver":"124","iconfarm":1,"contact":0,"friend":0,"family":0},{"nsid":"87129989@N00","username":"SergioBarbieri","realname":"sergio barbieri","favedate":"1183612405","iconserver":"89","iconfarm":1,"contact":0,"friend":0,"family":0}],"id":"719257672","secret":"9e8b3d8baf","server":"1281","farm":2,"page":1,"pages":2,"perpage":10,"total":"20"},"stat":"ok"}