{"photo":{"person":[{"nsid":"37412880@N04","username":"Jeroenc71","realname":"","favedate":"1418065615","iconserver":"7475","iconfarm":8,"contact":0,"friend":0,"family":0},{"nsid":"121626822@N02","username":"blindpainter1","realname":"","favedate":"1417939597","iconserver":"348","iconfarm":1,"contact":0,"friend":0,"family":0},{"nsid":"92053047@N08","username":"agabarka","realname":"Bartosz Czubak","favedate":"1417916614","iconserver":"3667","iconfarm":4,"contact":0,"friend":0,"family":0},{"nsid":"122474595@N05","username":"Guto Moreira (James)","realname":"","favedate":"1417911331","iconserver":"2907","iconfarm":3,"contact":0,"friend":0,"family":0},{"nsid":"127107181@N06","username":"The Evil Reverend Trask","realname":"Edgar Trask","favedate":"1417907193","iconserver":"5565","iconfarm":6,"contact":0,"friend":0,"family":0},{"nsid":"94555375@N07","username":"johndalton69","realname":"john dalton","favedate":"1417903088","iconserver":"3846","iconfarm":4,"contact":0,"friend":0,"family":0},{"nsid":"56729475@N03","username":"massimo cuomo","realname":"massimo cuomo","favedate":"1417901890","iconserver":"5578","iconfarm":6,"contact":0,"friend":0,"family":0},{"nsid":"94579059@N05","username":"m43photos (En vacances \/ On holiday)","realname":"S\u00e9bastien (m43photos)","favedate":"1417898701","iconserver":"2859","iconfarm":3,"contact":0,"friend":0,"family":0},{"nsid":"123657458@N08","username":"Manuel Marquez G.","realname":"Manuel Marquez  G.","favedate":"1417898255","iconserver":"542","iconfarm":1,"contact":0,"friend":0,"family":0},{"nsid":"70000439@N07","username":"Lay-Flurrie","realname":"","favedate":"1417897006","iconserver":"3755","iconfarm":4,"contact":0,"friend":0,"family":0}],"id":"15341262103","secret":"b74383b295","server":"7484","farm":8,"page":1,"pages":2,"perpage":10,"total":"11"},"stat":"ok"}