{"photo":{"person":[{"nsid":"99294502@N02","username":"Davide_Allen","realname":"Davide Cattaneo","favedate":"1432392817","iconserver":"3733","iconfarm":4,"contact":0,"friend":0,"family":0},{"nsid":"28429264@N07","username":"E2A2","realname":"Erik Elston","favedate":"1423318565","iconserver":"5455","iconfarm":6,"contact":0,"friend":0,"family":0},{"nsid":"128152264@N03","username":"mattyburras","realname":"matthew burras","favedate":"1421356948","iconserver":"7624","iconfarm":8,"contact":0,"friend":0,"family":0},{"nsid":"76297493@N02","username":"Splatito8127","realname":"","favedate":"1421340677","iconserver":"5607","iconfarm":6,"contact":0,"friend":0,"family":0},{"nsid":"54905570@N08","username":"arka38","realname":"arka 38","favedate":"1421266490","iconserver":"7415","iconfarm":8,"contact":0,"friend":0,"family":0},{"nsid":"57896932@N03","username":"bent.christiansen","realname":"Bent Christiansen","favedate":"1420918692","iconserver":"5457","iconfarm":6,"contact":0,"friend":0,"family":0},{"nsid":"33934019@N07","username":"postoffis","realname":"","favedate":"1420782654","iconserver":"7562","iconfarm":8,"contact":0,"friend":0,"family":0},{"nsid":"98726648@N04","username":"pspradbrow","realname":"Peter Spradbrow","favedate":"1420609659","iconserver":"5481","iconfarm":6,"contact":0,"friend":0,"family":0},{"nsid":"126208682@N06","username":"will cadbury","realname":"Will Cadbury","favedate":"1420397604","iconserver":"5557","iconfarm":6,"contact":0,"friend":0,"family":0},{"nsid":"124649607@N03","username":"vgphotoz","realname":"Vlad G","favedate":"1419452824","iconserver":"5550","iconfarm":6,"contact":0,"friend":0,"family":0}],"id":"16088277952","secret":"99b7c32a63","server":"8675","farm":9,"page":1,"pages":2,"perpage":10,"total":"16"},"stat":"ok"}