{"photo":{"person":[{"nsid":"125835949@N06","username":"joellypolly","realname":"joel cartmell","favedate":"1431748954","iconserver":"7340","iconfarm":8,"contact":0,"friend":0,"family":0},{"nsid":"26194174@N06","username":"Sentido Fotograf\u00eda","realname":"Mr. Fimia","favedate":"1427133895","iconserver":"8634","iconfarm":9,"contact":0,"friend":0,"family":0},{"nsid":"85641321@N04","username":"R\u25b2F\u25b2VT","realname":"","favedate":"1422819402","iconserver":"7423","iconfarm":8,"contact":0,"friend":0,"family":0},{"nsid":"79581664@N07","username":"Stefano Paradossi","realname":"Stefano Paradossi","favedate":"1421935639","iconserver":"7231","iconfarm":8,"contact":0,"friend":0,"family":0},{"nsid":"49755631@N02","username":"anmalo2010","realname":"antonio martinez","favedate":"1421888399","iconserver":"2808","iconfarm":3,"contact":0,"friend":0,"family":0},{"nsid":"53269577@N08","username":"Viagens5","realname":"","favedate":"1421884985","iconserver":"7721","iconfarm":8,"contact":0,"friend":0,"family":0},{"nsid":"123795470@N04","username":"Paradise GPS","realname":"","favedate":"1421688233","iconserver":"8635","iconfarm":9,"contact":0,"friend":0,"family":0},{"nsid":"128876843@N08","username":"PatricioG97","realname":"","favedate":"1421605321","iconserver":"7644","iconfarm":8,"contact":0,"friend":0,"family":0},{"nsid":"103710827@N06","username":"Elisabeth Mart\u00ednez C\u00e1novas","realname":"Elisabeth Mart\u00ednez C\u00e1novas","favedate":"1421589058","iconserver":"8663","iconfarm":9,"contact":0,"friend":0,"family":0},{"nsid":"48628848@N06","username":"Irene Cebolla Photography.","realname":"Irene Cebolla Photography.","favedate":"1413312035","iconserver":"5471","iconfarm":6,"contact":0,"friend":0,"family":0}],"id":"11835839746","secret":"bc37dae8bc","server":"7370","farm":8,"page":1,"pages":4,"perpage":10,"total":"35"},"stat":"ok"}