{"photo":{"person":[{"nsid":"123337913@N05","username":"Twelve Crows","realname":"","favedate":"1432044468","iconserver":"2913","iconfarm":3,"contact":0,"friend":0,"family":0},{"nsid":"129381729@N08","username":"Alexander.Weichsel.Photography","realname":"Alexander Weichsel","favedate":"1426644891","iconserver":"5609","iconfarm":6,"contact":0,"friend":0,"family":0},{"nsid":"65169820@N06","username":"Pelintra","realname":"","favedate":"1425571171","iconserver":"5327","iconfarm":6,"contact":0,"friend":0,"family":0},{"nsid":"98413384@N03","username":"http:\/\/thomasthorstensson.photography","realname":"Thomas Thorstensson","favedate":"1425269142","iconserver":"7531","iconfarm":8,"contact":0,"friend":0,"family":0},{"nsid":"126249400@N03","username":"Anton Krasnikov","realname":"Anton Krasnikov","favedate":"1425031062","iconserver":"8877","iconfarm":9,"contact":0,"friend":0,"family":0},{"nsid":"46724410@N07","username":"Rokkor Fella","realname":"","favedate":"1424876711","iconserver":"5533","iconfarm":6,"contact":0,"friend":0,"family":0},{"nsid":"36930701@N03","username":"volky67","realname":"Alexey Volkov","favedate":"1424765839","iconserver":"5576","iconfarm":6,"contact":0,"friend":0,"family":0},{"nsid":"82715661@N04","username":"justmeandme2012","realname":"","favedate":"1424726997","iconserver":"7470","iconfarm":8,"contact":0,"friend":0,"family":0},{"nsid":"121647475@N07","username":"Reira_Kiame","realname":"Lera Kiame","favedate":"1424713728","iconserver":"3920","iconfarm":4,"contact":0,"friend":0,"family":0},{"nsid":"130589112@N03","username":"Nicolay_","realname":"Nicolay","favedate":"1424644516","iconserver":"362","iconfarm":1,"contact":0,"friend":0,"family":0}],"id":"16576971516","secret":"13e444e586","server":"8652","farm":9,"page":1,"pages":3,"perpage":10,"total":"25"},"stat":"ok"}