{"photo":{"person":[{"nsid":"24702042@N08","username":"deerpix","realname":"BOB HUEBNER","favedate":"1433087472","iconserver":"2809","iconfarm":3,"contact":0,"friend":0,"family":0},{"nsid":"65243203@N02","username":"\u745c\u73c9","realname":"\u745c\u73c9 \u5f20","favedate":"1428636642","iconserver":"8872","iconfarm":9,"contact":0,"friend":0,"family":0},{"nsid":"56045094@N06","username":"\u4e2d\u9014\u4e0b\u8eca","realname":"","favedate":"1428268092","iconserver":"1010","iconfarm":2,"contact":0,"friend":0,"family":0},{"nsid":"91492423@N04","username":"shonan_wave","realname":"","favedate":"1428237940","iconserver":"8091","iconfarm":9,"contact":0,"friend":0,"family":0},{"nsid":"129082935@N08","username":"Andrew Konstantinov","realname":"Andrew Konstantinov","favedate":"1428148899","iconserver":"8742","iconfarm":9,"contact":0,"friend":0,"family":0},{"nsid":"49123319@N08","username":"T\u00f3ta. 27.12.1964.","realname":"\u00de\u00f3runn \u00deorsteinsd\u00f3ttir.","favedate":"1428148142","iconserver":"3758","iconfarm":4,"contact":0,"friend":0,"family":0},{"nsid":"100312562@N04","username":"basbaz","realname":"Bas Baz","favedate":"1428030617","iconserver":"2857","iconfarm":3,"contact":0,"friend":0,"family":0},{"nsid":"124079914@N06","username":"Ekaterina Pedroni","realname":"Ekaterina Pedroni","favedate":"1428013200","iconserver":"8688","iconfarm":9,"contact":0,"friend":0,"family":0},{"nsid":"129381729@N08","username":"Alexander.Weichsel.Photography","realname":"Alexander Weichsel","favedate":"1427997963","iconserver":"5609","iconfarm":6,"contact":0,"friend":0,"family":0},{"nsid":"130609852@N08","username":"pallorde","realname":"","favedate":"1427994523","iconserver":"321","iconfarm":1,"contact":0,"friend":0,"family":0}],"id":"16387133363","secret":"b51390ae7d","server":"7618","farm":8,"page":1,"pages":4,"perpage":10,"total":"31"},"stat":"ok"}