{"photo":{"person":[{"nsid":"29375511@N04","username":"Amjad Ahmed","realname":"Amjad Ahmed","favedate":"1410729541","iconserver":"3058","iconfarm":4,"contact":0,"friend":0,"family":0},{"nsid":"98126199@N03","username":"louislim1004@rocketmail.com","realname":"Yee Chin Lim","favedate":"1410514979","iconserver":"5348","iconfarm":6,"contact":0,"friend":0,"family":0},{"nsid":"97984208@N06","username":"O.Tsapko","realname":"Oleg Tsapko","favedate":"1410508125","iconserver":"0","iconfarm":0,"contact":0,"friend":0,"family":0},{"nsid":"110544677@N03","username":"Bernhard Mueller","realname":"Bernhard Mueller","favedate":"1397186833","iconserver":"2890","iconfarm":3,"contact":0,"friend":0,"family":0},{"nsid":"93243922@N07","username":"bryanesler","realname":"Bryan Esler","favedate":"1392736583","iconserver":"3842","iconfarm":4,"contact":0,"friend":0,"family":0},{"nsid":"90070805@N02","username":"Mahleriana","realname":"","favedate":"1392426403","iconserver":"8062","iconfarm":9,"contact":0,"friend":0,"family":0},{"nsid":"44205478@N05","username":"KVM2694","realname":"","favedate":"1386839839","iconserver":"7302","iconfarm":8,"contact":0,"friend":0,"family":0},{"nsid":"78325740@N00","username":"Daniel Crompton","realname":"","favedate":"1386458798","iconserver":"3734","iconfarm":4,"contact":0,"friend":0,"family":0},{"nsid":"26417989@N00","username":"Fitzrovia","realname":"Amro","favedate":"1386450119","iconserver":"7344","iconfarm":8,"contact":0,"friend":0,"family":0},{"nsid":"65979892@N08","username":"Fiktion des Faktischen","realname":"","favedate":"1386442383","iconserver":"347","iconfarm":1,"contact":0,"friend":0,"family":0}],"id":"11208016225","secret":"64027f9a9d","server":"7437","farm":8,"page":1,"pages":10,"perpage":10,"total":"92"},"stat":"ok"}