{"photo":{"person":[{"nsid":"8402073@N05","username":"Tessa Zalivstok de 3206","realname":"","favedate":"1336659766","iconserver":"5564","iconfarm":6,"contact":0,"friend":0,"family":0},{"nsid":"8243976@N03","username":"zio paperino","realname":"Paolino Paperino","favedate":"1336569510","iconserver":"7278","iconfarm":8,"contact":0,"friend":0,"family":0},{"nsid":"34726560@N00","username":"Steve-h","realname":"","favedate":"1336408804","iconserver":"3665","iconfarm":4,"contact":0,"friend":0,"family":0},{"nsid":"21608496@N02","username":"ddsnet","realname":"Chun-Chih FAN","favedate":"1336389233","iconserver":"7481","iconfarm":8,"contact":0,"friend":0,"family":0},{"nsid":"60976823@N00","username":"MyRidgebacks - Sharon C Johnson","realname":"","favedate":"1336330141","iconserver":"8535","iconfarm":9,"contact":0,"friend":0,"family":0},{"nsid":"43928101@N02","username":"anwarsiak***sibuk***","realname":"anwar siak","favedate":"1336305806","iconserver":"2671","iconfarm":3,"contact":0,"friend":0,"family":0},{"nsid":"8618958@N06","username":"euskadi 69","realname":"DELION David","favedate":"1336141801","iconserver":"3821","iconfarm":4,"contact":0,"friend":0,"family":0},{"nsid":"58091915@N00","username":"giamplume","realname":"giampaolo cianella","favedate":"1335340712","iconserver":"74","iconfarm":1,"contact":0,"friend":0,"family":0},{"nsid":"21648944@N05","username":"Gregor  Samsa","realname":"Gregor Samsa","favedate":"1335282282","iconserver":"7466","iconfarm":8,"contact":0,"friend":0,"family":0},{"nsid":"69775759@N02","username":"prdsra10","realname":"","favedate":"1335268990","iconserver":"6234","iconfarm":7,"contact":0,"friend":0,"family":0}],"id":"6956157508","secret":"ba439f05f9","server":"8155","farm":9,"page":1,"pages":2,"perpage":10,"total":"13"},"stat":"ok"}