{"photo":{"person":[{"nsid":"7863088@N02","username":"J u n g a","realname":"","favedate":"1306126829","iconserver":"3813","iconfarm":4,"contact":0,"friend":0,"family":0},{"nsid":"12377042@N05","username":"matfer","realname":"Matteo","favedate":"1305788332","iconserver":"2837","iconfarm":3,"contact":0,"friend":0,"family":0},{"nsid":"24426687@N07","username":"Pel\u00e93","realname":"","favedate":"1305144372","iconserver":"3145","iconfarm":4,"contact":0,"friend":0,"family":0},{"nsid":"16192695@N05","username":"Ellie May.","realname":"","favedate":"1265312770","iconserver":"7353","iconfarm":8,"contact":0,"friend":0,"family":0},{"nsid":"37423546@N08","username":"Fredscapes","realname":"","favedate":"1264866402","iconserver":"7371","iconfarm":8,"contact":0,"friend":0,"family":0},{"nsid":"43992737@N07","username":"KathrynApril","realname":"Kathy","favedate":"1264535834","iconserver":"2767","iconfarm":3,"contact":0,"friend":0,"family":0},{"nsid":"42023474@N00","username":"\u2606\u2606\u2606Patrick.D\u2606\u2606\u2606","realname":"Allen Clive Patrick  Duval","favedate":"1264449228","iconserver":"7542","iconfarm":8,"contact":0,"friend":0,"family":0},{"nsid":"35751760@N03","username":"WM ArtPhoto ( Balanze)","realname":"maria westling","favedate":"1264444678","iconserver":"3400","iconfarm":4,"contact":0,"friend":0,"family":0},{"nsid":"45844595@N05","username":"Ganymede: Photography","realname":"Jose Alberto M. Cobos","favedate":"1264114109","iconserver":"3819","iconfarm":4,"contact":0,"friend":0,"family":0},{"nsid":"25198310@N07","username":"Rainbow_85","realname":"Sue","favedate":"1264027278","iconserver":"3152","iconfarm":4,"contact":0,"friend":0,"family":0}],"id":"4288596040","secret":"4be7814b11","server":"2695","farm":3,"page":1,"pages":2,"perpage":10,"total":"13"},"stat":"ok"}