{"photo":{"person":[{"nsid":"39017612@N07","username":"canecrabe","realname":"","favedate":"1401870227","iconserver":"2377","iconfarm":3,"contact":0,"friend":0,"family":0},{"nsid":"50260960@N06","username":"Afchine Davoudi","realname":"Afchine Davoudi","favedate":"1401496486","iconserver":"7519","iconfarm":8,"contact":0,"friend":0,"family":0},{"nsid":"77729972@N04","username":"lariglea","realname":"Lari Glea","favedate":"1392147285","iconserver":"3721","iconfarm":4,"contact":0,"friend":0,"family":0},{"nsid":"89299072@N06","username":"Henk Koning :: \"The joy of taking pictures ...!\"","realname":"Henk Koning","favedate":"1356038569","iconserver":"8185","iconfarm":9,"contact":0,"friend":0,"family":0},{"nsid":"88345903@N00","username":"xgray","realname":"Stephen Gray","favedate":"1350573719","iconserver":"7522","iconfarm":8,"contact":0,"friend":0,"family":0},{"nsid":"73132947@N00","username":"Alvise Pettoello","realname":"Alvise Pettoello","favedate":"1348297158","iconserver":"4060","iconfarm":5,"contact":0,"friend":0,"family":0},{"nsid":"54181760@N06","username":"Alexander van den Bosch","realname":"Alexander van den Bosch","favedate":"1343372655","iconserver":"7362","iconfarm":8,"contact":0,"friend":0,"family":0},{"nsid":"77561638@N02","username":"Jean-Michel Leroy","realname":"","favedate":"1337296061","iconserver":"8194","iconfarm":9,"contact":0,"friend":0,"family":0},{"nsid":"79160829@N07","username":"ina:botao","realname":"","favedate":"1337185737","iconserver":"7262","iconfarm":8,"contact":0,"friend":0,"family":0},{"nsid":"57399910@N00","username":"claudia luthi","realname":"claudia luthi","favedate":"1336784531","iconserver":"8729","iconfarm":9,"contact":0,"friend":0,"family":0}],"id":"7117952519","secret":"26b9dc3ef7","server":"7051","farm":8,"page":1,"pages":3,"perpage":10,"total":"23"},"stat":"ok"}