{"photo":{"person":[{"nsid":"60895765@N07","username":"Arc-HE","realname":"Pengcheng","favedate":"1416003595","iconserver":"7446","iconfarm":8,"contact":0,"friend":0,"family":0},{"nsid":"37246866@N02","username":"Duggur","realname":"","favedate":"1409387654","iconserver":"0","iconfarm":0,"contact":0,"friend":0,"family":0},{"nsid":"41764143@N05","username":"fat_fish1","realname":"Mikhail Nepakharev","favedate":"1409037433","iconserver":"5472","iconfarm":6,"contact":0,"friend":0,"family":0},{"nsid":"112417995@N07","username":"leostillinger","realname":"","favedate":"1400508934","iconserver":"7367","iconfarm":8,"contact":0,"friend":0,"family":0},{"nsid":"68129439@N07","username":"34alex","realname":"Alex","favedate":"1395350209","iconserver":"7432","iconfarm":8,"contact":0,"friend":0,"family":0},{"nsid":"89265703@N04","username":"Mary Barbariska","realname":"Mary Mary","favedate":"1388141558","iconserver":"5481","iconfarm":6,"contact":0,"friend":0,"family":0},{"nsid":"98155928@N03","username":"the_sandman_454","realname":"","favedate":"1387743457","iconserver":"3751","iconfarm":4,"contact":0,"friend":0,"family":0},{"nsid":"110606306@N06","username":"CHUNG Yuk Hing, Hugo","realname":"Camera Man \u4e16\u754c\u5f88\u7c21\u55ae\uff0c\u4eba\u5f88\u8907\u7fd2","favedate":"1387689444","iconserver":"7393","iconfarm":8,"contact":0,"friend":0,"family":0},{"nsid":"33361589@N02","username":"silviasoulet","realname":"","favedate":"1387657393","iconserver":"3826","iconfarm":4,"contact":0,"friend":0,"family":0},{"nsid":"54944051@N00","username":"JMPaul","realname":"","favedate":"1387654481","iconserver":"5464","iconfarm":6,"contact":0,"friend":0,"family":0}],"id":"11463170845","secret":"273e7fecd9","server":"5495","farm":6,"page":1,"pages":3,"perpage":10,"total":"22"},"stat":"ok"}