{"photo":{"person":[{"nsid":"97930231@N03","username":"mo_na_mour","realname":"mo_socius+logie","favedate":"1432405009","iconserver":"7564","iconfarm":8,"contact":0,"friend":0,"family":0},{"nsid":"44855005@N04","username":"PeteHuu","realname":"Pete Huu","favedate":"1431564266","iconserver":"2879","iconfarm":3,"contact":0,"friend":0,"family":0},{"nsid":"110035863@N04","username":"sbblore","realname":"sreela bandyopadhyay","favedate":"1431061338","iconserver":"2916","iconfarm":3,"contact":0,"friend":0,"family":0},{"nsid":"120399727@N06","username":"C. Schroeder | Photography","realname":"","favedate":"1430436049","iconserver":"7412","iconfarm":8,"contact":0,"friend":0,"family":0},{"nsid":"30981933@N08","username":"Preston Ashton","realname":"","favedate":"1430311176","iconserver":"8598","iconfarm":9,"contact":0,"friend":0,"family":0},{"nsid":"127898701@N06","username":"marilena_castelli","realname":"Marilena Castelli","favedate":"1430155759","iconserver":"5609","iconfarm":6,"contact":0,"friend":0,"family":0},{"nsid":"125554453@N08","username":"Julius R. V","realname":"julius Virca","favedate":"1429485875","iconserver":"7484","iconfarm":8,"contact":0,"friend":0,"family":0},{"nsid":"110569055@N04","username":"Justin Kenneth Rowley","realname":"Justin Kenneth Rowley","favedate":"1429482956","iconserver":"5534","iconfarm":6,"contact":0,"friend":0,"family":0},{"nsid":"99142115@N06","username":"JayPiDee","realname":"","favedate":"1429478281","iconserver":"8585","iconfarm":9,"contact":0,"friend":0,"family":0},{"nsid":"123285845@N07","username":"b l o o m .","realname":"","favedate":"1429477499","iconserver":"7609","iconfarm":8,"contact":0,"friend":0,"family":0}],"id":"16576636663","secret":"5aca4a2a61","server":"8802","farm":9,"page":1,"pages":2,"perpage":10,"total":"20"},"stat":"ok"}