{"photo":{"person":[{"nsid":"7919990@N06","username":"sufined","realname":"","favedate":"1318981118","iconserver":"7407","iconfarm":8,"contact":0,"friend":0,"family":0},{"nsid":"22370527@N05","username":"Andra Balc\u0131","realname":"Andra Balc\u0131","favedate":"1314470923","iconserver":"7231","iconfarm":8,"contact":0,"friend":0,"family":0},{"nsid":"52543748@N05","username":".................`\u0641\u0627\u0637\u0645\u0647","realname":"","favedate":"1308354826","iconserver":"0","iconfarm":0,"contact":0,"friend":0,"family":0},{"nsid":"32319670@N03","username":"\u6f58\u4f1f\u840d","realname":"pan \u6f58","favedate":"1290829555","iconserver":"4086","iconfarm":5,"contact":0,"friend":0,"family":0},{"nsid":"35000566@N04","username":"Anna Omiotek -Tott Garden Photography","realname":"","favedate":"1290184860","iconserver":"8417","iconfarm":9,"contact":0,"friend":0,"family":0},{"nsid":"45192273@N05","username":"\u03b2\u03b5\u03b9\u03b9\u03b5 \u2665","realname":"","favedate":"1289817290","iconserver":"2620","iconfarm":3,"contact":0,"friend":0,"family":0},{"nsid":"28210419@N05","username":"Candii Pookie","realname":"Nguy\u1ec5n Nh\u01b0 Qu\u1ef3nh","favedate":"1289078424","iconserver":"3007","iconfarm":4,"contact":0,"friend":0,"family":0},{"nsid":"8058200@N05","username":"{Marzia}","realname":"\u2665 Marzia","favedate":"1288866585","iconserver":"1","iconfarm":1,"contact":0,"friend":0,"family":0},{"nsid":"53017792@N07","username":"Sasha L'Estrange-Bell","realname":"Sasha L'Estrange-Bell","favedate":"1288865703","iconserver":"3909","iconfarm":4,"contact":0,"friend":0,"family":0},{"nsid":"34205186@N07","username":"life stories photography","realname":"Beverly LeFevre","favedate":"1288842405","iconserver":"2619","iconfarm":3,"contact":0,"friend":0,"family":0}],"id":"5138703205","secret":"53d22d0c42","server":"1158","farm":2,"page":1,"pages":2,"perpage":10,"total":"20"},"stat":"ok"}