{"photo":{"person":[{"nsid":"11294776@N00","username":"_Zinni_","realname":"Gerald Zinnecker","favedate":"1237484156","iconserver":"5333","iconfarm":6,"contact":0,"friend":0,"family":0},{"nsid":"11199720@N03","username":"man\u00e92007","realname":"man\u00e92007","favedate":"1187256783","iconserver":"0","iconfarm":0,"contact":0,"friend":0,"family":0},{"nsid":"64506190@N00","username":"The old pond","realname":"","favedate":"1183478216","iconserver":"176","iconfarm":1,"contact":0,"friend":0,"family":0},{"nsid":"61628540@N00","username":"mcshots","realname":"brian mcstotts","favedate":"1181514867","iconserver":"7455","iconfarm":8,"contact":0,"friend":0,"family":0},{"nsid":"83806841@N00","username":"rpashoukos","realname":"Raymond Pashoukos","favedate":"1181159027","iconserver":"111","iconfarm":1,"contact":0,"friend":0,"family":0},{"nsid":"48624773@N00","username":"kittymax","realname":"","favedate":"1180013983","iconserver":"3683","iconfarm":4,"contact":0,"friend":0,"family":0},{"nsid":"92726910@N00","username":"Maggie Neely","realname":"Maggie Neely","favedate":"1179796049","iconserver":"21","iconfarm":1,"contact":0,"friend":0,"family":0},{"nsid":"7337148@N05","username":"precious maybe","realname":"","favedate":"1179714876","iconserver":"549","iconfarm":1,"contact":0,"friend":0,"family":0},{"nsid":"72661358@N00","username":"makunia","realname":"","favedate":"1179645606","iconserver":"7352","iconfarm":8,"contact":0,"friend":0,"family":0},{"nsid":"38517620@N00","username":"Cmanuel Photography - Um olhar sobre Portugal","realname":"Celestino Manuel","favedate":"1179623716","iconserver":"57","iconfarm":1,"contact":0,"friend":0,"family":0}],"id":"503947611","secret":"622028f2d0","server":"209","farm":1,"page":1,"pages":2,"perpage":10,"total":"13"},"stat":"ok"}