{"photo":{"person":[{"nsid":"24702042@N08","username":"deerpix","realname":"BOB HUEBNER","favedate":"1433087461","iconserver":"2809","iconfarm":3,"contact":0,"friend":0,"family":0},{"nsid":"131316409@N05","username":"illumination photography","realname":"Illumination Photography","favedate":"1428148647","iconserver":"8762","iconfarm":9,"contact":0,"friend":0,"family":0},{"nsid":"118419657@N08","username":"Roomel Bhakta Photography","realname":"Roomel Bhakta","favedate":"1428127086","iconserver":"7388","iconfarm":8,"contact":0,"friend":0,"family":0},{"nsid":"26416600@N05","username":"Andy Kleinmoedig","realname":"Andy Kleinmoedig","favedate":"1428121144","iconserver":"2394","iconfarm":3,"contact":0,"friend":0,"family":0},{"nsid":"32606317@N07","username":"Ilia A","realname":"","favedate":"1428097293","iconserver":"7292","iconfarm":8,"contact":0,"friend":0,"family":0},{"nsid":"105346836@N07","username":"BuF'r","realname":"Francis BUIL","favedate":"1428090871","iconserver":"3795","iconfarm":4,"contact":0,"friend":0,"family":0},{"nsid":"116972198@N03","username":"ginetton1","realname":"gerald roncalli","favedate":"1428083539","iconserver":"8617","iconfarm":9,"contact":0,"friend":0,"family":0},{"nsid":"126785366@N04","username":"andr3.moraes","realname":"Andr\u00e9 Moraes","favedate":"1428074996","iconserver":"7643","iconfarm":8,"contact":0,"friend":0,"family":0},{"nsid":"125862441@N03","username":"Jay \u9f8d Den (Jayarr Denson)","realname":"","favedate":"1428072895","iconserver":"8569","iconfarm":9,"contact":0,"friend":0,"family":0},{"nsid":"123865437@N06","username":"katalin_kerekes","realname":"","favedate":"1428070971","iconserver":"3873","iconfarm":4,"contact":0,"friend":0,"family":0}],"id":"16809091587","secret":"eeb07b7ab9","server":"7621","farm":8,"page":1,"pages":3,"perpage":10,"total":"26"},"stat":"ok"}