{"photo":{"person":[{"nsid":"66983581@N02","username":"gubama","realname":"","favedate":"1428520676","iconserver":"8735","iconfarm":9,"contact":0,"friend":0,"family":0},{"nsid":"9593094@N04","username":"sampa63","realname":"ed","favedate":"1428026645","iconserver":"8658","iconfarm":9,"contact":0,"friend":0,"family":0},{"nsid":"39887777@N03","username":"Blagotebi","realname":"B\u0142a\u017cej Pindor","favedate":"1426529303","iconserver":"7269","iconfarm":8,"contact":0,"friend":0,"family":0},{"nsid":"34444057@N05","username":"Rubina V.","realname":"","favedate":"1423085615","iconserver":"8733","iconfarm":9,"contact":0,"friend":0,"family":0},{"nsid":"78853988@N07","username":"beauty of all things","realname":"Manfred Geyer","favedate":"1422352967","iconserver":"3729","iconfarm":4,"contact":0,"friend":0,"family":0},{"nsid":"122896845@N07","username":"Marcela Aguerre","realname":"Marcela (Away. Happy July everyone)","favedate":"1421801983","iconserver":"8590","iconfarm":9,"contact":0,"friend":0,"family":0},{"nsid":"97078088@N08","username":"ufuk tozelik","realname":"Ufuk Tozelik","favedate":"1421048672","iconserver":"0","iconfarm":0,"contact":0,"friend":0,"family":0},{"nsid":"53363933@N07","username":"bruXella & bruXellius","realname":"","favedate":"1421002650","iconserver":"3751","iconfarm":4,"contact":0,"friend":0,"family":0},{"nsid":"24466575@N04","username":"Marc Llach photography","realname":"Marc Llach","favedate":"1420992326","iconserver":"7746","iconfarm":8,"contact":0,"friend":0,"family":0},{"nsid":"9019841@N08","username":"fusion-of-horizons","realname":"","favedate":"1420628791","iconserver":"7312","iconfarm":8,"contact":0,"friend":0,"family":0}],"id":"15432684663","secret":"f946ab2686","server":"7531","farm":8,"page":1,"pages":5,"perpage":10,"total":"50"},"stat":"ok"}