{"photo":{"person":[{"nsid":"33698212@N02","username":"drollandnow","realname":"Jeff Anderson","favedate":"1405902283","iconserver":"3875","iconfarm":4,"contact":0,"friend":0,"family":0},{"nsid":"59219878@N03","username":"heregoesdani","realname":"Daniela Pereira","favedate":"1397772344","iconserver":"5481","iconfarm":6,"contact":0,"friend":0,"family":0},{"nsid":"92122675@N06","username":"Marco Demuru","realname":"Marco Demuru","favedate":"1395768664","iconserver":"7367","iconfarm":8,"contact":0,"friend":0,"family":0},{"nsid":"112992354@N05","username":"m.debruille","realname":"Michel Debruille","favedate":"1395269479","iconserver":"2813","iconfarm":3,"contact":0,"friend":0,"family":0},{"nsid":"90159536@N02","username":"euanmurray26","realname":"Euan Murray","favedate":"1395132403","iconserver":"2896","iconfarm":3,"contact":0,"friend":0,"family":0},{"nsid":"100840864@N06","username":"FIORE Luigi","realname":"Luigi FIORE","favedate":"1393148314","iconserver":"8835","iconfarm":9,"contact":0,"friend":0,"family":0},{"nsid":"40119308@N05","username":"logos noesis","realname":"Ada Gonzalez","favedate":"1390325519","iconserver":"7409","iconfarm":8,"contact":0,"friend":0,"family":0},{"nsid":"87346739@N05","username":"Jon Olliffe","realname":"Jon Olliffe","favedate":"1386437902","iconserver":"5476","iconfarm":6,"contact":0,"friend":0,"family":0},{"nsid":"45652874@N07","username":"mnanakis","realname":"","favedate":"1384977486","iconserver":"5581","iconfarm":6,"contact":0,"friend":0,"family":0},{"nsid":"35235310@N03","username":"doug turetsky","realname":"","favedate":"1384348190","iconserver":"0","iconfarm":0,"contact":0,"friend":0,"family":0}],"id":"10642866984","secret":"e09755231d","server":"3794","farm":4,"page":1,"pages":6,"perpage":10,"total":"57"},"stat":"ok"}