{"photo":{"person":[{"nsid":"59498566@N03","username":"Ulrich Erhard","realname":"Ulrich Erhard","favedate":"1420052581","iconserver":"6156","iconfarm":7,"contact":0,"friend":0,"family":0},{"nsid":"40680577@N06","username":"Joe.Rock","realname":"Joe Sampouw","favedate":"1414922305","iconserver":"7349","iconfarm":8,"contact":0,"friend":0,"family":0},{"nsid":"91256492@N03","username":"XobBob","realname":"","favedate":"1414628401","iconserver":"7110","iconfarm":8,"contact":0,"friend":0,"family":0},{"nsid":"123750194@N08","username":"spadinastufina","realname":"spadina stufina","favedate":"1414576962","iconserver":"5565","iconfarm":6,"contact":0,"friend":0,"family":0},{"nsid":"112188473@N02","username":"andreas.klodt","realname":"Andreas Klodt","favedate":"1413893489","iconserver":"7405","iconfarm":8,"contact":0,"friend":0,"family":0},{"nsid":"90567190@N07","username":"\u0428\u0432\u0430\u0440\u0446","realname":"\u0410\u043d\u0434\u0440\u0435\u0439 \u0428\u0432\u0430\u0440\u0446","favedate":"1412490730","iconserver":"2871","iconfarm":3,"contact":0,"friend":0,"family":0},{"nsid":"47532811@N03","username":"stampolina","realname":"","favedate":"1412425923","iconserver":"7608","iconfarm":8,"contact":0,"friend":0,"family":0},{"nsid":"127548398@N05","username":"abidlatki9","realname":"abid latki","favedate":"1412344025","iconserver":"2943","iconfarm":3,"contact":0,"friend":0,"family":0},{"nsid":"98892639@N04","username":"dianealdrich - Please read my updated profile","realname":"","favedate":"1411239170","iconserver":"7286","iconfarm":8,"contact":0,"friend":0,"family":0},{"nsid":"34019995@N08","username":"maria georgiadou photography","realname":"maria georgiadou","favedate":"1411207057","iconserver":"3761","iconfarm":4,"contact":0,"friend":0,"family":0}],"id":"14833273409","secret":"921a210868","server":"5584","farm":6,"page":1,"pages":2,"perpage":10,"total":"15"},"stat":"ok"}