{"photo":{"person":[{"nsid":"49775121@N05","username":"Nadiya Mohado","realname":"N M","favedate":"1434410831","iconserver":"289","iconfarm":1,"contact":0,"friend":0,"family":0},{"nsid":"93045613@N06","username":"Anthon_XP","realname":"","favedate":"1434404052","iconserver":"8229","iconfarm":9,"contact":0,"friend":0,"family":0},{"nsid":"22841175@N05","username":"davidsmini111","realname":"","favedate":"1423571065","iconserver":"7480","iconfarm":8,"contact":0,"friend":0,"family":0},{"nsid":"97845880@N08","username":"Lojones13","realname":"L Jones","favedate":"1419707635","iconserver":"0","iconfarm":0,"contact":0,"friend":0,"family":0},{"nsid":"46610406@N06","username":"Alba@","realname":"","favedate":"1416030059","iconserver":"7619","iconfarm":8,"contact":0,"friend":0,"family":0},{"nsid":"100227592@N04","username":"Victor Jos\u00e9","realname":"Victor Jos\u00e9","favedate":"1415434914","iconserver":"517","iconfarm":1,"contact":0,"friend":0,"family":0},{"nsid":"110912599@N08","username":"Love&Luck","realname":"","favedate":"1415381345","iconserver":"264","iconfarm":1,"contact":0,"friend":0,"family":0},{"nsid":"126064000@N05","username":"allie.hendricks.photography","realname":"","favedate":"1415318205","iconserver":"560","iconfarm":1,"contact":0,"friend":0,"family":0},{"nsid":"123688655@N06","username":"sudraba13","realname":"Sandra kalnina","favedate":"1415303728","iconserver":"3889","iconfarm":4,"contact":0,"friend":0,"family":0},{"nsid":"127769466@N05","username":"my_snail_box","realname":"Michael ivanov","favedate":"1415254284","iconserver":"5592","iconfarm":6,"contact":0,"friend":0,"family":0}],"id":"15718011631","secret":"0fba1a9779","server":"3951","farm":4,"page":1,"pages":2,"perpage":10,"total":"13"},"stat":"ok"}