{"photo":{"person":[{"nsid":"42625870@N05","username":"eliezede.com","realname":"Eli\u00e9zede Andrade","favedate":"1436388862","iconserver":"3713","iconfarm":4,"contact":0,"friend":0,"family":0},{"nsid":"24702042@N08","username":"deerpix","realname":"BOB HUEBNER","favedate":"1433087462","iconserver":"2809","iconfarm":3,"contact":0,"friend":0,"family":0},{"nsid":"100061496@N08","username":"jojo 28","realname":"Jo Jo","favedate":"1431787836","iconserver":"0","iconfarm":0,"contact":0,"friend":0,"family":0},{"nsid":"34330381@N08","username":"Gerald Ow","realname":"Gerald Ow","favedate":"1430551406","iconserver":"7309","iconfarm":8,"contact":0,"friend":0,"family":0},{"nsid":"124539822@N08","username":"DizzieMizzieLizzie","realname":"DizzieMizzieLizzie","favedate":"1430394560","iconserver":"5113","iconfarm":6,"contact":0,"friend":0,"family":0},{"nsid":"114250373@N07","username":"\u9b5a\u9f8dT.Yura","realname":"T.Yura","favedate":"1429872445","iconserver":"5614","iconfarm":6,"contact":0,"friend":0,"family":0},{"nsid":"128023596@N08","username":"suhridranjandas","realname":"Suhrid Ranjan Das","favedate":"1429679579","iconserver":"7551","iconfarm":8,"contact":0,"friend":0,"family":0},{"nsid":"132475555@N04","username":"Carina Jacobsson SWE","realname":"Carina Jacobsson","favedate":"1429455122","iconserver":"7644","iconfarm":8,"contact":0,"friend":0,"family":0},{"nsid":"65243203@N02","username":"\u745c\u73c9","realname":"\u745c\u73c9 \u5f20","favedate":"1428637539","iconserver":"8872","iconfarm":9,"contact":0,"friend":0,"family":0},{"nsid":"128294308@N05","username":"Rogg4n","realname":"","favedate":"1428509401","iconserver":"7479","iconfarm":8,"contact":0,"friend":0,"family":0}],"id":"16830275379","secret":"365f159473","server":"7618","farm":8,"page":1,"pages":4,"perpage":10,"total":"40"},"stat":"ok"}