{"photo":{"person":[{"nsid":"50784418@N07","username":"Damien Graham \u262e\u2708\u266b","realname":"","favedate":"1391364599","iconserver":"5497","iconfarm":6,"contact":0,"friend":0,"family":0},{"nsid":"91345457@N07","username":"AV Dezign | www.avdezign.ca","realname":"","favedate":"1389379919","iconserver":"5531","iconfarm":6,"contact":0,"friend":0,"family":0},{"nsid":"43588196@N05","username":"kennethcanada1","realname":"kenneth r rowley","favedate":"1389297357","iconserver":"294","iconfarm":1,"contact":0,"friend":0,"family":0},{"nsid":"64581278@N08","username":"Eric Xingang","realname":"","favedate":"1389274652","iconserver":"6137","iconfarm":7,"contact":0,"friend":0,"family":0},{"nsid":"80374840@N03","username":"Lamai Photography ^_^","realname":"","favedate":"1389260931","iconserver":"3684","iconfarm":4,"contact":0,"friend":0,"family":0},{"nsid":"93818216@N03","username":"K.R.M. Photography","realname":"K.R. Miller","favedate":"1389205533","iconserver":"2870","iconfarm":3,"contact":0,"friend":0,"family":0},{"nsid":"37105049@N04","username":"chibinezumi","realname":"","favedate":"1389188453","iconserver":"3678","iconfarm":4,"contact":0,"friend":0,"family":0},{"nsid":"64018742@N00","username":"kon!","realname":"","favedate":"1389188154","iconserver":"2881","iconfarm":3,"contact":0,"friend":0,"family":0},{"nsid":"78095692@N03","username":"m-miki","realname":"","favedate":"1389186206","iconserver":"5483","iconfarm":6,"contact":0,"friend":0,"family":0},{"nsid":"34277158@N08","username":"j man.","realname":"Jacob Edmiston","favedate":"1389183890","iconserver":"5463","iconfarm":6,"contact":0,"friend":0,"family":0}],"id":"11822618025","secret":"5758746436","server":"7404","farm":8,"page":1,"pages":3,"perpage":10,"total":"21"},"stat":"ok"}