{"photo":{"person":[{"nsid":"124090536@N08","username":"eseuveme","realname":"Sandra Vallejo","favedate":"1399989081","iconserver":"7239","iconfarm":8,"contact":0,"friend":0,"family":0},{"nsid":"48703154@N03","username":"Anamaria Brigitte","realname":"Anamaria Brigitte","favedate":"1397595458","iconserver":"5482","iconfarm":6,"contact":0,"friend":0,"family":0},{"nsid":"80138396@N00","username":"Made In Dream","realname":"Jiangping Lynn","favedate":"1333214358","iconserver":"2416","iconfarm":3,"contact":0,"friend":0,"family":0},{"nsid":"65719779@N07","username":"Natalia_U","realname":"Natalia U.","favedate":"1329933196","iconserver":"0","iconfarm":0,"contact":0,"friend":0,"family":0},{"nsid":"46936092@N07","username":"manuMenendez","realname":"","favedate":"1315907131","iconserver":"5442","iconfarm":6,"contact":0,"friend":0,"family":0},{"nsid":"64520364@N07","username":"Claranita86","realname":"","favedate":"1313166843","iconserver":"6063","iconfarm":7,"contact":0,"friend":0,"family":0},{"nsid":"61359591@N08","username":"wchow09","realname":"","favedate":"1309799975","iconserver":"0","iconfarm":0,"contact":0,"friend":0,"family":0},{"nsid":"37990418@N08","username":"Tim Musson","realname":"Timothy Musson","favedate":"1301804805","iconserver":"3604","iconfarm":4,"contact":0,"friend":0,"family":0},{"nsid":"53334619@N04","username":"Jing92Shuwen","realname":"","favedate":"1295257420","iconserver":"4137","iconfarm":5,"contact":0,"friend":0,"family":0},{"nsid":"26245701@N03","username":"Tomoyo Breitman","realname":"","favedate":"1294743561","iconserver":"3175","iconfarm":4,"contact":0,"friend":0,"family":0}],"id":"5126113791","secret":"bf80e34bda","server":"1252","farm":2,"page":1,"pages":4,"perpage":10,"total":"37"},"stat":"ok"}