{"photo":{"person":[{"nsid":"24702042@N08","username":"deerpix","realname":"BOB HUEBNER","favedate":"1433087458","iconserver":"2809","iconfarm":3,"contact":0,"friend":0,"family":0},{"nsid":"31926707@N02","username":"Osakesan Tanaka","realname":"","favedate":"1431157653","iconserver":"3703","iconfarm":4,"contact":0,"friend":0,"family":0},{"nsid":"57788407@N07","username":"\u0192aun IV.","realname":"","favedate":"1429285168","iconserver":"7646","iconfarm":8,"contact":0,"friend":0,"family":0},{"nsid":"75543436@N00","username":"\u2666 Peter & Ute Grahlmann \u2666","realname":"","favedate":"1429285096","iconserver":"5543","iconfarm":6,"contact":0,"friend":0,"family":0},{"nsid":"65243203@N02","username":"\u745c\u73c9","realname":"\u745c\u73c9 \u5f20","favedate":"1428637556","iconserver":"8872","iconfarm":9,"contact":0,"friend":0,"family":0},{"nsid":"24544649@N06","username":"evisdotter","realname":"","favedate":"1428524198","iconserver":"7344","iconfarm":8,"contact":0,"friend":0,"family":0},{"nsid":"123865437@N06","username":"katalin_kerekes","realname":"","favedate":"1428189100","iconserver":"3873","iconfarm":4,"contact":0,"friend":0,"family":0},{"nsid":"48039161@N06","username":"Ryuu\u7adc","realname":"","favedate":"1428176240","iconserver":"3823","iconfarm":4,"contact":0,"friend":0,"family":0},{"nsid":"127825112@N06","username":"Kozyaffka","realname":"Kozyaffka Bukashkina","favedate":"1428151288","iconserver":"3935","iconfarm":4,"contact":0,"friend":0,"family":0},{"nsid":"107312703@N02","username":"cashokamithran","realname":"Ashokamithran Chandrasekar","favedate":"1428144799","iconserver":"0","iconfarm":0,"contact":0,"friend":0,"family":0}],"id":"16841637659","secret":"15b9ea1485","server":"8713","farm":9,"page":1,"pages":2,"perpage":10,"total":"11"},"stat":"ok"}