{"photo":{"person":[{"nsid":"24702042@N08","username":"deerpix","realname":"BOB HUEBNER","favedate":"1433087390","iconserver":"2809","iconfarm":3,"contact":0,"friend":0,"family":0},{"nsid":"131195263@N06","username":"noa.noa2015","realname":"Noa Noa","favedate":"1430228525","iconserver":"7633","iconfarm":8,"contact":0,"friend":0,"family":0},{"nsid":"129441769@N07","username":"alberto.rada","realname":"Alberto Rada","favedate":"1429968914","iconserver":"8608","iconfarm":9,"contact":0,"friend":0,"family":0},{"nsid":"128023596@N08","username":"suhridranjandas","realname":"Suhrid Ranjan Das","favedate":"1429679561","iconserver":"7551","iconfarm":8,"contact":0,"friend":0,"family":0},{"nsid":"65073920@N02","username":"Filsa Bint Ahmed","realname":"Filsa Ahmed","favedate":"1429378951","iconserver":"8561","iconfarm":9,"contact":0,"friend":0,"family":0},{"nsid":"75543436@N00","username":"\u2666 Peter & Ute Grahlmann \u2666","realname":"","favedate":"1429285050","iconserver":"5543","iconfarm":6,"contact":0,"friend":0,"family":0},{"nsid":"129659132@N05","username":"xenophobe101","realname":"Ashraf Siddiqui","favedate":"1428894089","iconserver":"7547","iconfarm":8,"contact":0,"friend":0,"family":0},{"nsid":"125768867@N04","username":"jospedro_cordeiro","realname":"Jos\u00e9 Pedro Cordeiro","favedate":"1428800206","iconserver":"3873","iconfarm":4,"contact":0,"friend":0,"family":0},{"nsid":"65243203@N02","username":"\u745c\u73c9","realname":"\u745c\u73c9 \u5f20","favedate":"1428584790","iconserver":"8872","iconfarm":9,"contact":0,"friend":0,"family":0},{"nsid":"130481752@N07","username":"phcphmhong15","realname":"","favedate":"1428466582","iconserver":"8607","iconfarm":9,"contact":0,"friend":0,"family":0}],"id":"16445545893","secret":"864ae939aa","server":"8824","farm":9,"page":1,"pages":3,"perpage":10,"total":"24"},"stat":"ok"}