{"photo":{"person":[{"nsid":"24702042@N08","username":"deerpix","realname":"BOB HUEBNER","favedate":"1433087372","iconserver":"2809","iconfarm":3,"contact":0,"friend":0,"family":0},{"nsid":"130159950@N07","username":"lut de duytsche","realname":"Lut De Duytsche","favedate":"1431953212","iconserver":"8568","iconfarm":9,"contact":0,"friend":0,"family":0},{"nsid":"65416880@N00","username":"mariola aga","realname":"Mariola","favedate":"1431834340","iconserver":"477","iconfarm":1,"contact":0,"friend":0,"family":0},{"nsid":"97641881@N02","username":"Nikonfan1346","realname":"","favedate":"1429432665","iconserver":"3812","iconfarm":4,"contact":0,"friend":0,"family":0},{"nsid":"47888333@N00","username":"ragams","realname":"amirtha","favedate":"1429412623","iconserver":"7518","iconfarm":8,"contact":0,"friend":0,"family":0},{"nsid":"75543436@N00","username":"\u2666 Peter & Ute Grahlmann \u2666","realname":"","favedate":"1429285089","iconserver":"5543","iconfarm":6,"contact":0,"friend":0,"family":0},{"nsid":"115876755@N04","username":"snukk","realname":"","favedate":"1428863528","iconserver":"7389","iconfarm":8,"contact":0,"friend":0,"family":0},{"nsid":"125768867@N04","username":"jospedro_cordeiro","realname":"Jos\u00e9 Pedro Cordeiro","favedate":"1428800194","iconserver":"3873","iconfarm":4,"contact":0,"friend":0,"family":0},{"nsid":"127762886@N06","username":"* le petit bonheur *","realname":"","favedate":"1428592684","iconserver":"5602","iconfarm":6,"contact":0,"friend":0,"family":0},{"nsid":"65243203@N02","username":"\u745c\u73c9","realname":"\u745c\u73c9 \u5f20","favedate":"1428584511","iconserver":"8872","iconfarm":9,"contact":0,"friend":0,"family":0}],"id":"16887124009","secret":"ed6407a19d","server":"8758","farm":9,"page":1,"pages":4,"perpage":10,"total":"39"},"stat":"ok"}