{"photo":{"person":[{"nsid":"67473685@N00","username":"chris5015","realname":"","favedate":"1425972612","iconserver":"2816","iconfarm":3,"contact":0,"friend":0,"family":0},{"nsid":"91396869@N06","username":"TrulySEO","realname":"","favedate":"1425228574","iconserver":"5453","iconfarm":6,"contact":0,"friend":0,"family":0},{"nsid":"61665098@N08","username":"Oleg1961","realname":"Oleg Vashilko","favedate":"1423288424","iconserver":"7171","iconfarm":8,"contact":0,"friend":0,"family":0},{"nsid":"28022832@N07","username":"Its_Coopere","realname":"","favedate":"1422893275","iconserver":"7449","iconfarm":8,"contact":0,"friend":0,"family":0},{"nsid":"90283550@N00","username":"snow41","realname":"","favedate":"1422641283","iconserver":"5443","iconfarm":6,"contact":0,"friend":0,"family":0},{"nsid":"86713328@N02","username":"SerdarT\u00fcrko\u011flu","realname":"Serdar T\u00fcrko\u011flu","favedate":"1421186558","iconserver":"5338","iconfarm":6,"contact":0,"friend":0,"family":0},{"nsid":"88477419@N05","username":"Pejasar","realname":"Terry White","favedate":"1421184863","iconserver":"8192","iconfarm":9,"contact":0,"friend":0,"family":0},{"nsid":"73976107@N03","username":"Naked 08","realname":"NAKED 08","favedate":"1420953297","iconserver":"5601","iconfarm":6,"contact":0,"friend":0,"family":0},{"nsid":"118198694@N05","username":"Gitte Herden","realname":"Gitte Herden","favedate":"1419970518","iconserver":"3864","iconfarm":4,"contact":0,"friend":0,"family":0},{"nsid":"34081248@N05","username":"meg21210","realname":"Meg Gallucci","favedate":"1419888466","iconserver":"5445","iconfarm":6,"contact":0,"friend":0,"family":0}],"id":"15790355479","secret":"426267bc4e","server":"8612","farm":9,"page":1,"pages":4,"perpage":10,"total":"37"},"stat":"ok"}