{"photo":{"person":[{"nsid":"98881729@N04","username":"ludderz","realname":"David Ludman","favedate":"1427543252","iconserver":"8797","iconfarm":9,"contact":0,"friend":0,"family":0},{"nsid":"123168624@N07","username":"http:\/\/shotsbyq.smugmug.com","realname":"Quinton Sextion","favedate":"1407735428","iconserver":"2936","iconfarm":3,"contact":0,"friend":0,"family":0},{"nsid":"24062085@N06","username":"MacAoda8","realname":"Rich McHugh","favedate":"1406957163","iconserver":"5511","iconfarm":6,"contact":0,"friend":0,"family":0},{"nsid":"56674574@N00","username":"nna:2006","realname":"","favedate":"1404974429","iconserver":"3484","iconfarm":4,"contact":0,"friend":0,"family":0},{"nsid":"64598947@N00","username":"geirt.com","realname":"geir t\u00f8nnessen","favedate":"1404752875","iconserver":"5473","iconfarm":6,"contact":0,"friend":0,"family":0},{"nsid":"46785534@N06","username":"Axiraa","realname":"Anita","favedate":"1404737112","iconserver":"7405","iconfarm":8,"contact":0,"friend":0,"family":0},{"nsid":"54944051@N00","username":"JMPaul","realname":"","favedate":"1404581290","iconserver":"5464","iconfarm":6,"contact":0,"friend":0,"family":0},{"nsid":"48520236@N02","username":"MattsLens","realname":"Matthew Sutherland","favedate":"1404569921","iconserver":"2917","iconfarm":3,"contact":0,"friend":0,"family":0},{"nsid":"122067434@N04","username":"profarti","realname":"Jeremia van Loggerenberg","favedate":"1404544563","iconserver":"0","iconfarm":0,"contact":0,"friend":0,"family":0},{"nsid":"87936158@N08","username":"Ghostfive","realname":"Damien","favedate":"1404532537","iconserver":"5584","iconfarm":6,"contact":0,"friend":0,"family":0}],"id":"14542765816","secret":"e947de8a68","server":"3882","farm":4,"page":1,"pages":24,"perpage":10,"total":"235"},"stat":"ok"}