{"photo":{"person":[{"nsid":"118198694@N05","username":"Gitte Herden","realname":"Gitte Herden","favedate":"1428084444","iconserver":"3864","iconfarm":4,"contact":0,"friend":0,"family":0},{"nsid":"80104585@N06","username":"OldRoger","realname":"","favedate":"1427883263","iconserver":"266","iconfarm":1,"contact":0,"friend":0,"family":0},{"nsid":"98413384@N03","username":"http:\/\/thomasthorstensson.photography","realname":"Thomas Thorstensson","favedate":"1427585422","iconserver":"7531","iconfarm":8,"contact":0,"friend":0,"family":0},{"nsid":"101138802@N05","username":"jkdrscll","realname":"","favedate":"1427369724","iconserver":"8579","iconfarm":9,"contact":0,"friend":0,"family":0},{"nsid":"126557160@N07","username":"liligabbiano","realname":"Lili Gabbiano","favedate":"1427360167","iconserver":"3864","iconfarm":4,"contact":0,"friend":0,"family":0},{"nsid":"7248289@N03","username":"thorvaala","realname":"","favedate":"1427347727","iconserver":"128","iconfarm":1,"contact":0,"friend":0,"family":0},{"nsid":"31815292@N07","username":"Rikko77","realname":"RikkO","favedate":"1427315832","iconserver":"3772","iconfarm":4,"contact":0,"friend":0,"family":0},{"nsid":"127325764@N02","username":"Bald guy (out for cigarettes)","realname":"","favedate":"1427291823","iconserver":"8643","iconfarm":9,"contact":0,"friend":0,"family":0},{"nsid":"11295891@N00","username":"Mr Exploding","realname":"Dave","favedate":"1427271983","iconserver":"5458","iconfarm":6,"contact":0,"friend":0,"family":0},{"nsid":"62004616@N06","username":"shelby-dog","realname":"","favedate":"1427258441","iconserver":"5143","iconfarm":6,"contact":0,"friend":0,"family":0}],"id":"16913995321","secret":"3e24685174","server":"7609","farm":8,"page":1,"pages":5,"perpage":10,"total":"44"},"stat":"ok"}