{"photo":{"person":[{"nsid":"44400061@N05","username":"iEagle2","realname":"Mats","favedate":"1433448373","iconserver":"7323","iconfarm":8,"contact":0,"friend":0,"family":0},{"nsid":"26913450@N03","username":"quanaval_sp","realname":"Alberto Xis","favedate":"1432061117","iconserver":"2886","iconfarm":3,"contact":0,"friend":0,"family":0},{"nsid":"66804697@N03","username":"pgracian","realname":"pedro graciante","favedate":"1421704628","iconserver":"6070","iconfarm":7,"contact":0,"friend":0,"family":0},{"nsid":"85901794@N05","username":"AlexMacJenkins","realname":"Alexandra Jenkins","favedate":"1420291580","iconserver":"8510","iconfarm":9,"contact":0,"friend":0,"family":0},{"nsid":"124817400@N02","username":"josemanuelrosjurado","realname":"Jose Manuel Ros Jurado","favedate":"1420145292","iconserver":"5567","iconfarm":6,"contact":0,"friend":0,"family":0},{"nsid":"125496507@N05","username":"heiko.moser","realname":"Heiko moser","favedate":"1420144318","iconserver":"3847","iconfarm":4,"contact":0,"friend":0,"family":0},{"nsid":"111595378@N03","username":"Amom Mandel Lins","realname":"","favedate":"1420143052","iconserver":"3924","iconfarm":4,"contact":0,"friend":0,"family":0},{"nsid":"19350717@N02","username":"alhawley","realname":"Alex Hawley","favedate":"1420142534","iconserver":"3814","iconfarm":4,"contact":0,"friend":0,"family":0},{"nsid":"125523232@N06","username":"jean.vautier","realname":"jean vautier","favedate":"1420142068","iconserver":"3942","iconfarm":4,"contact":0,"friend":0,"family":0},{"nsid":"125126809@N02","username":"john a gormally","realname":"john gor","favedate":"1420141004","iconserver":"3937","iconfarm":4,"contact":0,"friend":0,"family":0}],"id":"16166781175","secret":"a94583fbd1","server":"7575","farm":8,"page":1,"pages":2,"perpage":10,"total":"15"},"stat":"ok"}