{"photo":{"person":[{"nsid":"93570608@N05","username":"Guillaume DELEBARRE (Guigui-Lille)","realname":"","favedate":"1431803345","iconserver":"3935","iconfarm":4,"contact":0,"friend":0,"family":0},{"nsid":"95440546@N03","username":"jacekbia","realname":"","favedate":"1429294467","iconserver":"8533","iconfarm":9,"contact":0,"friend":0,"family":0},{"nsid":"99412486@N07","username":"didi.photobackpa","realname":"Eljihadi","favedate":"1408676701","iconserver":"2903","iconfarm":3,"contact":0,"friend":0,"family":0},{"nsid":"108781576@N08","username":"roberthughes145","realname":"robert hughes","favedate":"1408258230","iconserver":"3756","iconfarm":4,"contact":0,"friend":0,"family":0},{"nsid":"114237988@N03","username":"hummelhafner","realname":"","favedate":"1407385596","iconserver":"5572","iconfarm":6,"contact":0,"friend":0,"family":0},{"nsid":"115496107@N08","username":"I'm Ruan5","realname":"Ruan5","favedate":"1406989665","iconserver":"7525","iconfarm":8,"contact":0,"friend":0,"family":0},{"nsid":"96933325@N02","username":"mttoldi","realname":"Marcello Toldi","favedate":"1406771131","iconserver":"2834","iconfarm":3,"contact":0,"friend":0,"family":0},{"nsid":"97641881@N02","username":"Nikonfan1346","realname":"","favedate":"1406718382","iconserver":"3812","iconfarm":4,"contact":0,"friend":0,"family":0},{"nsid":"120103501@N02","username":"Boris from Koenigsberg","realname":"Boris Ponomarev","favedate":"1406717020","iconserver":"3335","iconfarm":4,"contact":0,"friend":0,"family":0},{"nsid":"125610834@N02","username":"sofia.guijarro","realname":"Sofia Guijarro","favedate":"1406328301","iconserver":"3950","iconfarm":4,"contact":0,"friend":0,"family":0}],"id":"14496739359","secret":"278517b863","server":"3903","farm":4,"page":1,"pages":3,"perpage":10,"total":"24"},"stat":"ok"}