{"photo":{"person":[{"nsid":"89973703@N07","username":"roman25a","realname":"","favedate":"1423430926","iconserver":"3780","iconfarm":4,"contact":0,"friend":0,"family":0},{"nsid":"110158313@N05","username":"mpetr1960","realname":"Petr Melnikov","favedate":"1417610181","iconserver":"3713","iconfarm":4,"contact":0,"friend":0,"family":0},{"nsid":"11058465@N08","username":"SweedeSpeed","realname":"","favedate":"1417317602","iconserver":"8187","iconfarm":9,"contact":0,"friend":0,"family":0},{"nsid":"56788082@N07","username":"Ricardo Gomez A Very busy","realname":"","favedate":"1417097062","iconserver":"3865","iconfarm":4,"contact":0,"friend":0,"family":0},{"nsid":"98617047@N02","username":"moni1741","realname":"Moni E","favedate":"1417088891","iconserver":"530","iconfarm":1,"contact":0,"friend":0,"family":0},{"nsid":"107913974@N04","username":"Pancho Varela","realname":"Francisco Varela","favedate":"1417084762","iconserver":"3670","iconfarm":4,"contact":0,"friend":0,"family":0},{"nsid":"99781851@N07","username":"Stevie 66","realname":"","favedate":"1416862287","iconserver":"299","iconfarm":1,"contact":0,"friend":0,"family":0},{"nsid":"124074011@N07","username":"malgorzata_p","realname":"Ma\u0142gorzata P","favedate":"1416860675","iconserver":"3908","iconfarm":4,"contact":0,"friend":0,"family":0},{"nsid":"22533627@N05","username":"Peters nik","realname":"Peters Nik","favedate":"1416769123","iconserver":"2402","iconfarm":3,"contact":0,"friend":0,"family":0},{"nsid":"128507835@N08","username":"`Edward Metlinov (Russia, Siberia, Kemerovo)","realname":"Edward Metlinov","favedate":"1416767148","iconserver":"3930","iconfarm":4,"contact":0,"friend":0,"family":0}],"id":"15852019941","secret":"4baa846c85","server":"8598","farm":9,"page":1,"pages":3,"perpage":10,"total":"30"},"stat":"ok"}