{"photo":{"person":[{"nsid":"125219382@N07","username":"noctilucent~","realname":"* J B","favedate":"1434277715","iconserver":"8750","iconfarm":9,"contact":0,"friend":0,"family":0},{"nsid":"70137021@N07","username":"KoKm0","realname":"","favedate":"1431722484","iconserver":"7700","iconfarm":8,"contact":0,"friend":0,"family":0},{"nsid":"8950997@N06","username":"denis cherim \/ > \u039e N I S < H \u039e R I \/\\ \\","realname":"Denis Cherim","favedate":"1426671362","iconserver":"7353","iconfarm":8,"contact":0,"friend":0,"family":0},{"nsid":"70868155@N03","username":"I\u00f1igo Echenique \u2714\u2714","realname":"I\u00f1igo Echenique  \u2714\u2714","favedate":"1426537755","iconserver":"8670","iconfarm":9,"contact":0,"friend":0,"family":0},{"nsid":"90634379@N06","username":"Lilian_Anadan","realname":"Lilian -:\u00a6:-  Anadan","favedate":"1425594115","iconserver":"7714","iconfarm":8,"contact":0,"friend":0,"family":0},{"nsid":"127038547@N07","username":"geo_rie","realname":"","favedate":"1425541311","iconserver":"7535","iconfarm":8,"contact":0,"friend":0,"family":0},{"nsid":"89249207@N07","username":"Ric Capucho","realname":"Ric Capucho","favedate":"1424539572","iconserver":"7695","iconfarm":8,"contact":0,"friend":0,"family":0},{"nsid":"127880871@N06","username":"Antero \u00c1vila","realname":"Antero Avila","favedate":"1424514630","iconserver":"3937","iconfarm":4,"contact":0,"friend":0,"family":0},{"nsid":"49270511@N02","username":"robyjo","realname":"coda robyjo di lupo","favedate":"1424022156","iconserver":"3955","iconfarm":4,"contact":0,"friend":0,"family":0},{"nsid":"126616624@N03","username":"krystinemoessner","realname":"","favedate":"1424020066","iconserver":"7485","iconfarm":8,"contact":0,"friend":0,"family":0}],"id":"15102796664","secret":"deb41a0957","server":"5598","farm":6,"page":1,"pages":16,"perpage":10,"total":"152"},"stat":"ok"}