{"photo":{"person":[{"nsid":"76655044@N05","username":"pushy001","realname":"Magdalena","favedate":"1412705491","iconserver":"3910","iconfarm":4,"contact":0,"friend":0,"family":0},{"nsid":"111448077@N06","username":"Bethula99","realname":"","favedate":"1410681544","iconserver":"3847","iconfarm":4,"contact":0,"friend":0,"family":0},{"nsid":"124021707@N05","username":"martinski_1","realname":"Martin Vasilev","favedate":"1405841371","iconserver":"0","iconfarm":0,"contact":0,"friend":0,"family":0},{"nsid":"113186044@N07","username":"sarkis_sakaz","realname":"Sarkis Kevork Sakaz","favedate":"1402852488","iconserver":"7691","iconfarm":8,"contact":0,"friend":0,"family":0},{"nsid":"49555841@N07","username":"Keen to see photos","realname":"","favedate":"1402649651","iconserver":"8041","iconfarm":9,"contact":0,"friend":0,"family":0},{"nsid":"91660386@N02","username":"ninavv100","realname":"","favedate":"1399542578","iconserver":"0","iconfarm":0,"contact":0,"friend":0,"family":0},{"nsid":"16811666@N05","username":"Steve Whitham - BGphotography","realname":"","favedate":"1399210876","iconserver":"5515","iconfarm":6,"contact":0,"friend":0,"family":0},{"nsid":"97923098@N02","username":"sophie_merlo","realname":"Sophie Merlo","favedate":"1399162628","iconserver":"7572","iconfarm":8,"contact":0,"friend":0,"family":0},{"nsid":"109142838@N06","username":"carmelomoramacia","realname":"carmelo mora macia","favedate":"1399157235","iconserver":"7356","iconfarm":8,"contact":0,"friend":0,"family":0},{"nsid":"97229427@N07","username":"peteralbasolano","realname":"Peter Alba Solano","favedate":"1399148381","iconserver":"7421","iconfarm":8,"contact":0,"friend":0,"family":0}],"id":"13911417160","secret":"b0653c3e07","server":"7403","farm":8,"page":1,"pages":2,"perpage":10,"total":"12"},"stat":"ok"}