{"photo":{"person":[{"nsid":"124021707@N05","username":"martinski_1","realname":"Martin Vasilev","favedate":"1405841307","iconserver":"0","iconfarm":0,"contact":0,"friend":0,"family":0},{"nsid":"111448077@N06","username":"Bethula99","realname":"","favedate":"1405364563","iconserver":"3847","iconfarm":4,"contact":0,"friend":0,"family":0},{"nsid":"109142838@N06","username":"carmelomoramacia","realname":"carmelo mora macia","favedate":"1403890332","iconserver":"7356","iconfarm":8,"contact":0,"friend":0,"family":0},{"nsid":"91660386@N02","username":"ninavv100","realname":"","favedate":"1403396034","iconserver":"0","iconfarm":0,"contact":0,"friend":0,"family":0},{"nsid":"79444800@N03","username":"toma foto","realname":"Tamas","favedate":"1403186645","iconserver":"3692","iconfarm":4,"contact":0,"friend":0,"family":0},{"nsid":"80861150@N07","username":"manposanpo","realname":"","favedate":"1403131691","iconserver":"8265","iconfarm":9,"contact":0,"friend":0,"family":0},{"nsid":"113186044@N07","username":"sarkis_sakaz","realname":"Sarkis Kevork Sakaz","favedate":"1403114707","iconserver":"7691","iconfarm":8,"contact":0,"friend":0,"family":0},{"nsid":"11473706@N03","username":"Cost3l","realname":"Costel Slincu","favedate":"1403085305","iconserver":"3906","iconfarm":4,"contact":0,"friend":0,"family":0},{"nsid":"124909709@N02","username":"ap.frier","realname":"Andrew Frier","favedate":"1403083721","iconserver":"3749","iconfarm":4,"contact":0,"friend":0,"family":0},{"nsid":"98179361@N03","username":"desouto","realname":"","favedate":"1403083560","iconserver":"2853","iconfarm":3,"contact":0,"friend":0,"family":0}],"id":"14426846576","secret":"0bf4af9189","server":"2923","farm":3,"page":1,"pages":2,"perpage":10,"total":"12"},"stat":"ok"}