{"photo":{"person":[{"nsid":"63174906@N02","username":"chicore2011","realname":"","favedate":"1415247566","iconserver":"7263","iconfarm":8,"contact":0,"friend":0,"family":0},{"nsid":"14279081@N08","username":"\u039eSS\u039e\u00ae\u00ae\u039e","realname":"Stefano Rugolo","favedate":"1412002101","iconserver":"7786","iconfarm":8,"contact":0,"friend":0,"family":0},{"nsid":"80889406@N06","username":"Kindergartenkinder","realname":"","favedate":"1398772116","iconserver":"3821","iconfarm":4,"contact":0,"friend":0,"family":0},{"nsid":"17747857@N07","username":"Pepe (ADM)","realname":"Jos\u00e9 Glez y Lopez","favedate":"1366116668","iconserver":"8400","iconfarm":9,"contact":0,"friend":0,"family":0},{"nsid":"65147684@N08","username":"hm2227","realname":"h m","favedate":"1365365194","iconserver":"6022","iconfarm":7,"contact":0,"friend":0,"family":0},{"nsid":"55089608@N03","username":"Zeffry dr","realname":"zeffry dr","favedate":"1365267970","iconserver":"1380","iconfarm":2,"contact":0,"friend":0,"family":0},{"nsid":"34869895@N06","username":"dimaruss34","realname":"Dmitriy Fomenko","favedate":"1364521357","iconserver":"3605","iconfarm":4,"contact":0,"friend":0,"family":0},{"nsid":"37685136@N06","username":"snc145","realname":"Steven Chateauneuf","favedate":"1364520246","iconserver":"7575","iconfarm":8,"contact":0,"friend":0,"family":0},{"nsid":"76586193@N08","username":"Simon__X","realname":"Simon X","favedate":"1364430073","iconserver":"8219","iconfarm":9,"contact":0,"friend":0,"family":0},{"nsid":"91505905@N05","username":"f l a m a r i o n n u n e s","realname":"","favedate":"1364325771","iconserver":"5504","iconfarm":6,"contact":0,"friend":0,"family":0}],"id":"8580277205","secret":"8c213fb6dc","server":"8089","farm":9,"page":1,"pages":3,"perpage":10,"total":"27"},"stat":"ok"}