{"photo":{"person":[{"nsid":"125835949@N06","username":"joellypolly","realname":"joel cartmell","favedate":"1431351038","iconserver":"7340","iconfarm":8,"contact":0,"friend":0,"family":0},{"nsid":"126570707@N04","username":"savonittoanna","realname":"Anna Savonitto","favedate":"1426859078","iconserver":"3891","iconfarm":4,"contact":0,"friend":0,"family":0},{"nsid":"37039851@N07","username":"Jirarat wachum","realname":"","favedate":"1426674823","iconserver":"7470","iconfarm":8,"contact":0,"friend":0,"family":0},{"nsid":"29963904@N05","username":"odyn.owl","realname":"","favedate":"1426328880","iconserver":"7441","iconfarm":8,"contact":0,"friend":0,"family":0},{"nsid":"23294702@N06","username":"Amir Farhang","realname":"","favedate":"1425667908","iconserver":"3917","iconfarm":4,"contact":0,"friend":0,"family":0},{"nsid":"69876143@N04","username":"SmyrnaLpz","realname":"","favedate":"1425601012","iconserver":"5548","iconfarm":6,"contact":0,"friend":0,"family":0},{"nsid":"51055690@N07","username":"Lana37rus","realname":"Lana37rus","favedate":"1425578101","iconserver":"7782","iconfarm":8,"contact":0,"friend":0,"family":0},{"nsid":"113322744@N04","username":"leireradrienn","realname":"Leirer Adrienn","favedate":"1425331797","iconserver":"3940","iconfarm":4,"contact":0,"friend":0,"family":0},{"nsid":"102086516@N07","username":"Oleg.A","realname":"Oleg Anisimov","favedate":"1425193895","iconserver":"7568","iconfarm":8,"contact":0,"friend":0,"family":0},{"nsid":"59176177@N02","username":"gandalf_15","realname":"","favedate":"1425112413","iconserver":"8875","iconfarm":9,"contact":0,"friend":0,"family":0}],"id":"15955979314","secret":"0abdf1b948","server":"8625","farm":9,"page":1,"pages":9,"perpage":10,"total":"81"},"stat":"ok"}