{"photo":{"person":[{"nsid":"98605392@N07","username":"chesstwo_9","realname":"Txetxu Gonzalez Berrio","favedate":"1433802357","iconserver":"7326","iconfarm":8,"contact":0,"friend":0,"family":0},{"nsid":"90881581@N03","username":"Poli Maurizio","realname":"Maurizio Poli","favedate":"1433344625","iconserver":"5336","iconfarm":6,"contact":0,"friend":0,"family":0},{"nsid":"119942613@N02","username":"grandmont.jeanpol","realname":"Jean-Pol GRANDMONT","favedate":"1433332515","iconserver":"3820","iconfarm":4,"contact":0,"friend":0,"family":0},{"nsid":"108242628@N08","username":"mike | MKvip Beauty","realname":"","favedate":"1433293570","iconserver":"5474","iconfarm":6,"contact":0,"friend":0,"family":0},{"nsid":"101462042@N02","username":"_RossMartin","realname":"Ross Martin","favedate":"1433284187","iconserver":"7434","iconfarm":8,"contact":0,"friend":0,"family":0},{"nsid":"97423386@N06","username":"r_cruzjr3433","realname":"Ramon  Cruz","favedate":"1432696634","iconserver":"3714","iconfarm":4,"contact":0,"friend":0,"family":0},{"nsid":"131506172@N08","username":"Steven Blanchard","realname":"","favedate":"1432676312","iconserver":"8708","iconfarm":9,"contact":0,"friend":0,"family":0},{"nsid":"110104958@N06","username":"Andr\u00e9 B. Kutzner","realname":"Andr\u00e9 B. Kutzner","favedate":"1432674027","iconserver":"8881","iconfarm":9,"contact":0,"friend":0,"family":0},{"nsid":"126620309@N08","username":"Angle 1.618","realname":"Dinuka Bandara","favedate":"1432654311","iconserver":"2918","iconfarm":3,"contact":0,"friend":0,"family":0},{"nsid":"63868281@N08","username":"coco de carry","realname":"","favedate":"1432646983","iconserver":"6227","iconfarm":7,"contact":0,"friend":0,"family":0}],"id":"18074322076","secret":"458926ee58","server":"7661","farm":8,"page":1,"pages":2,"perpage":10,"total":"18"},"stat":"ok"}