{"photo":{"person":[{"nsid":"78272593@N08","username":"I Will Return","realname":"","favedate":"1360533589","iconserver":"7087","iconfarm":8,"contact":0,"friend":0,"family":0},{"nsid":"69530560@N08","username":"\u2606 j \u00e9 r e n","realname":"","favedate":"1332605064","iconserver":"8239","iconfarm":9,"contact":0,"friend":0,"family":0},{"nsid":"27415256@N00","username":"bluechameleon","realname":"Sharon Wish","favedate":"1325730820","iconserver":"5615","iconfarm":6,"contact":0,"friend":0,"family":0},{"nsid":"12178247@N07","username":"venetia 27","realname":"","favedate":"1325585479","iconserver":"3106","iconfarm":4,"contact":0,"friend":0,"family":0},{"nsid":"7967442@N04","username":"Peter Keyngnaert (pkeyn)","realname":"Peter Keyngnaert","favedate":"1325572695","iconserver":"1178","iconfarm":2,"contact":0,"friend":0,"family":0},{"nsid":"28522610@N05","username":"Astratto","realname":"","favedate":"1325533251","iconserver":"3151","iconfarm":4,"contact":0,"friend":0,"family":0},{"nsid":"41084110@N04","username":"Christine Bloom","realname":"","favedate":"1325531206","iconserver":"7403","iconfarm":8,"contact":0,"friend":0,"family":0},{"nsid":"44478193@N00","username":"Helplessly Hoping","realname":"","favedate":"1325524554","iconserver":"0","iconfarm":0,"contact":0,"friend":0,"family":0},{"nsid":"43592068@N08","username":"Sylvaine S\u00e9r\u00e9 de Rivi\u00e8res","realname":"","favedate":"1325524367","iconserver":"4082","iconfarm":5,"contact":0,"friend":0,"family":0},{"nsid":"15927199@N00","username":"hedderbox","realname":"","favedate":"1325522382","iconserver":"85","iconfarm":1,"contact":0,"friend":0,"family":0}],"id":"6618988803","secret":"93bf9c073f","server":"7146","farm":8,"page":1,"pages":2,"perpage":10,"total":"15"},"stat":"ok"}