{"photo":{"person":[{"nsid":"36785170@N05","username":"\u51f9\u5f88\u5927 point Two","realname":"","favedate":"1426866045","iconserver":"3629","iconfarm":4,"contact":0,"friend":0,"family":0},{"nsid":"63843181@N06","username":"NattyQ2","realname":"","favedate":"1421654635","iconserver":"7033","iconfarm":8,"contact":0,"friend":0,"family":0},{"nsid":"64830860@N02","username":"NINA KOB","realname":"","favedate":"1418035516","iconserver":"8815","iconfarm":9,"contact":0,"friend":0,"family":0},{"nsid":"97778342@N07","username":"kagedan","realname":"","favedate":"1417825801","iconserver":"5547","iconfarm":6,"contact":0,"friend":0,"family":0},{"nsid":"7798382@N03","username":"TOTORORO.RORO","realname":"","favedate":"1417569560","iconserver":"8262","iconfarm":9,"contact":0,"friend":0,"family":0},{"nsid":"53064522@N00","username":"BONGURI","realname":"Bong Grit","favedate":"1417344259","iconserver":"3715","iconfarm":4,"contact":0,"friend":0,"family":0},{"nsid":"93757918@N06","username":"Rafaela H. Hashimoto","realname":"Harumi Hashimoto","favedate":"1417120600","iconserver":"3691","iconfarm":4,"contact":0,"friend":0,"family":0},{"nsid":"111267343@N05","username":"nektarios.karefyllakis","realname":"Nektarios Karefyllakis","favedate":"1417119314","iconserver":"0","iconfarm":0,"contact":0,"friend":0,"family":0},{"nsid":"23789350@N02","username":"taarik","realname":"Taarik S","favedate":"1416860171","iconserver":"8358","iconfarm":9,"contact":0,"friend":0,"family":0},{"nsid":"15107442@N00","username":"Hsuanya Tsai","realname":"","favedate":"1416846036","iconserver":"7313","iconfarm":8,"contact":0,"friend":0,"family":0}],"id":"15679423740","secret":"268ff537cd","server":"7531","farm":8,"page":1,"pages":2,"perpage":10,"total":"14"},"stat":"ok"}