{"photo":{"person":[{"nsid":"111448077@N06","username":"Bethula99","realname":"","favedate":"1416156726","iconserver":"3847","iconfarm":4,"contact":0,"friend":0,"family":0},{"nsid":"124021707@N05","username":"martinski_1","realname":"Martin Vasilev","favedate":"1405841370","iconserver":"0","iconfarm":0,"contact":0,"friend":0,"family":0},{"nsid":"100016856@N08","username":"maco-nonch\u2605R","realname":"","favedate":"1403939348","iconserver":"3870","iconfarm":4,"contact":0,"friend":0,"family":0},{"nsid":"28952246@N03","username":"trakyan","realname":"","favedate":"1402184576","iconserver":"2202","iconfarm":3,"contact":0,"friend":0,"family":0},{"nsid":"111473779@N03","username":"proffkom_","realname":"Ivan Nikolaichuk","favedate":"1401397239","iconserver":"7451","iconfarm":8,"contact":0,"friend":0,"family":0},{"nsid":"95303997@N07","username":"Christian R. Hamacher (Je suis Charlie)","realname":"","favedate":"1400915832","iconserver":"5543","iconfarm":6,"contact":0,"friend":0,"family":0},{"nsid":"97171476@N00","username":"coulportste","realname":"","favedate":"1400175934","iconserver":"8638","iconfarm":9,"contact":0,"friend":0,"family":0},{"nsid":"92913487@N06","username":"S.H.E.m.e.","realname":"","favedate":"1399906087","iconserver":"7436","iconfarm":8,"contact":0,"friend":0,"family":0},{"nsid":"52904300@N06","username":"p'tit_oiseau","realname":"","favedate":"1399842452","iconserver":"5015","iconfarm":6,"contact":0,"friend":0,"family":0},{"nsid":"91660386@N02","username":"ninavv100","realname":"","favedate":"1399542358","iconserver":"0","iconfarm":0,"contact":0,"friend":0,"family":0}],"id":"13911431518","secret":"acb04c8d8b","server":"5482","farm":6,"page":1,"pages":3,"perpage":10,"total":"22"},"stat":"ok"}