{"photo":{"person":[{"nsid":"106973246@N06","username":"KENSEI 31","realname":"","favedate":"1421083888","iconserver":"2862","iconfarm":3,"contact":0,"friend":0,"family":0},{"nsid":"54944051@N00","username":"JMPaul","realname":"","favedate":"1421046463","iconserver":"5464","iconfarm":6,"contact":0,"friend":0,"family":0},{"nsid":"45854564@N04","username":"Saint Photo","realname":"","favedate":"1417382423","iconserver":"3830","iconfarm":4,"contact":0,"friend":0,"family":0},{"nsid":"126333525@N05","username":"justusalexander","realname":"Alexander Justus","favedate":"1415830959","iconserver":"3918","iconfarm":4,"contact":0,"friend":0,"family":0},{"nsid":"110612706@N05","username":"si.renate","realname":"renate s","favedate":"1415689914","iconserver":"7429","iconfarm":8,"contact":0,"friend":0,"family":0},{"nsid":"127782126@N07","username":"miguelitoiglesias7","realname":"Miguel Iglesias","favedate":"1415615575","iconserver":"3939","iconfarm":4,"contact":0,"friend":0,"family":0},{"nsid":"100860509@N07","username":"kaising_fung","realname":"kai","favedate":"1415574274","iconserver":"7675","iconfarm":8,"contact":0,"friend":0,"family":0},{"nsid":"114359036@N08","username":"ManuelAngel78","realname":"Manuel Angel Esquinas Exposito","favedate":"1415571893","iconserver":"7369","iconfarm":8,"contact":0,"friend":0,"family":0},{"nsid":"94405244@N03","username":"tom.leuzi","realname":"Thomas Leuzinger","favedate":"1415568420","iconserver":"7365","iconfarm":8,"contact":0,"friend":0,"family":0},{"nsid":"117992655@N05","username":"eliza.d","realname":"","favedate":"1415567379","iconserver":"7407","iconfarm":8,"contact":0,"friend":0,"family":0}],"id":"15565871280","secret":"fae4fb063a","server":"8115","farm":9,"page":1,"pages":2,"perpage":10,"total":"13"},"stat":"ok"}