{"photo":{"person":[{"nsid":"126863654@N06","username":"joaquimribeiro98","realname":"Joaquim Ribeiro","favedate":"1435706136","iconserver":"0","iconfarm":0,"contact":0,"friend":0,"family":0},{"nsid":"87127402@N02","username":"Mwap38","realname":"","favedate":"1423414940","iconserver":"5463","iconfarm":6,"contact":0,"friend":0,"family":0},{"nsid":"10277195@N05","username":"mamietherese1","realname":"Marie-Th\u00e9r\u00e8se","favedate":"1420730198","iconserver":"2824","iconfarm":3,"contact":0,"friend":0,"family":0},{"nsid":"77963612@N02","username":"Bas1953","realname":"","favedate":"1420304108","iconserver":"8566","iconfarm":9,"contact":0,"friend":0,"family":0},{"nsid":"28676792@N00","username":"MZP2006","realname":"","favedate":"1357053855","iconserver":"81","iconfarm":1,"contact":0,"friend":0,"family":0},{"nsid":"52242257@N02","username":"raymondo12 (Loves Colour),Catching up.","realname":"raymond beardsall","favedate":"1357053297","iconserver":"3910","iconfarm":4,"contact":0,"friend":0,"family":0},{"nsid":"88502812@N07","username":"new_day_new_life","realname":"Freund des Lichts","favedate":"1356621141","iconserver":"8235","iconfarm":9,"contact":0,"friend":0,"family":0},{"nsid":"75543436@N00","username":"\u2666 Peter & Ute Grahlmann \u2666","realname":"","favedate":"1356011969","iconserver":"5543","iconfarm":6,"contact":0,"friend":0,"family":0},{"nsid":"23503261@N07","username":"Toan N.","realname":"Toan N.","favedate":"1355539820","iconserver":"7429","iconfarm":8,"contact":0,"friend":0,"family":0},{"nsid":"46479684@N07","username":"AlexHawkPhotography","realname":"Alex Hochstrasser","favedate":"1355537130","iconserver":"8550","iconfarm":9,"contact":0,"friend":0,"family":0}],"id":"8264902368","secret":"892e430f91","server":"8482","farm":9,"page":1,"pages":2,"perpage":10,"total":"13"},"stat":"ok"}