{"photo":{"person":[{"nsid":"74732129@N02","username":"Visionheart","realname":"Richard S Warner","favedate":"1422885492","iconserver":"8706","iconfarm":9,"contact":0,"friend":0,"family":0},{"nsid":"115371987@N08","username":"susicardosa","realname":"","favedate":"1405953539","iconserver":"5316","iconfarm":6,"contact":0,"friend":0,"family":0},{"nsid":"98440994@N08","username":"sgrillo.angeloraffaele","realname":"Angelo Raffaele Sgrillo","favedate":"1402942100","iconserver":"7297","iconfarm":8,"contact":0,"friend":0,"family":0},{"nsid":"95374890@N05","username":"RS.Sena","realname":"rssena sena","favedate":"1398215290","iconserver":"7492","iconfarm":8,"contact":0,"friend":0,"family":0},{"nsid":"117208923@N07","username":"martinamardh","realname":"martina mardh","favedate":"1397149660","iconserver":"7369","iconfarm":8,"contact":0,"friend":0,"family":0},{"nsid":"97209723@N02","username":"88_as_you_see_","realname":"\uc7ac\uc131 \uc774","favedate":"1397130678","iconserver":"3847","iconfarm":4,"contact":0,"friend":0,"family":0},{"nsid":"41866641@N05","username":"UK-H","realname":"","favedate":"1396267163","iconserver":"7454","iconfarm":8,"contact":0,"friend":0,"family":0},{"nsid":"37129591@N08","username":"Aram G.","realname":"Aram","favedate":"1395518515","iconserver":"3944","iconfarm":4,"contact":0,"friend":0,"family":0},{"nsid":"96949025@N08","username":"Javihb92","realname":"Javi Herrera","favedate":"1395151778","iconserver":"7401","iconfarm":8,"contact":0,"friend":0,"family":0},{"nsid":"115864385@N06","username":"gonganel","realname":"","favedate":"1394889378","iconserver":"7291","iconfarm":8,"contact":0,"friend":0,"family":0}],"id":"12345625703","secret":"0a8cb1758d","server":"7329","farm":8,"page":1,"pages":14,"perpage":10,"total":"132"},"stat":"ok"}