{"photo":{"person":[{"nsid":"120402953@N02","username":"_Ivan_M_","realname":"Ivan M","favedate":"1400556741","iconserver":"7220","iconfarm":8,"contact":0,"friend":0,"family":0},{"nsid":"124483749@N03","username":"Lamasatt","realname":"Lamasatt Gallery","favedate":"1399839554","iconserver":"7446","iconfarm":8,"contact":0,"friend":0,"family":0},{"nsid":"98702241@N07","username":"ILE Photo & Video","realname":"","favedate":"1398917220","iconserver":"7323","iconfarm":8,"contact":0,"friend":0,"family":0},{"nsid":"19375101@N04","username":"SorinNechita","realname":"","favedate":"1398546667","iconserver":"356","iconfarm":1,"contact":0,"friend":0,"family":0},{"nsid":"100067265@N07","username":"_itsjo","realname":"itsjo","favedate":"1398364901","iconserver":"2868","iconfarm":3,"contact":0,"friend":0,"family":0},{"nsid":"119027661@N02","username":"LeFoox1318","realname":"Le Foox","favedate":"1398349480","iconserver":"480","iconfarm":1,"contact":0,"friend":0,"family":0},{"nsid":"56501174@N08","username":"witchiewoman333","realname":"","favedate":"1398342804","iconserver":"277","iconfarm":1,"contact":0,"friend":0,"family":0},{"nsid":"76519889@N06","username":"graziano.secchi","realname":"Graziano Secchi","favedate":"1398316776","iconserver":"7055","iconfarm":8,"contact":0,"friend":0,"family":0},{"nsid":"59310632@N07","username":"NYCPrynne","realname":"","favedate":"1398316341","iconserver":"0","iconfarm":0,"contact":0,"friend":0,"family":0},{"nsid":"61876461@N04","username":"Tomiz","realname":"","favedate":"1398316089","iconserver":"8603","iconfarm":9,"contact":0,"friend":0,"family":0}],"id":"13988158995","secret":"49947646e4","server":"7250","farm":8,"page":1,"pages":2,"perpage":10,"total":"13"},"stat":"ok"}