{"photo":{"person":[{"nsid":"66120385@N02","username":"ywkaa","realname":"Iwona Lach","favedate":"1413198342","iconserver":"8277","iconfarm":9,"contact":0,"friend":0,"family":0},{"nsid":"90070805@N02","username":"Mahleriana","realname":"","favedate":"1409696520","iconserver":"8062","iconfarm":9,"contact":0,"friend":0,"family":0},{"nsid":"49408360@N06","username":"wang_xiao","realname":"Rick Wang","favedate":"1408819057","iconserver":"5343","iconfarm":6,"contact":0,"friend":0,"family":0},{"nsid":"99808372@N06","username":"amir170a","realname":"","favedate":"1407017830","iconserver":"3902","iconfarm":4,"contact":0,"friend":0,"family":0},{"nsid":"13675180@N08","username":"bjarne.stokke","realname":"","favedate":"1406568174","iconserver":"5345","iconfarm":6,"contact":0,"friend":0,"family":0},{"nsid":"52208680@N02","username":"Dont\u00b4comment the same photo","realname":"","favedate":"1406107737","iconserver":"3956","iconfarm":4,"contact":0,"friend":0,"family":0},{"nsid":"123100213@N02","username":"Didier Willame","realname":"Didier Willame","favedate":"1405936546","iconserver":"7060","iconfarm":8,"contact":0,"friend":0,"family":0},{"nsid":"29210501@N05","username":"hp_cwb","realname":"","favedate":"1405884148","iconserver":"8829","iconfarm":9,"contact":0,"friend":0,"family":0},{"nsid":"67428378@N04","username":"Tahoe8591","realname":"","favedate":"1405871805","iconserver":"3795","iconfarm":4,"contact":0,"friend":0,"family":0},{"nsid":"66403925@N03","username":"xanirish","realname":"ana & xavier","favedate":"1405863870","iconserver":"2845","iconfarm":3,"contact":0,"friend":0,"family":0}],"id":"14503110828","secret":"b0488422c1","server":"5577","farm":6,"page":1,"pages":3,"perpage":10,"total":"22"},"stat":"ok"}