{"photo":{"person":[{"nsid":"92237739@N08","username":"B.CHAILLOU","realname":"Bastien Chaillou","favedate":"1432807544","iconserver":"7520","iconfarm":8,"contact":0,"friend":0,"family":0},{"nsid":"98413384@N03","username":"http:\/\/thomasthorstensson.photography","realname":"Thomas Thorstensson","favedate":"1426407585","iconserver":"7531","iconfarm":8,"contact":0,"friend":0,"family":0},{"nsid":"55088592@N04","username":"@necDOT","realname":"","favedate":"1425042427","iconserver":"5006","iconfarm":6,"contact":0,"friend":0,"family":0},{"nsid":"109580163@N05","username":"Manu Jacquot","realname":"Emmanuel Jacquot","favedate":"1425018337","iconserver":"8608","iconfarm":9,"contact":0,"friend":0,"family":0},{"nsid":"23701913@N04","username":"wjunior","realname":"Walter Costa","favedate":"1424954774","iconserver":"5482","iconfarm":6,"contact":0,"friend":0,"family":0},{"nsid":"79895134@N02","username":"Neo7Geo","realname":"Rico Rodriguez","favedate":"1424948564","iconserver":"3912","iconfarm":4,"contact":0,"friend":0,"family":0},{"nsid":"95303056@N02","username":"tokyo_llama","realname":"","favedate":"1424903888","iconserver":"2855","iconfarm":3,"contact":0,"friend":0,"family":0},{"nsid":"63152591@N03","username":"Noel Z. Gondek","realname":"Noel Gondek","favedate":"1424903729","iconserver":"3758","iconfarm":4,"contact":0,"friend":0,"family":0},{"nsid":"56514676@N05","username":"sb1rd","realname":"Robert van der Kroft","favedate":"1424901994","iconserver":"7656","iconfarm":8,"contact":0,"friend":0,"family":0},{"nsid":"101209796@N06","username":"Mink Jones","realname":"","favedate":"1424897281","iconserver":"5477","iconfarm":6,"contact":0,"friend":0,"family":0}],"id":"16001560404","secret":"98dc85d407","server":"8664","farm":9,"page":1,"pages":7,"perpage":10,"total":"69"},"stat":"ok"}