{"photo":{"person":[{"nsid":"130965162@N02","username":"paola.delrossi","realname":"Paola del Rossi","favedate":"1430112046","iconserver":"0","iconfarm":0,"contact":0,"friend":0,"family":0},{"nsid":"76931866@N03","username":"Lola Massotti","realname":"","favedate":"1429789558","iconserver":"2933","iconfarm":3,"contact":0,"friend":0,"family":0},{"nsid":"131880171@N08","username":"la_malatica","realname":"","favedate":"1429356136","iconserver":"7698","iconfarm":8,"contact":0,"friend":0,"family":0},{"nsid":"54970092@N06","username":"r. leo1","realname":"","favedate":"1429213274","iconserver":"5606","iconfarm":6,"contact":0,"friend":0,"family":0},{"nsid":"126440250@N07","username":"Jows Photographie","realname":"Jonathan Louis","favedate":"1429201525","iconserver":"5560","iconfarm":6,"contact":0,"friend":0,"family":0},{"nsid":"129554260@N05","username":"atyaasalah1","realname":"","favedate":"1429127900","iconserver":"8647","iconfarm":9,"contact":0,"friend":0,"family":0},{"nsid":"46724410@N07","username":"Rokkor Fella","realname":"","favedate":"1429125020","iconserver":"5533","iconfarm":6,"contact":0,"friend":0,"family":0},{"nsid":"38134034@N04","username":"blavandmaster","realname":"Christian","favedate":"1429122643","iconserver":"5454","iconfarm":6,"contact":0,"friend":0,"family":0},{"nsid":"94852049@N07","username":"CeeJay700","realname":"","favedate":"1429113329","iconserver":"8637","iconfarm":9,"contact":0,"friend":0,"family":0},{"nsid":"43588196@N05","username":"kennethcanada1","realname":"kenneth r rowley","favedate":"1429113279","iconserver":"294","iconfarm":1,"contact":0,"friend":0,"family":0}],"id":"16938605817","secret":"c6c7bc7d7b","server":"7596","farm":8,"page":1,"pages":2,"perpage":10,"total":"19"},"stat":"ok"}