{"photo":{"person":[{"nsid":"115102098@N03","username":"UtterButt","realname":"","favedate":"1400431627","iconserver":"3666","iconfarm":4,"contact":0,"friend":0,"family":0},{"nsid":"93003514@N04","username":"Davehux","realname":"Dave Hux","favedate":"1396795698","iconserver":"7641","iconfarm":8,"contact":0,"friend":0,"family":0},{"nsid":"54675036@N05","username":"Yves Bonnefoy","realname":"","favedate":"1311871471","iconserver":"4153","iconfarm":5,"contact":0,"friend":0,"family":0},{"nsid":"89017202@N00","username":"Fred Matos","realname":"","favedate":"1311603593","iconserver":"7326","iconfarm":8,"contact":0,"friend":0,"family":0},{"nsid":"57596917@N00","username":"oozhan","realname":"","favedate":"1287823560","iconserver":"8267","iconfarm":9,"contact":0,"friend":0,"family":0},{"nsid":"33539016@N02","username":"rlange4467","realname":"Rodney Lange","favedate":"1287816692","iconserver":"4037","iconfarm":5,"contact":0,"friend":0,"family":0},{"nsid":"36161276@N04","username":"_detritus_","realname":"Ema -","favedate":"1273617867","iconserver":"5338","iconfarm":6,"contact":0,"friend":0,"family":0},{"nsid":"35926976@N07","username":"raphic :)","realname":"Rafa\u0142 Krauze","favedate":"1269898048","iconserver":"2566","iconfarm":3,"contact":0,"friend":0,"family":0},{"nsid":"42694776@N04","username":"steph77700","realname":"St\u00e9phane","favedate":"1269778645","iconserver":"2567","iconfarm":3,"contact":0,"friend":0,"family":0},{"nsid":"40354200@N06","username":"suzan veldhoen..time out..........","realname":"","favedate":"1269702242","iconserver":"2480","iconfarm":3,"contact":0,"friend":0,"family":0}],"id":"4221339289","secret":"32acb093ca","server":"2804","farm":3,"page":1,"pages":4,"perpage":10,"total":"36"},"stat":"ok"}