{"photo":{"person":[{"nsid":"130054947@N04","username":"agb800m11","realname":"agberto guimaraes","favedate":"1431086240","iconserver":"7490","iconfarm":8,"contact":0,"friend":0,"family":0},{"nsid":"38778223@N08","username":"caff54","realname":"","favedate":"1431016698","iconserver":"7170","iconfarm":8,"contact":0,"friend":0,"family":0},{"nsid":"107228748@N08","username":"Tefai","realname":"Alexander Mineev","favedate":"1428260721","iconserver":"3901","iconfarm":4,"contact":0,"friend":0,"family":0},{"nsid":"111267343@N05","username":"nektarios.karefyllakis","realname":"Nektarios Karefyllakis","favedate":"1427569095","iconserver":"0","iconfarm":0,"contact":0,"friend":0,"family":0},{"nsid":"128962307@N03","username":"Newman, JA","realname":"","favedate":"1427332338","iconserver":"5333","iconfarm":6,"contact":0,"friend":0,"family":0},{"nsid":"129631658@N05","username":"Dina_7","realname":"Edina \u010ci\u010di\u0107","favedate":"1427320700","iconserver":"445","iconfarm":1,"contact":0,"friend":0,"family":0},{"nsid":"38056022@N07","username":"bdecker432","realname":"Bob Decker","favedate":"1427200553","iconserver":"8594","iconfarm":9,"contact":0,"friend":0,"family":0},{"nsid":"13675180@N08","username":"bjarne.stokke","realname":"","favedate":"1426623169","iconserver":"5345","iconfarm":6,"contact":0,"friend":0,"family":0},{"nsid":"100330886@N04","username":"earthwandering.com","realname":"Earth Wandering","favedate":"1426540917","iconserver":"3701","iconfarm":4,"contact":0,"friend":0,"family":0},{"nsid":"24739867@N02","username":"mau_tweety","realname":"Mau and Tweety","favedate":"1426527809","iconserver":"5462","iconfarm":6,"contact":0,"friend":0,"family":0}],"id":"16743051306","secret":"884892e7c6","server":"7605","farm":8,"page":1,"pages":6,"perpage":10,"total":"56"},"stat":"ok"}