{"photo":{"person":[{"nsid":"126785366@N04","username":"andr3.moraes","realname":"Andr\u00e9 Moraes","favedate":"1427505224","iconserver":"7643","iconfarm":8,"contact":0,"friend":0,"family":0},{"nsid":"94311412@N07","username":"Ruediger Hirt","realname":"Ruediger Hirt","favedate":"1424286299","iconserver":"8712","iconfarm":9,"contact":0,"friend":0,"family":0},{"nsid":"79369350@N08","username":"malioli","realname":"Oliver \u0160vob","favedate":"1419795726","iconserver":"8670","iconfarm":9,"contact":0,"friend":0,"family":0},{"nsid":"115468187@N06","username":"Vin\u00edcius F. Herculano","realname":"Vin\u00edcius Ferreira Herculano","favedate":"1417345541","iconserver":"8792","iconfarm":9,"contact":0,"friend":0,"family":0},{"nsid":"8918898@N08","username":"lau7171","realname":"Laura Drake Enberg","favedate":"1412697659","iconserver":"5548","iconfarm":6,"contact":0,"friend":0,"family":0},{"nsid":"85827459@N00","username":"Rick McGrath","realname":"Rick McGrath","favedate":"1412522336","iconserver":"7419","iconfarm":8,"contact":0,"friend":0,"family":0},{"nsid":"84613851@N08","username":"Pieter van de Ruit","realname":"","favedate":"1412451751","iconserver":"3714","iconfarm":4,"contact":0,"friend":0,"family":0},{"nsid":"63851438@N00","username":"brobosky","realname":"","favedate":"1412445129","iconserver":"2918","iconfarm":3,"contact":0,"friend":0,"family":0},{"nsid":"63347621@N05","username":"timothyselvage","realname":"Timothy Selvage","favedate":"1412444008","iconserver":"5486","iconfarm":6,"contact":0,"friend":0,"family":0},{"nsid":"126486467@N06","username":"grenpinkverderosa@gmail.com","realname":"Sergio Verderosa","favedate":"1412441273","iconserver":"3909","iconfarm":4,"contact":0,"friend":0,"family":0}],"id":"15414881546","secret":"8ae1b02145","server":"5601","farm":6,"page":1,"pages":2,"perpage":10,"total":"17"},"stat":"ok"}