{"photo":{"person":[{"nsid":"21503482@N06","username":"ride0583","realname":"John Linton","favedate":"1406202048","iconserver":"2417","iconfarm":3,"contact":0,"friend":0,"family":0},{"nsid":"89630606@N06","username":"Franczeskaaaa","realname":"","favedate":"1394919795","iconserver":"8120","iconfarm":9,"contact":0,"friend":0,"family":0},{"nsid":"76453564@N07","username":"PHOTODRAMA *","realname":"JULIO FUENTES GONZALEZ","favedate":"1394589628","iconserver":"7130","iconfarm":8,"contact":0,"friend":0,"family":0},{"nsid":"91911442@N03","username":"cuginAle","realname":"","favedate":"1392930958","iconserver":"7533","iconfarm":8,"contact":0,"friend":0,"family":0},{"nsid":"72496728@N08","username":"christine gogo","realname":"christine gogo","favedate":"1392797237","iconserver":"0","iconfarm":0,"contact":0,"friend":0,"family":0},{"nsid":"101046641@N08","username":"o_O !","realname":"","favedate":"1391622319","iconserver":"5517","iconfarm":6,"contact":0,"friend":0,"family":0},{"nsid":"63497036@N04","username":"Fer Montero (Back for a little)","realname":"Fer Montero","favedate":"1391324345","iconserver":"5507","iconfarm":6,"contact":0,"friend":0,"family":0},{"nsid":"26192661@N08","username":"sharifjhurry","realname":"sharif jhurry","favedate":"1391293080","iconserver":"3067","iconfarm":4,"contact":0,"friend":0,"family":0},{"nsid":"33775149@N05","username":"-sigma-","realname":"","favedate":"1391137821","iconserver":"3754","iconfarm":4,"contact":0,"friend":0,"family":0},{"nsid":"66095388@N03","username":"the mr gnu","realname":"","favedate":"1391011701","iconserver":"5033","iconfarm":6,"contact":0,"friend":0,"family":0}],"id":"12192576394","secret":"9d97d2a126","server":"3825","farm":4,"page":1,"pages":3,"perpage":10,"total":"26"},"stat":"ok"}