{"photo":{"person":[{"nsid":"131741025@N07","username":"Poekoko Hteemoo Chitmain","realname":"Poekoko Chitmain","favedate":"1428066460","iconserver":"7617","iconfarm":8,"contact":0,"friend":0,"family":0},{"nsid":"102086516@N07","username":"Oleg.A","realname":"Oleg Anisimov","favedate":"1427797745","iconserver":"7568","iconfarm":8,"contact":0,"friend":0,"family":0},{"nsid":"112386875@N05","username":"pure photography!","realname":"Norbert Posselt","favedate":"1427577090","iconserver":"8614","iconfarm":9,"contact":0,"friend":0,"family":0},{"nsid":"82715661@N04","username":"justmeandme2012","realname":"","favedate":"1427553127","iconserver":"7470","iconfarm":8,"contact":0,"friend":0,"family":0},{"nsid":"127271498@N05","username":"Diana \uf8ff Andreea","realname":"diana andreea dragoman","favedate":"1427534540","iconserver":"3894","iconfarm":4,"contact":0,"friend":0,"family":0},{"nsid":"82293232@N03","username":"old Man with Charm","realname":"CardCollector & HobbyPhotographer","favedate":"1427531393","iconserver":"3890","iconfarm":4,"contact":0,"friend":0,"family":0},{"nsid":"130804940@N07","username":"paul.arram","realname":"Paul Arram","favedate":"1427531133","iconserver":"8623","iconfarm":9,"contact":0,"friend":0,"family":0},{"nsid":"44334849@N08","username":"domiloui","realname":"dominique chatron","favedate":"1427529969","iconserver":"7541","iconfarm":8,"contact":0,"friend":0,"family":0},{"nsid":"131375613@N08","username":"gruberphilipp819","realname":"Philipp Gruber","favedate":"1427449149","iconserver":"7644","iconfarm":8,"contact":0,"friend":0,"family":0},{"nsid":"65309933@N02","username":"maerzbecher-Deutschland zu Fuss","realname":"Roswitha","favedate":"1427387667","iconserver":"7169","iconfarm":8,"contact":0,"friend":0,"family":0}],"id":"16746704448","secret":"8030b7d400","server":"7616","farm":8,"page":1,"pages":2,"perpage":10,"total":"13"},"stat":"ok"}