{"photo":{"person":[{"nsid":"11401962@N02","username":"pabigelli","realname":"Paolo Bigelli","favedate":"1393525266","iconserver":"3797","iconfarm":4,"contact":0,"friend":0,"family":0},{"nsid":"89454473@N00","username":"paulie~(away)","realname":"Paul Grebanier","favedate":"1375383947","iconserver":"3795","iconfarm":4,"contact":0,"friend":0,"family":0},{"nsid":"82296211@N08","username":"steigiotto","realname":"","favedate":"1373863752","iconserver":"8094","iconfarm":9,"contact":0,"friend":0,"family":0},{"nsid":"50500701@N04","username":"Coloradogreenchile Arte Limbico","realname":"","favedate":"1373081806","iconserver":"4013","iconfarm":5,"contact":0,"friend":0,"family":0},{"nsid":"95667236@N03","username":"luciana.cidrim","realname":"Luciana Cidrim","favedate":"1373010047","iconserver":"7426","iconfarm":8,"contact":0,"friend":0,"family":0},{"nsid":"16230743@N06","username":"Open your eyes<::::::::::::::::::::::::::::","realname":"","favedate":"1372783084","iconserver":"5604","iconfarm":6,"contact":0,"friend":0,"family":0},{"nsid":"98276830@N06","username":"perlamcgee","realname":"Perla Mcgee","favedate":"1372712327","iconserver":"3789","iconfarm":4,"contact":0,"friend":0,"family":0},{"nsid":"93335656@N08","username":"forcarta","realname":"","favedate":"1372695882","iconserver":"0","iconfarm":0,"contact":0,"friend":0,"family":0},{"nsid":"62545277@N06","username":"B.Claude C.","realname":"","favedate":"1372638598","iconserver":"7575","iconfarm":8,"contact":0,"friend":0,"family":0},{"nsid":"97209723@N02","username":"88_as_you_see_","realname":"\uc7ac\uc131 \uc774","favedate":"1372638587","iconserver":"3847","iconfarm":4,"contact":0,"friend":0,"family":0}],"id":"9173583753","secret":"e93d6cd69d","server":"5466","farm":6,"page":1,"pages":2,"perpage":10,"total":"14"},"stat":"ok"}