{"photo":{"person":[{"nsid":"118866567@N06","username":"guillaumeguerin79","realname":"Guillaume Gu\u00e9rin","favedate":"1432718288","iconserver":"2950","iconfarm":3,"contact":0,"friend":0,"family":0},{"nsid":"73000572@N08","username":"christofphotography","realname":"","favedate":"1423499457","iconserver":"7453","iconfarm":8,"contact":0,"friend":0,"family":0},{"nsid":"78189569@N04","username":"StjCross","realname":"Stephen Cross","favedate":"1414345380","iconserver":"3817","iconfarm":4,"contact":0,"friend":0,"family":0},{"nsid":"22129564@N00","username":"Andr\u00e9s L\u00e1zaro","realname":"","favedate":"1407959012","iconserver":"7440","iconfarm":8,"contact":0,"friend":0,"family":0},{"nsid":"50589048@N05","username":"Dmitry Sobolev Sight","realname":"","favedate":"1399468865","iconserver":"7559","iconfarm":8,"contact":0,"friend":0,"family":0},{"nsid":"86370136@N05","username":"Yan A. Linn","realname":"Yan Linn","favedate":"1396892517","iconserver":"7464","iconfarm":8,"contact":0,"friend":0,"family":0},{"nsid":"32836690@N00","username":"one flew west","realname":"redg h. cogghe","favedate":"1379225834","iconserver":"3831","iconfarm":4,"contact":0,"friend":0,"family":0},{"nsid":"8375389@N04","username":"Ernesto M\u00e9ndez","realname":"Ernesto M\u00e9ndez","favedate":"1377649360","iconserver":"1045","iconfarm":2,"contact":0,"friend":0,"family":0},{"nsid":"21891888@N00","username":"minions & myrmidons","realname":"","favedate":"1370994345","iconserver":"5343","iconfarm":6,"contact":0,"friend":0,"family":0},{"nsid":"89012041@N00","username":"zlandr","realname":"Chris Farling","favedate":"1366162496","iconserver":"5326","iconfarm":6,"contact":0,"friend":0,"family":0}],"id":"5816414484","secret":"62117d9fd4","server":"3522","farm":4,"page":1,"pages":3,"perpage":10,"total":"30"},"stat":"ok"}