{"photo":{"person":[{"nsid":"38134034@N04","username":"blavandmaster","realname":"Christian","favedate":"1429625530","iconserver":"5454","iconfarm":6,"contact":0,"friend":0,"family":0},{"nsid":"43588196@N05","username":"kennethcanada1","realname":"kenneth r rowley","favedate":"1424711417","iconserver":"294","iconfarm":1,"contact":0,"friend":0,"family":0},{"nsid":"118304891@N02","username":"City Clock Magazine","realname":"","favedate":"1424092619","iconserver":"2307","iconfarm":3,"contact":0,"friend":0,"family":0},{"nsid":"59234566@N07","username":"gatierf","realname":"","favedate":"1419960051","iconserver":"4114","iconfarm":5,"contact":0,"friend":0,"family":0},{"nsid":"22796940@N00","username":"the foreign photographer - \u0e1d\u0e23\u0e31\u0e48\u0e07\u0e16\u0e48","realname":"","favedate":"1419938728","iconserver":"2676","iconfarm":3,"contact":0,"friend":0,"family":0},{"nsid":"127782572@N03","username":"be.net\/bo-she","realname":"Bogdan Sheludivchenko","favedate":"1419865515","iconserver":"2948","iconfarm":3,"contact":0,"friend":0,"family":0},{"nsid":"22130389@N05","username":"ione3210","realname":"\u8521 \u69ae\u5b97","favedate":"1416468628","iconserver":"3923","iconfarm":4,"contact":0,"friend":0,"family":0},{"nsid":"95694083@N02","username":"Berkan B\u00fcy\u00fcktombak","realname":"Berkan B\u00fcy\u00fcktombak","favedate":"1416430047","iconserver":"7682","iconfarm":8,"contact":0,"friend":0,"family":0},{"nsid":"99375245@N04","username":"adwanmu","realname":"muhammed adwan","favedate":"1416418867","iconserver":"0","iconfarm":0,"contact":0,"friend":0,"family":0},{"nsid":"30615567@N02","username":"Ming - chun ( very busy )","realname":"\u9298\u4fca","favedate":"1416365884","iconserver":"8829","iconfarm":9,"contact":0,"friend":0,"family":0}],"id":"15822008682","secret":"f723aa76b9","server":"7527","farm":8,"page":1,"pages":2,"perpage":10,"total":"15"},"stat":"ok"}