{"photo":{"person":[{"nsid":"97145910@N00","username":"deminimis","realname":"","favedate":"1415551400","iconserver":"3697","iconfarm":4,"contact":0,"friend":0,"family":0},{"nsid":"45640288@N08","username":"saucyAshwani","realname":"","favedate":"1415548954","iconserver":"3325","iconfarm":4,"contact":0,"friend":0,"family":0},{"nsid":"39001016@N00","username":"jinchinlin","realname":"jinchin  \u5efa\u660c lin","favedate":"1412263162","iconserver":"2256","iconfarm":3,"contact":0,"friend":0,"family":0},{"nsid":"124130353@N08","username":"Andrei Azanfirei","realname":"Andrei Azanfirei","favedate":"1412167806","iconserver":"7794","iconfarm":8,"contact":0,"friend":0,"family":0},{"nsid":"13675180@N08","username":"bjarne.stokke","realname":"","favedate":"1411672800","iconserver":"5345","iconfarm":6,"contact":0,"friend":0,"family":0},{"nsid":"12243716@N08","username":"Brendan J Ross","realname":"Brendan Ross","favedate":"1411300385","iconserver":"8406","iconfarm":9,"contact":0,"friend":0,"family":0},{"nsid":"62004616@N06","username":"shelby-dog","realname":"","favedate":"1411286327","iconserver":"5143","iconfarm":6,"contact":0,"friend":0,"family":0},{"nsid":"110569055@N04","username":"Justin Kenneth Rowley","realname":"Justin Kenneth Rowley","favedate":"1410919779","iconserver":"5534","iconfarm":6,"contact":0,"friend":0,"family":0},{"nsid":"95549746@N08","username":"Joeflextech","realname":"JOE TWISS","favedate":"1410909108","iconserver":"7505","iconfarm":8,"contact":0,"friend":0,"family":0},{"nsid":"43588196@N05","username":"kennethcanada1","realname":"kenneth r rowley","favedate":"1410891631","iconserver":"294","iconfarm":1,"contact":0,"friend":0,"family":0}],"id":"15072326788","secret":"23173fb5e9","server":"5558","farm":6,"page":1,"pages":3,"perpage":10,"total":"21"},"stat":"ok"}