{"photo":{"person":[{"nsid":"97689250@N04","username":"summernothere","realname":"Anastasia","favedate":"1427236733","iconserver":"8748","iconfarm":9,"contact":0,"friend":0,"family":0},{"nsid":"125956465@N03","username":"giadaciotola","realname":"Giada Ciotola","favedate":"1405010857","iconserver":"2923","iconfarm":3,"contact":0,"friend":0,"family":0},{"nsid":"119408983@N04","username":"BigBSTRD","realname":"","favedate":"1399127489","iconserver":"8701","iconfarm":9,"contact":0,"friend":0,"family":0},{"nsid":"24992002@N00","username":"adam jaenke.","realname":"adam jaenke","favedate":"1398654871","iconserver":"2842","iconfarm":3,"contact":0,"friend":0,"family":0},{"nsid":"24656397@N04","username":"KouKon","realname":"Konstantinos Kousis","favedate":"1396814531","iconserver":"8232","iconfarm":9,"contact":0,"friend":0,"family":0},{"nsid":"26300250@N03","username":"O fil","realname":"","favedate":"1393611947","iconserver":"2928","iconfarm":3,"contact":0,"friend":0,"family":0},{"nsid":"37129591@N08","username":"Aram G.","realname":"Aram","favedate":"1393609387","iconserver":"3944","iconfarm":4,"contact":0,"friend":0,"family":0},{"nsid":"46913765@N02","username":"The little fawn*","realname":"","favedate":"1393597975","iconserver":"468","iconfarm":1,"contact":0,"friend":0,"family":0},{"nsid":"87719512@N06","username":"Freiiheitt","realname":"Gustavo Mena","favedate":"1393593272","iconserver":"5066","iconfarm":6,"contact":0,"friend":0,"family":0},{"nsid":"108889943@N04","username":"ajsprink","realname":"Alyssa","favedate":"1393443309","iconserver":"3787","iconfarm":4,"contact":0,"friend":0,"family":0}],"id":"12091207276","secret":"82a7a75c72","server":"5536","farm":6,"page":1,"pages":5,"perpage":10,"total":"48"},"stat":"ok"}