{"photo":{"person":[{"nsid":"91800870@N02","username":"Lucia Melendo","realname":"","favedate":"1364069616","iconserver":"3699","iconfarm":4,"contact":0,"friend":0,"family":0},{"nsid":"22307626@N03","username":"\u2665 Beta \u2665","realname":"Roberta Soares","favedate":"1338953957","iconserver":"5001","iconfarm":6,"contact":0,"friend":0,"family":0},{"nsid":"57225056@N03","username":"marskaia","realname":"Marina N. Makarova","favedate":"1329551524","iconserver":"5085","iconfarm":6,"contact":0,"friend":0,"family":0},{"nsid":"25466320@N08","username":"apres-midi","realname":"","favedate":"1328102917","iconserver":"7065","iconfarm":8,"contact":0,"friend":0,"family":0},{"nsid":"52443846@N02","username":"\u062e\u0644\u0648\u062f \u0627\u0644\u0639\u0645\u0631\u0627\u0646","realname":"","favedate":"1326499922","iconserver":"6002","iconfarm":7,"contact":0,"friend":0,"family":0},{"nsid":"55902139@N05","username":"Jos\u00e9 Manuel Ram\u00edrez","realname":"Jos\u00e9 Manuel Ram\u00edrez","favedate":"1325574432","iconserver":"446","iconfarm":1,"contact":0,"friend":0,"family":0},{"nsid":"73452702@N08","username":"piishposhh","realname":"Alyssa Smith","favedate":"1325542770","iconserver":"8428","iconfarm":9,"contact":0,"friend":0,"family":0},{"nsid":"44448753@N05","username":"walksbyhimself","realname":"","favedate":"1324840948","iconserver":"2709","iconfarm":3,"contact":0,"friend":0,"family":0},{"nsid":"48284663@N02","username":"Brenda Arias.","realname":"Brenda Arias.","favedate":"1322855816","iconserver":"8088","iconfarm":9,"contact":0,"friend":0,"family":0},{"nsid":"36824255@N05","username":"wanilinowa","realname":"","favedate":"1322840255","iconserver":"0","iconfarm":0,"contact":0,"friend":0,"family":0}],"id":"6438035977","secret":"eb9ab5fa45","server":"7016","farm":8,"page":1,"pages":3,"perpage":10,"total":"24"},"stat":"ok"}