{"photo":{"person":[{"nsid":"52725579@N05","username":"creativegaz","realname":"Gary Winfield","favedate":"1427648734","iconserver":"7703","iconfarm":8,"contact":0,"friend":0,"family":0},{"nsid":"31612292@N03","username":"carlos_miranda1962","realname":"","favedate":"1415543834","iconserver":"2702","iconfarm":3,"contact":0,"friend":0,"family":0},{"nsid":"96506588@N07","username":"spawn5555","realname":"Carlos Villegas","favedate":"1409504623","iconserver":"5459","iconfarm":6,"contact":0,"friend":0,"family":0},{"nsid":"72709514@N04","username":"wdwhub","realname":"","favedate":"1406865136","iconserver":"7336","iconfarm":8,"contact":0,"friend":0,"family":0},{"nsid":"126472843@N07","username":"liliginiatullina","realname":"","favedate":"1406605081","iconserver":"3853","iconfarm":4,"contact":0,"friend":0,"family":0},{"nsid":"67214151@N00","username":"awdylanis","realname":"Annie Wood","favedate":"1406563412","iconserver":"5173","iconfarm":6,"contact":0,"friend":0,"family":0},{"nsid":"124866495@N06","username":"x_ally_x8","realname":"Ally Forshey","favedate":"1406429015","iconserver":"0","iconfarm":0,"contact":0,"friend":0,"family":0},{"nsid":"19411855@N07","username":"k4she4144","realname":"","favedate":"1406424445","iconserver":"3874","iconfarm":4,"contact":0,"friend":0,"family":0},{"nsid":"26678134@N04","username":"chrissupinski","realname":"Chris Supinski","favedate":"1406421041","iconserver":"347","iconfarm":1,"contact":0,"friend":0,"family":0},{"nsid":"126405014@N08","username":"monicarenatads","realname":"monica renata da silva","favedate":"1406416703","iconserver":"5583","iconfarm":6,"contact":0,"friend":0,"family":0}],"id":"14728512396","secret":"020d07e084","server":"5557","farm":6,"page":1,"pages":2,"perpage":10,"total":"11"},"stat":"ok"}