{"photo":{"person":[{"nsid":"27115755@N02","username":"Itinerant Wanderer","realname":"Itinerant Wanderer","favedate":"1337301669","iconserver":"3694","iconfarm":4,"contact":0,"friend":0,"family":0},{"nsid":"58621196@N05","username":"brdonovan","realname":"brian donovan","favedate":"1337282898","iconserver":"7141","iconfarm":8,"contact":0,"friend":0,"family":0},{"nsid":"46601926@N02","username":"dbpeterson723","realname":"DeAnn Peterson","favedate":"1337267370","iconserver":"2815","iconfarm":3,"contact":0,"friend":0,"family":0},{"nsid":"47290259@N06","username":"Ostseetroll","realname":"","favedate":"1337263127","iconserver":"8262","iconfarm":9,"contact":0,"friend":0,"family":0},{"nsid":"31119160@N06","username":"loco's photos","realname":"Lori C.","favedate":"1337255870","iconserver":"5612","iconfarm":6,"contact":0,"friend":0,"family":0},{"nsid":"21503482@N06","username":"ride0583","realname":"John Linton","favedate":"1337255543","iconserver":"2417","iconfarm":3,"contact":0,"friend":0,"family":0},{"nsid":"47931769@N02","username":"Gloria Castro Salvador","realname":"gloria castro","favedate":"1337248758","iconserver":"3215","iconfarm":4,"contact":0,"friend":0,"family":0},{"nsid":"43589035@N06","username":"Victoria.....a secas.","realname":"Victoria  Rivas","favedate":"1337247095","iconserver":"3685","iconfarm":4,"contact":0,"friend":0,"family":0},{"nsid":"47225610@N02","username":"Janesha B","realname":"Charitha Janesha Batuwangala","favedate":"1337246711","iconserver":"8563","iconfarm":9,"contact":0,"friend":0,"family":0},{"nsid":"31548987@N00","username":"Elsbeth Walter","realname":"","favedate":"1337244844","iconserver":"8255","iconfarm":9,"contact":0,"friend":0,"family":0}],"id":"7213673448","secret":"1b4d8b6cb1","server":"8006","farm":9,"page":1,"pages":2,"perpage":10,"total":"12"},"stat":"ok"}