{"photo":{"person":[{"nsid":"17685557@N02","username":"Xocoatz\u00edn","realname":"","favedate":"1435907781","iconserver":"503","iconfarm":1,"contact":0,"friend":0,"family":0},{"nsid":"90869070@N03","username":"Pipi Lo","realname":"","favedate":"1422215129","iconserver":"5450","iconfarm":6,"contact":0,"friend":0,"family":0},{"nsid":"55274950@N08","username":"Thought Knots Design","realname":"","favedate":"1421687468","iconserver":"7423","iconfarm":8,"contact":0,"friend":0,"family":0},{"nsid":"94204811@N06","username":"Dorje65","realname":"G\u00f6npo Dorje","favedate":"1380280856","iconserver":"2874","iconfarm":3,"contact":0,"friend":0,"family":0},{"nsid":"40149861@N05","username":"\u017da\u017da.Hamzeh","realname":"","favedate":"1379179351","iconserver":"3935","iconfarm":4,"contact":0,"friend":0,"family":0},{"nsid":"61324186@N06","username":"yaasia","realname":"Yasaman A","favedate":"1378242536","iconserver":"5188","iconfarm":6,"contact":0,"friend":0,"family":0},{"nsid":"90053071@N00","username":"NimaYousefi","realname":"","favedate":"1377974833","iconserver":"39","iconfarm":1,"contact":0,"friend":0,"family":0},{"nsid":"61828703@N04","username":"Hakimeh","realname":"","favedate":"1377972889","iconserver":"0","iconfarm":0,"contact":0,"friend":0,"family":0},{"nsid":"12462778@N07","username":"soorme...","realname":"Zeinab Sarikhani","favedate":"1377866669","iconserver":"3725","iconfarm":4,"contact":0,"friend":0,"family":0},{"nsid":"32909381@N04","username":"Cna1_10","realname":"Sina A","favedate":"1372390720","iconserver":"3112","iconfarm":4,"contact":0,"friend":0,"family":0}],"id":"8601659631","secret":"b992cd432a","server":"8542","farm":9,"page":1,"pages":2,"perpage":10,"total":"20"},"stat":"ok"}