{"photo":{"person":[{"nsid":"82715661@N04","username":"justmeandme2012","realname":"","favedate":"1435718381","iconserver":"7470","iconfarm":8,"contact":0,"friend":0,"family":0},{"nsid":"101278273@N03","username":"No\/mad Life","realname":"nomad heart","favedate":"1435247813","iconserver":"7307","iconfarm":8,"contact":0,"friend":0,"family":0},{"nsid":"120552517@N03","username":"Images by Christie \u266a\u266b Happy Clicks for 2015! ","realname":"","favedate":"1432462472","iconserver":"7203","iconfarm":8,"contact":0,"friend":0,"family":0},{"nsid":"52019566@N00","username":"Van-HC","realname":"H-C","favedate":"1431037146","iconserver":"8121","iconfarm":9,"contact":0,"friend":0,"family":0},{"nsid":"12351336@N07","username":"giuse.sa02","realname":"","favedate":"1429766401","iconserver":"7368","iconfarm":8,"contact":0,"friend":0,"family":0},{"nsid":"9535010@N04","username":"Adventurer Dustin Holmes","realname":"Dustin Holmes","favedate":"1428936868","iconserver":"3942","iconfarm":4,"contact":0,"friend":0,"family":0},{"nsid":"123832245@N06","username":"randolph.belz","realname":"Randy Belz","favedate":"1428160570","iconserver":"2914","iconfarm":3,"contact":0,"friend":0,"family":0},{"nsid":"23239200@N00","username":"Gail Peck","realname":"Gail Peck","favedate":"1427824891","iconserver":"49","iconfarm":1,"contact":0,"friend":0,"family":0},{"nsid":"25831001@N07","username":"Harry2010","realname":"Harry T","favedate":"1427814765","iconserver":"3067","iconfarm":4,"contact":0,"friend":0,"family":0},{"nsid":"131348905@N05","username":"christ.creations","realname":"christine saez","favedate":"1427054558","iconserver":"8572","iconfarm":9,"contact":0,"friend":0,"family":0}],"id":"16674303809","secret":"18382064a5","server":"8710","farm":9,"page":1,"pages":3,"perpage":10,"total":"25"},"stat":"ok"}