{"photo":{"person":[{"nsid":"105430502@N02","username":"gnicoli11","realname":"","favedate":"1430282820","iconserver":"0","iconfarm":0,"contact":0,"friend":0,"family":0},{"nsid":"40503212@N06","username":"Sandra Sunshine","realname":"","favedate":"1429240933","iconserver":"7326","iconfarm":8,"contact":0,"friend":0,"family":0},{"nsid":"131441508@N06","username":"\uc138\uc5f0261.8","realname":"Katarina261.8","favedate":"1426427242","iconserver":"7606","iconfarm":8,"contact":0,"friend":0,"family":0},{"nsid":"9134056@N05","username":"John(cardwellpix)","realname":"John ( Cardwellpix )","favedate":"1422707607","iconserver":"2070","iconfarm":3,"contact":0,"friend":0,"family":0},{"nsid":"88565330@N05","username":"ShaDe Photo","realname":"Shawn DeGroot","favedate":"1413254905","iconserver":"2909","iconfarm":3,"contact":0,"friend":0,"family":0},{"nsid":"47490120@N02","username":"Petya Fairy92","realname":"","favedate":"1412559492","iconserver":"3888","iconfarm":4,"contact":0,"friend":0,"family":0},{"nsid":"91113782@N03","username":"wetsparrow","realname":"","favedate":"1399398006","iconserver":"7353","iconfarm":8,"contact":0,"friend":0,"family":0},{"nsid":"11641964@N06","username":"***Images***","realname":"","favedate":"1399025806","iconserver":"2249","iconfarm":3,"contact":0,"friend":0,"family":0},{"nsid":"52039578@N02","username":"\u029a\u012d\u025e V\u03b1\u0438\u0454ss\u03b1 \u029a\u012d\u025e","realname":"","favedate":"1368461331","iconserver":"7742","iconfarm":8,"contact":0,"friend":0,"family":0},{"nsid":"29973983@N05","username":"Franafricano","realname":"Franafricano","favedate":"1367660566","iconserver":"3667","iconfarm":4,"contact":0,"friend":0,"family":0}],"id":"480660200","secret":"9e64073578","server":"210","farm":1,"page":1,"pages":2,"perpage":10,"total":"20"},"stat":"ok"}