{"photo":{"person":[{"nsid":"128091419@N08","username":"fil_yevko","realname":"AUTOBAHN3 Y. Filipp","favedate":"1427093223","iconserver":"8771","iconfarm":9,"contact":0,"friend":0,"family":0},{"nsid":"61943744@N00","username":"twistedonion.com","realname":"Roger Walsh","favedate":"1406413389","iconserver":"7247","iconfarm":8,"contact":0,"friend":0,"family":0},{"nsid":"109775248@N03","username":"padraig thornton","realname":"Padraig Thornton","favedate":"1405627202","iconserver":"7379","iconfarm":8,"contact":0,"friend":0,"family":0},{"nsid":"51925140@N05","username":"fabio lf petry","realname":"","favedate":"1404651291","iconserver":"378","iconfarm":1,"contact":0,"friend":0,"family":0},{"nsid":"112227033@N02","username":"aupma","realname":"","favedate":"1401980057","iconserver":"0","iconfarm":0,"contact":0,"friend":0,"family":0},{"nsid":"124201297@N04","username":"adriaanmgouws","realname":"adriaan gouws","favedate":"1401292017","iconserver":"0","iconfarm":0,"contact":0,"friend":0,"family":0},{"nsid":"10528243@N03","username":"sohanfaisal","realname":"","favedate":"1400593373","iconserver":"0","iconfarm":0,"contact":0,"friend":0,"family":0},{"nsid":"122374733@N07","username":"sandyutke","realname":"Sandy Utke","favedate":"1398362598","iconserver":"7325","iconfarm":8,"contact":0,"friend":0,"family":0},{"nsid":"43682337@N06","username":"Claudia K\u00fcnkel","realname":"","favedate":"1398360866","iconserver":"7295","iconfarm":8,"contact":0,"friend":0,"family":0},{"nsid":"88815971@N03","username":"Starledi","realname":"","favedate":"1398005542","iconserver":"0","iconfarm":0,"contact":0,"friend":0,"family":0}],"id":"6877123399","secret":"ed72a90b51","server":"7059","farm":8,"page":1,"pages":3,"perpage":10,"total":"24"},"stat":"ok"}