{"photo":{"person":[{"nsid":"77869577@N03","username":"{PictureWorld}","realname":"","favedate":"1433566636","iconserver":"5596","iconfarm":6,"contact":0,"friend":0,"family":0},{"nsid":"130830376@N03","username":"colin.reys","realname":"colin Reys","favedate":"1431121300","iconserver":"8617","iconfarm":9,"contact":0,"friend":0,"family":0},{"nsid":"8243421@N07","username":"jovimeca","realname":"","favedate":"1422065751","iconserver":"3712","iconfarm":4,"contact":0,"friend":0,"family":0},{"nsid":"43127205@N02","username":"aaronuws","realname":"","favedate":"1421041147","iconserver":"7619","iconfarm":8,"contact":0,"friend":0,"family":0},{"nsid":"127298176@N04","username":"01dgn","realname":"Adem Dogan","favedate":"1420797866","iconserver":"3690","iconfarm":4,"contact":0,"friend":0,"family":0},{"nsid":"124518558@N04","username":"konstantinosskg1","realname":"konstantinos savvidis","favedate":"1417009857","iconserver":"3871","iconfarm":4,"contact":0,"friend":0,"family":0},{"nsid":"125635047@N08","username":"fmihayi","realname":"F Mihai","favedate":"1416988120","iconserver":"8674","iconfarm":9,"contact":0,"friend":0,"family":0},{"nsid":"96143409@N07","username":"isreynaamazona","realname":"MARIA ROMERO","favedate":"1416505444","iconserver":"0","iconfarm":0,"contact":0,"friend":0,"family":0},{"nsid":"65945148@N07","username":"TOMAS ERNESTO MUNOZ","realname":"TOMAS ERNESTO MUNOZ","favedate":"1416049662","iconserver":"8805","iconfarm":9,"contact":0,"friend":0,"family":0},{"nsid":"127881089@N06","username":"nathaliehelias","realname":"Nathalie HELIAS","favedate":"1414498127","iconserver":"7654","iconfarm":8,"contact":0,"friend":0,"family":0}],"id":"13968124751","secret":"a83ddc42e0","server":"2910","farm":3,"page":1,"pages":25,"perpage":10,"total":"241"},"stat":"ok"}