{"photo":{"person":[{"nsid":"86758382@N05","username":"Shannon Lee Castor","realname":"Shannon Castor","favedate":"1403587204","iconserver":"5160","iconfarm":6,"contact":0,"friend":0,"family":0},{"nsid":"41285927@N07","username":"lured_by_Light","realname":"Gabe","favedate":"1355663554","iconserver":"3810","iconfarm":4,"contact":0,"friend":0,"family":0},{"nsid":"35365288@N05","username":"\u2665DonnazMagicalPix\u2665","realname":"","favedate":"1354452324","iconserver":"3741","iconfarm":4,"contact":0,"friend":0,"family":0},{"nsid":"67162836@N03","username":"LayDownTheLaw","realname":"","favedate":"1354299322","iconserver":"8472","iconfarm":9,"contact":0,"friend":0,"family":0},{"nsid":"44348745@N07","username":"seven of 9","realname":"Sharrie Faulkner","favedate":"1354113226","iconserver":"7369","iconfarm":8,"contact":0,"friend":0,"family":0},{"nsid":"55376940@N08","username":"bonwaf....\u043c \u2022 \u0438","realname":"abonawaf","favedate":"1353968774","iconserver":"4032","iconfarm":5,"contact":0,"friend":0,"family":0},{"nsid":"51100479@N08","username":"karlaspence35","realname":"Karla  Spence","favedate":"1353558467","iconserver":"8153","iconfarm":9,"contact":0,"friend":0,"family":0},{"nsid":"14833125@N02","username":"Sea Moon","realname":"Grover Schrayer","favedate":"1353532468","iconserver":"3673","iconfarm":4,"contact":0,"friend":0,"family":0},{"nsid":"63109709@N03","username":"eldeeb2011","realname":"","favedate":"1353531564","iconserver":"3662","iconfarm":4,"contact":0,"friend":0,"family":0},{"nsid":"8040718@N07","username":"io_nicola","realname":"Nicola","favedate":"1353518682","iconserver":"3677","iconfarm":4,"contact":0,"friend":0,"family":0}],"id":"8203781414","secret":"aab14f3d40","server":"8480","farm":9,"page":1,"pages":3,"perpage":10,"total":"24"},"stat":"ok"}