{"photo":{"person":[{"nsid":"127548296@N02","username":"nicolas_plaire","realname":"Nicolas Plaire","favedate":"1420472727","iconserver":"3940","iconfarm":4,"contact":0,"friend":0,"family":0},{"nsid":"89921324@N00","username":"roundtheplace","realname":"chris round","favedate":"1321990688","iconserver":"5214","iconfarm":6,"contact":0,"friend":0,"family":0},{"nsid":"30577024@N04","username":"m.r. nelson","realname":"","favedate":"1321682780","iconserver":"335","iconfarm":1,"contact":0,"friend":0,"family":0},{"nsid":"32676458@N08","username":"my point of view (Chi Yuen)","realname":"Arthur  Chan","favedate":"1321583324","iconserver":"8013","iconfarm":9,"contact":0,"friend":0,"family":0},{"nsid":"73055202@N00","username":"disposable photography","realname":"jan","favedate":"1321575445","iconserver":"3751","iconfarm":4,"contact":0,"friend":0,"family":0},{"nsid":"74007366@N00","username":"georgia n california","realname":"georgia smith","favedate":"1321506612","iconserver":"2861","iconfarm":3,"contact":0,"friend":0,"family":0},{"nsid":"55358522@N06","username":"Niks beleefd maar gelukkig heb ik de foto's nog","realname":"Paul van Eik","favedate":"1321480816","iconserver":"7144","iconfarm":8,"contact":0,"friend":0,"family":0},{"nsid":"31477151@N04","username":"Jim Hart (*)","realname":"Jim Hart","favedate":"1321411489","iconserver":"3080","iconfarm":4,"contact":0,"friend":0,"family":0},{"nsid":"24539340@N07","username":"mellis61","realname":"Michael Ellis","favedate":"1321410535","iconserver":"2934","iconfarm":3,"contact":0,"friend":0,"family":0},{"nsid":"27615993@N03","username":"brew4ice","realname":"Noel Brewer","favedate":"1321399631","iconserver":"7332","iconfarm":8,"contact":0,"friend":0,"family":0}],"id":"6348459862","secret":"d32c2c47ae","server":"6037","farm":7,"page":1,"pages":2,"perpage":10,"total":"14"},"stat":"ok"}