{"photo":{"person":[{"nsid":"127644447@N05","username":"orijno_01","realname":"jean noel","favedate":"1436704259","iconserver":"0","iconfarm":0,"contact":0,"friend":0,"family":0},{"nsid":"125835949@N06","username":"joellypolly","realname":"joel cartmell","favedate":"1423336417","iconserver":"7340","iconfarm":8,"contact":0,"friend":0,"family":0},{"nsid":"129643284@N04","username":"damiandelcampo686","realname":"Damian del campo","favedate":"1422499155","iconserver":"0","iconfarm":0,"contact":0,"friend":0,"family":0},{"nsid":"40316210@N05","username":"Jaguar Felix","realname":"","favedate":"1413316649","iconserver":"2947","iconfarm":3,"contact":0,"friend":0,"family":0},{"nsid":"9098988@N02","username":"Semilla Luz","realname":"Semilla Luz","favedate":"1390711263","iconserver":"8140","iconfarm":9,"contact":0,"friend":0,"family":0},{"nsid":"99542093@N03","username":"pinkbruise","realname":"Renata","favedate":"1382719547","iconserver":"5474","iconfarm":6,"contact":0,"friend":0,"family":0},{"nsid":"8872809@N08","username":"davidsphotoz","realname":"David Heitholt","favedate":"1323728676","iconserver":"3154","iconfarm":4,"contact":0,"friend":0,"family":0},{"nsid":"25680421@N02","username":"ivanabrego","realname":"Iv\u00e1n Abrego","favedate":"1318785918","iconserver":"7331","iconfarm":8,"contact":0,"friend":0,"family":0},{"nsid":"61261301@N06","username":"Bassel Abi Jummaa","realname":"Bassel Abi Jummaa","favedate":"1318340480","iconserver":"5252","iconfarm":6,"contact":0,"friend":0,"family":0},{"nsid":"11015985@N02","username":"Claudio Marcon","realname":"","favedate":"1318128626","iconserver":"8690","iconfarm":9,"contact":0,"friend":0,"family":0}],"id":"6211709514","secret":"3d40da622d","server":"6103","farm":7,"page":1,"pages":2,"perpage":10,"total":"18"},"stat":"ok"}