{"photo":{"person":[{"nsid":"108148566@N05","username":"fsphotos78","realname":"f s","favedate":"1398339867","iconserver":"0","iconfarm":0,"contact":0,"friend":0,"family":0},{"nsid":"95960508@N03","username":"cat and milk","realname":"lei jin","favedate":"1389599130","iconserver":"0","iconfarm":0,"contact":0,"friend":0,"family":0},{"nsid":"37515566@N00","username":"James Wellman Photography","realname":"James Wellman","favedate":"1383573387","iconserver":"8797","iconfarm":9,"contact":0,"friend":0,"family":0},{"nsid":"89944196@N08","username":"Sylvain Abdoul Photographe","realname":"","favedate":"1383471166","iconserver":"7416","iconfarm":8,"contact":0,"friend":0,"family":0},{"nsid":"46691600@N00","username":"Psoup216","realname":"","favedate":"1382222631","iconserver":"7350","iconfarm":8,"contact":0,"friend":0,"family":0},{"nsid":"61676919@N05","username":"Trains In Tasmania","realname":"","favedate":"1381029406","iconserver":"5067","iconfarm":6,"contact":0,"friend":0,"family":0},{"nsid":"68062477@N03","username":"vikramav","realname":"Vik V","favedate":"1358045702","iconserver":"8467","iconfarm":9,"contact":0,"friend":0,"family":0},{"nsid":"81102044@N03","username":"evanhilton12","realname":"","favedate":"1356839053","iconserver":"5561","iconfarm":6,"contact":0,"friend":0,"family":0},{"nsid":"91277368@N06","username":"ian.el.gringo.shuya","realname":"","favedate":"1355901319","iconserver":"8206","iconfarm":9,"contact":0,"friend":0,"family":0},{"nsid":"55389352@N07","username":"argeswara","realname":"thoersi argeswara","favedate":"1355890343","iconserver":"7458","iconfarm":8,"contact":0,"friend":0,"family":0}],"id":"8168833562","secret":"8939afa098","server":"8340","farm":9,"page":1,"pages":2,"perpage":10,"total":"17"},"stat":"ok"}