{"photo":{"person":[{"nsid":"93671796@N04","username":">Ace<","realname":"Mirko Ardori","favedate":"1434298708","iconserver":"8626","iconfarm":9,"contact":0,"friend":0,"family":0},{"nsid":"91495461@N07","username":"Catalina Ieraci","realname":"C","favedate":"1424494605","iconserver":"8690","iconfarm":9,"contact":0,"friend":0,"family":0},{"nsid":"129864388@N06","username":"jliabrmmer","realname":"","favedate":"1424210937","iconserver":"8589","iconfarm":9,"contact":0,"friend":0,"family":0},{"nsid":"125992325@N06","username":"duarte_cesar","realname":"Carlos Cesar Duarte","favedate":"1421021708","iconserver":"7465","iconfarm":8,"contact":0,"friend":0,"family":0},{"nsid":"34019995@N08","username":"maria georgiadou photography","realname":"maria georgiadou","favedate":"1411212561","iconserver":"3761","iconfarm":4,"contact":0,"friend":0,"family":0},{"nsid":"38469891@N07","username":"Alberto_2010","realname":"","favedate":"1409444796","iconserver":"8509","iconfarm":9,"contact":0,"friend":0,"family":0},{"nsid":"52810589@N08","username":"Bruno DINELLI","realname":"Bruno Gabriel Dinelli Neto","favedate":"1408399668","iconserver":"5059","iconfarm":6,"contact":0,"friend":0,"family":0},{"nsid":"104173550@N03","username":"aealmeidatutiya","realname":"Ana esnita Almeida tutiya","favedate":"1404266086","iconserver":"0","iconfarm":0,"contact":0,"friend":0,"family":0},{"nsid":"76239503@N03","username":"BIGSIR'S","realname":"\u65b9\u61f7 \u8a31","favedate":"1403448317","iconserver":"7143","iconfarm":8,"contact":0,"friend":0,"family":0},{"nsid":"92284803@N00","username":"bior","realname":"","favedate":"1403069686","iconserver":"8730","iconfarm":9,"contact":0,"friend":0,"family":0}],"id":"11078485186","secret":"1073cf4fec","server":"2838","farm":3,"page":1,"pages":7,"perpage":10,"total":"69"},"stat":"ok"}