{"photo":{"person":[{"nsid":"59545354@N08","username":"Narkissos.","realname":"Erko Ever","favedate":"1391647021","iconserver":"8265","iconfarm":9,"contact":0,"friend":0,"family":0},{"nsid":"51440317@N04","username":"James S Patterson","realname":"James S Patterson","favedate":"1325116145","iconserver":"7354","iconfarm":8,"contact":0,"friend":0,"family":0},{"nsid":"57329316@N06","username":"jcliehn","realname":"Jean-Claude Liehn","favedate":"1313643140","iconserver":"8407","iconfarm":9,"contact":0,"friend":0,"family":0},{"nsid":"55939867@N00","username":"Irons International","realname":"Tony Irons","favedate":"1312630666","iconserver":"7285","iconfarm":8,"contact":0,"friend":0,"family":0},{"nsid":"58999760@N07","username":"Georg Kroemer","realname":"Georg Kroemer","favedate":"1311685411","iconserver":"7484","iconfarm":8,"contact":0,"friend":0,"family":0},{"nsid":"34609329@N08","username":"Fotoartdiary (jackynana)","realname":"Mikk","favedate":"1311148489","iconserver":"7160","iconfarm":8,"contact":0,"friend":0,"family":0},{"nsid":"39087262@N02","username":"**Geoff*","realname":"Geoff","favedate":"1310934552","iconserver":"2666","iconfarm":3,"contact":0,"friend":0,"family":0},{"nsid":"86384578@N00","username":"Rowan D.","realname":"Rowan Donnell","favedate":"1310360632","iconserver":"7776","iconfarm":8,"contact":0,"friend":0,"family":0},{"nsid":"51581060@N00","username":"I'm from Caravaggio","realname":"","favedate":"1310227912","iconserver":"3777","iconfarm":4,"contact":0,"friend":0,"family":0},{"nsid":"54832531@N00","username":"Cynthia E. Wood","realname":"Cynthia Wood","favedate":"1309366339","iconserver":"4036","iconfarm":5,"contact":0,"friend":0,"family":0}],"id":"5806866240","secret":"2cbcc371b4","server":"3474","farm":4,"page":1,"pages":5,"perpage":10,"total":"50"},"stat":"ok"}