{"photo":{"person":[{"nsid":"27608669@N07","username":"patriziaspatafora","realname":"Patrizia Spatafora","favedate":"1430164798","iconserver":"5443","iconfarm":6,"contact":0,"friend":0,"family":0},{"nsid":"126809353@N08","username":"irenebottino","realname":"Irene Bottino","favedate":"1430067718","iconserver":"3906","iconfarm":4,"contact":0,"friend":0,"family":0},{"nsid":"66649794@N08","username":"el zopilote","realname":"Jorge Guadalupe Liz\u00e1rraga","favedate":"1430044478","iconserver":"8882","iconfarm":9,"contact":0,"friend":0,"family":0},{"nsid":"53656757@N03","username":"Waheed Akhtar Photography","realname":"Waheed Akhtar","favedate":"1430033692","iconserver":"7491","iconfarm":8,"contact":0,"friend":0,"family":0},{"nsid":"87009119@N00","username":"Alcosinus \u00a9 \uf8ff ON-OFF \uf8ff","realname":"","favedate":"1430021374","iconserver":"3900","iconfarm":4,"contact":0,"friend":0,"family":0},{"nsid":"18583713@N06","username":"josefontheroad","realname":"","favedate":"1429996261","iconserver":"3203","iconfarm":4,"contact":0,"friend":0,"family":0},{"nsid":"36536016@N04","username":"Style: Raw","realname":"Trevor Cummings","favedate":"1429992015","iconserver":"7502","iconfarm":8,"contact":0,"friend":0,"family":0},{"nsid":"63919034@N04","username":"Patrick Neiens","realname":"Patrick Neiens","favedate":"1429990443","iconserver":"7310","iconfarm":8,"contact":0,"friend":0,"family":0},{"nsid":"126327605@N07","username":"Flo.from.Suburbia","realname":"","favedate":"1429973125","iconserver":"7772","iconfarm":8,"contact":0,"friend":0,"family":0},{"nsid":"131551004@N02","username":"Michelle Tuttle","realname":"Michelle Tuttle","favedate":"1429969656","iconserver":"5442","iconfarm":6,"contact":0,"friend":0,"family":0}],"id":"16643829953","secret":"4a6da2f4aa","server":"7713","farm":8,"page":1,"pages":2,"perpage":10,"total":"16"},"stat":"ok"}