{"photo":{"person":[{"nsid":"127387103@N06","username":"Maria B. Andrez","realname":"Maria Andrez","favedate":"1413448135","iconserver":"0","iconfarm":0,"contact":0,"friend":0,"family":0},{"nsid":"114963142@N02","username":"Streper","realname":"","favedate":"1410107544","iconserver":"287","iconfarm":1,"contact":0,"friend":0,"family":0},{"nsid":"123409951@N03","username":"vincentigiuliana","realname":"","favedate":"1398948547","iconserver":"2911","iconfarm":3,"contact":0,"friend":0,"family":0},{"nsid":"11847917@N00","username":"daile","realname":"daile alexander","favedate":"1390627198","iconserver":"3723","iconfarm":4,"contact":0,"friend":0,"family":0},{"nsid":"91795305@N08","username":"Slya Cabret","realname":"","favedate":"1383562793","iconserver":"5528","iconfarm":6,"contact":0,"friend":0,"family":0},{"nsid":"92860116@N08","username":"Rosa Belarte","realname":"Rosa Belarte","favedate":"1383000406","iconserver":"2857","iconfarm":3,"contact":0,"friend":0,"family":0},{"nsid":"72399893@N03","username":"ELENA VALENZUELA (www.lafotoreta.com)","realname":"ELENA VALENZUELA","favedate":"1382912271","iconserver":"3868","iconfarm":4,"contact":0,"friend":0,"family":0},{"nsid":"57379704@N08","username":"LauraE.","realname":"","favedate":"1382895478","iconserver":"3852","iconfarm":4,"contact":0,"friend":0,"family":0},{"nsid":"64504673@N08","username":"fionamaya (ana)","realname":"","favedate":"1382858113","iconserver":"3954","iconfarm":4,"contact":0,"friend":0,"family":0},{"nsid":"66378844@N06","username":"pierfrancescacasadio","realname":"francy \uf8ff","favedate":"1382598941","iconserver":"3844","iconfarm":4,"contact":0,"friend":0,"family":0}],"id":"10428725914","secret":"65e8f3da59","server":"7389","farm":8,"page":1,"pages":3,"perpage":10,"total":"22"},"stat":"ok"}