{"photo":{"person":[{"nsid":"82835551@N00","username":"Yun Ping","realname":"","favedate":"1432540281","iconserver":"0","iconfarm":0,"contact":0,"friend":0,"family":0},{"nsid":"124043564@N08","username":"Flavia_M","realname":"FlaviaCelly","favedate":"1398545935","iconserver":"8895","iconfarm":9,"contact":0,"friend":0,"family":0},{"nsid":"114106356@N08","username":"FlaviaCelly_M","realname":"FlaviaCelly","favedate":"1398012598","iconserver":"5545","iconfarm":6,"contact":0,"friend":0,"family":0},{"nsid":"65761506@N05","username":"star1214","realname":"","favedate":"1397804129","iconserver":"5493","iconfarm":6,"contact":0,"friend":0,"family":0},{"nsid":"97209723@N02","username":"88_as_you_see_","realname":"\uc7ac\uc131 \uc774","favedate":"1397553493","iconserver":"3847","iconfarm":4,"contact":0,"friend":0,"family":0},{"nsid":"10470578@N03","username":"Erika Echevarria","realname":"","favedate":"1397388614","iconserver":"2884","iconfarm":3,"contact":0,"friend":0,"family":0},{"nsid":"25711806@N03","username":"daniel.virella","realname":"Daniel Virella","favedate":"1396484537","iconserver":"2893","iconfarm":3,"contact":0,"friend":0,"family":0},{"nsid":"50739201@N07","username":"Dalton54","realname":"Steve Halliday","favedate":"1396372082","iconserver":"4009","iconfarm":5,"contact":0,"friend":0,"family":0},{"nsid":"63960111@N03","username":"curapajznik","realname":"Petr Klingr","favedate":"1396114238","iconserver":"7340","iconfarm":8,"contact":0,"friend":0,"family":0},{"nsid":"73433131@N05","username":"Solent101","realname":"","favedate":"1395955711","iconserver":"5607","iconfarm":6,"contact":0,"friend":0,"family":0}],"id":"12178940185","secret":"3af4ea8647","server":"7399","farm":8,"page":1,"pages":13,"perpage":10,"total":"128"},"stat":"ok"}