{"photo":{"person":[{"nsid":"130789225@N04","username":"H74k(offline - for some time)","realname":"","favedate":"1432934067","iconserver":"7600","iconfarm":8,"contact":0,"friend":0,"family":0},{"nsid":"38444209@N07","username":"Madi_no graphics in your comments","realname":"","favedate":"1432915165","iconserver":"2452","iconfarm":3,"contact":0,"friend":0,"family":0},{"nsid":"40610636@N03","username":"Reina Smallenbroek","realname":"Reina","favedate":"1431277900","iconserver":"2946","iconfarm":3,"contact":0,"friend":0,"family":0},{"nsid":"111871926@N06","username":"tormod_l (Back in Berkeley)","realname":"Tormod K. Lunde","favedate":"1427065410","iconserver":"3699","iconfarm":4,"contact":0,"friend":0,"family":0},{"nsid":"129742675@N03","username":"amelia_may_hamilton","realname":"amelia hamilton","favedate":"1425855360","iconserver":"7501","iconfarm":8,"contact":0,"friend":0,"family":0},{"nsid":"60010713@N05","username":"Balamutas","realname":"Balamutas","favedate":"1425573797","iconserver":"5471","iconfarm":6,"contact":0,"friend":0,"family":0},{"nsid":"57764026@N02","username":"hectordotlee","realname":"Hector Lee","favedate":"1425452872","iconserver":"7556","iconfarm":8,"contact":0,"friend":0,"family":0},{"nsid":"99133292@N04","username":"harem kakil","realname":"harem kakil","favedate":"1425123437","iconserver":"5480","iconfarm":6,"contact":0,"friend":0,"family":0},{"nsid":"64285430@N04","username":"Linda . A","realname":"","favedate":"1424890170","iconserver":"5494","iconfarm":6,"contact":0,"friend":0,"family":0},{"nsid":"130486330@N05","username":"Christian Requena","realname":"Neogeepic\u2122","favedate":"1424821125","iconserver":"8563","iconfarm":9,"contact":0,"friend":0,"family":0}],"id":"16601784616","secret":"9c4aab133d","server":"8679","farm":9,"page":1,"pages":4,"perpage":10,"total":"31"},"stat":"ok"}