{"photo":{"person":[{"nsid":"94784017@N02","username":"Ms.Wanderlust","realname":"","favedate":"1434330633","iconserver":"8748","iconfarm":9,"contact":0,"friend":0,"family":0},{"nsid":"9183493@N04","username":"@ansomarry","realname":"","favedate":"1414897474","iconserver":"8189","iconfarm":9,"contact":0,"friend":0,"family":0},{"nsid":"77368187@N00","username":"mariza4u","realname":"","favedate":"1414895999","iconserver":"3816","iconfarm":4,"contact":0,"friend":0,"family":0},{"nsid":"125287352@N07","username":"harvey_jose","realname":"Jos\u00e9 Harvey","favedate":"1414202398","iconserver":"3873","iconfarm":4,"contact":0,"friend":0,"family":0},{"nsid":"34726560@N00","username":"Steve-h","realname":"","favedate":"1414010972","iconserver":"3665","iconfarm":4,"contact":0,"friend":0,"family":0},{"nsid":"127116937@N02","username":"Alex Szymanek","realname":"Alex Szymanek","favedate":"1414006954","iconserver":"3954","iconfarm":4,"contact":0,"friend":0,"family":0},{"nsid":"126770428@N05","username":"Amjad Iqbal Syed","realname":"Amjad Iqbal Syed","favedate":"1413432492","iconserver":"3910","iconfarm":4,"contact":0,"friend":0,"family":0},{"nsid":"124836610@N02","username":"Tjitjak Hitam","realname":"Winny de Meij","favedate":"1413266388","iconserver":"3668","iconfarm":4,"contact":0,"friend":0,"family":0},{"nsid":"121643735@N06","username":"pauloagranja","realname":"Paulo Granja","favedate":"1413139295","iconserver":"7455","iconfarm":8,"contact":0,"friend":0,"family":0},{"nsid":"29779754@N06","username":"Alain Koninckx","realname":"Alain Koninckx","favedate":"1413114422","iconserver":"8646","iconfarm":9,"contact":0,"friend":0,"family":0}],"id":"15440600795","secret":"ca22c1780c","server":"2950","farm":3,"page":1,"pages":4,"perpage":10,"total":"32"},"stat":"ok"}