{"photo":{"person":[{"nsid":"17685557@N02","username":"Xocoatz\u00edn","realname":"","favedate":"1435517583","iconserver":"503","iconfarm":1,"contact":0,"friend":0,"family":0},{"nsid":"130656268@N05","username":"py.krywicki","realname":"Pierre-Yves Krywicki","favedate":"1426808352","iconserver":"8577","iconfarm":9,"contact":0,"friend":0,"family":0},{"nsid":"91835791@N02","username":"ocDeluxe","realname":"Scott Griggs","favedate":"1426307064","iconserver":"8698","iconfarm":9,"contact":0,"friend":0,"family":0},{"nsid":"57761648@N02","username":"David Kracht","realname":"David Kracht","favedate":"1388756102","iconserver":"7415","iconfarm":8,"contact":0,"friend":0,"family":0},{"nsid":"93311023@N04","username":"iLaurens","realname":"","favedate":"1379357269","iconserver":"0","iconfarm":0,"contact":0,"friend":0,"family":0},{"nsid":"87272508@N00","username":"hanan bercu","realname":"Hanan Bercu","favedate":"1372940819","iconserver":"2043","iconfarm":3,"contact":0,"friend":0,"family":0},{"nsid":"74112673@N00","username":"!efatima","realname":"Fatima","favedate":"1366939806","iconserver":"3907","iconfarm":4,"contact":0,"friend":0,"family":0},{"nsid":"91459187@N06","username":"ezzie13","realname":"","favedate":"1366927097","iconserver":"0","iconfarm":0,"contact":0,"friend":0,"family":0},{"nsid":"34062993@N03","username":"Atenhaus","realname":"Joshua","favedate":"1366914613","iconserver":"4095","iconfarm":5,"contact":0,"friend":0,"family":0},{"nsid":"82243104@N02","username":"ZacCollett","realname":"","favedate":"1366665239","iconserver":"8375","iconfarm":9,"contact":0,"friend":0,"family":0}],"id":"8665738898","secret":"5f0a24ec26","server":"8242","farm":9,"page":1,"pages":5,"perpage":10,"total":"46"},"stat":"ok"}