{"photo":{"person":[{"nsid":"56034265@N03","username":"Sameh Alawi - Alawi","realname":"","favedate":"1418012162","iconserver":"7622","iconfarm":8,"contact":0,"friend":0,"family":0},{"nsid":"11058465@N08","username":"SweedeSpeed","realname":"","favedate":"1417317600","iconserver":"8187","iconfarm":9,"contact":0,"friend":0,"family":0},{"nsid":"56788082@N07","username":"Ricardo Gomez A Very busy","realname":"","favedate":"1417097067","iconserver":"3865","iconfarm":4,"contact":0,"friend":0,"family":0},{"nsid":"115188198@N03","username":"augustynbatko","realname":"Augustyn Batko","favedate":"1417037427","iconserver":"7356","iconfarm":8,"contact":0,"friend":0,"family":0},{"nsid":"99781851@N07","username":"Stevie 66","realname":"","favedate":"1416862286","iconserver":"299","iconfarm":1,"contact":0,"friend":0,"family":0},{"nsid":"97178374@N07","username":"Zyla, K. alone","realname":"Krzysztof \u017by\u0142a","favedate":"1416822170","iconserver":"3757","iconfarm":4,"contact":0,"friend":0,"family":0},{"nsid":"88427432@N00","username":"Ciddi Biri","realname":"Ciddi iyi1i","favedate":"1416770374","iconserver":"5568","iconfarm":6,"contact":0,"friend":0,"family":0},{"nsid":"22533627@N05","username":"Peters nik","realname":"Peters Nik","favedate":"1416769122","iconserver":"2402","iconfarm":3,"contact":0,"friend":0,"family":0},{"nsid":"110344938@N06","username":"raphaljung","realname":"R. photo","favedate":"1416753304","iconserver":"3804","iconfarm":4,"contact":0,"friend":0,"family":0},{"nsid":"71938331@N03","username":"StefML","realname":"Stefan Mueller","favedate":"1416747916","iconserver":"7024","iconfarm":8,"contact":0,"friend":0,"family":0}],"id":"15667402490","secret":"5cac2256fe","server":"7466","farm":8,"page":1,"pages":2,"perpage":10,"total":"18"},"stat":"ok"}