{"photo":{"person":[{"nsid":"98037277@N05","username":"alonsosonia","realname":"sonia alonso","favedate":"1406998428","iconserver":"7686","iconfarm":8,"contact":0,"friend":0,"family":0},{"nsid":"107560933@N04","username":"emiliakrolik","realname":"","favedate":"1398010786","iconserver":"2831","iconfarm":3,"contact":0,"friend":0,"family":0},{"nsid":"44982902@N05","username":"Nikita_70","realname":"","favedate":"1397056560","iconserver":"6001","iconfarm":7,"contact":0,"friend":0,"family":0},{"nsid":"15382573@N06","username":"Micha\u0142 Koralewski - mobile photography","realname":"Micha\u0142 Koralewski","favedate":"1396351957","iconserver":"8128","iconfarm":9,"contact":0,"friend":0,"family":0},{"nsid":"97955043@N02","username":"Isabel Insua","realname":"Isabel Insua Barca","favedate":"1396209776","iconserver":"7554","iconfarm":8,"contact":0,"friend":0,"family":0},{"nsid":"45844497@N02","username":"phongkim","realname":"Phong Kim","favedate":"1395841536","iconserver":"7341","iconfarm":8,"contact":0,"friend":0,"family":0},{"nsid":"95041647@N06","username":"Zo_12","realname":"Antoine Cazot","favedate":"1395306631","iconserver":"8099","iconfarm":9,"contact":0,"friend":0,"family":0},{"nsid":"105453294@N04","username":"iidacamera","realname":"toru iida","favedate":"1395298262","iconserver":"2913","iconfarm":3,"contact":0,"friend":0,"family":0},{"nsid":"21909438@N04","username":"barefootcinderella","realname":"its Tekby","favedate":"1395201565","iconserver":"2884","iconfarm":3,"contact":0,"friend":0,"family":0},{"nsid":"36334770@N07","username":"Dawn J.","realname":"","favedate":"1395175520","iconserver":"7557","iconfarm":8,"contact":0,"friend":0,"family":0}],"id":"13215707554","secret":"669f8792e2","server":"3754","farm":4,"page":1,"pages":5,"perpage":10,"total":"44"},"stat":"ok"}