{"photo":{"person":[{"nsid":"104073463@N04","username":"v220266","realname":"\u8a31 \u8a60\u5a55","favedate":"1383741370","iconserver":"3676","iconfarm":4,"contact":0,"friend":0,"family":0},{"nsid":"62914653@N04","username":"Lenochka55","realname":"Elena","favedate":"1331346563","iconserver":"2201","iconfarm":3,"contact":0,"friend":0,"family":0},{"nsid":"24081351@N04","username":"dundrodkeith","realname":"Keith Campbell","favedate":"1314034997","iconserver":"2731","iconfarm":3,"contact":0,"friend":0,"family":0},{"nsid":"36732379@N05","username":"LucasAeon","realname":"Lucas","favedate":"1313484836","iconserver":"3933","iconfarm":4,"contact":0,"friend":0,"family":0},{"nsid":"8366733@N05","username":"mandalaybus","realname":"","favedate":"1301172318","iconserver":"2857","iconfarm":3,"contact":0,"friend":0,"family":0},{"nsid":"58235531@N07","username":"thodor1953","realname":"VASILE TEODOR","favedate":"1299334155","iconserver":"0","iconfarm":0,"contact":0,"friend":0,"family":0},{"nsid":"47061292@N02","username":"Farshad Sanaee The Apple","realname":"Farshad Sanaee","favedate":"1294625509","iconserver":"7347","iconfarm":8,"contact":0,"friend":0,"family":0},{"nsid":"39793857@N07","username":"B\u00e9la Bernand","realname":"Bela Bernand","favedate":"1292962332","iconserver":"4129","iconfarm":5,"contact":0,"friend":0,"family":0},{"nsid":"35721584@N03","username":"josephowen","realname":"Joe Pickard","favedate":"1292921726","iconserver":"7381","iconfarm":8,"contact":0,"friend":0,"family":0},{"nsid":"21500285@N05","username":"Ntcrwler - http:\/\/www.ipernity.com\/home\/290887","realname":"","favedate":"1292747876","iconserver":"5338","iconfarm":6,"contact":0,"friend":0,"family":0}],"id":"5253907728","secret":"7d7bbc3c83","server":"5084","farm":6,"page":1,"pages":5,"perpage":10,"total":"48"},"stat":"ok"}