{"photo":{"person":[{"nsid":"99074278@N06","username":"http:\/\/palaciodepinturas.blogspot.com.es","realname":"Enrique Farelo","favedate":"1428950280","iconserver":"5568","iconfarm":6,"contact":0,"friend":0,"family":0},{"nsid":"48728550@N05","username":"Fred Mi.Femme.Mi.Fouine","realname":"Frederique Triffaux","favedate":"1428822002","iconserver":"7570","iconfarm":8,"contact":0,"friend":0,"family":0},{"nsid":"35924296@N06","username":"t.rex7000","realname":"Tony","favedate":"1425409805","iconserver":"3660","iconfarm":4,"contact":0,"friend":0,"family":0},{"nsid":"51073483@N04","username":"APMCK","realname":"Alex McKown","favedate":"1416154431","iconserver":"0","iconfarm":0,"contact":0,"friend":0,"family":0},{"nsid":"114581530@N03","username":"Librain D Ciso","realname":"Jos\u00e9 Manuel Rocamora","favedate":"1415691841","iconserver":"3764","iconfarm":4,"contact":0,"friend":0,"family":0},{"nsid":"126590573@N03","username":"riscotigaiga","realname":"Guajara","favedate":"1415574114","iconserver":"5581","iconfarm":6,"contact":0,"friend":0,"family":0},{"nsid":"124660150@N07","username":"Emmanuel M\u00e9n\u00e9trier","realname":"Emmanuel M\u00e9n\u00e9trier","favedate":"1415569912","iconserver":"3775","iconfarm":4,"contact":0,"friend":0,"family":0},{"nsid":"44308792@N06","username":"tohlfer","realname":"","favedate":"1413432069","iconserver":"3854","iconfarm":4,"contact":0,"friend":0,"family":0},{"nsid":"38296788@N06","username":"gedasst","realname":"","favedate":"1413322539","iconserver":"4022","iconfarm":5,"contact":0,"friend":0,"family":0},{"nsid":"116773909@N03","username":"frodeturer (check albums for themes \/ places)","realname":"","favedate":"1412893431","iconserver":"3853","iconfarm":4,"contact":0,"friend":0,"family":0}],"id":"14530784237","secret":"642ed20ba4","server":"3847","farm":4,"page":1,"pages":6,"perpage":10,"total":"57"},"stat":"ok"}