{"photo":{"person":[{"nsid":"131822856@N05","username":"teddy-pd","realname":"Ted Postdoc","favedate":"1427020428","iconserver":"0","iconfarm":0,"contact":0,"friend":0,"family":0},{"nsid":"115202145@N05","username":"aloversdiscourse","realname":"alovers discourse","favedate":"1413830512","iconserver":"0","iconfarm":0,"contact":0,"friend":0,"family":0},{"nsid":"90899067@N06","username":"\u9673\u4e0d\u7d2f","realname":"Alan Chen","favedate":"1408106234","iconserver":"3915","iconfarm":4,"contact":0,"friend":0,"family":0},{"nsid":"7325601@N02","username":"pmary665","realname":"","favedate":"1403829679","iconserver":"5123","iconfarm":6,"contact":0,"friend":0,"family":0},{"nsid":"97261733@N08","username":"luto2home","realname":"","favedate":"1391802153","iconserver":"0","iconfarm":0,"contact":0,"friend":0,"family":0},{"nsid":"9098988@N02","username":"Semilla Luz","realname":"Semilla Luz","favedate":"1391400677","iconserver":"8140","iconfarm":9,"contact":0,"friend":0,"family":0},{"nsid":"65656067@N00","username":"Michlt","realname":"Michael","favedate":"1390623366","iconserver":"8","iconfarm":1,"contact":0,"friend":0,"family":0},{"nsid":"38903460@N02","username":"Mercucio","realname":"Lope Grajales","favedate":"1390234264","iconserver":"3311","iconfarm":4,"contact":0,"friend":0,"family":0},{"nsid":"108515439@N03","username":"alannisss","realname":"alanna fernandes","favedate":"1389474503","iconserver":"7408","iconfarm":8,"contact":0,"friend":0,"family":0},{"nsid":"111495028@N03","username":"Alba Herrero Abril","realname":"","favedate":"1387987324","iconserver":"8649","iconfarm":9,"contact":0,"friend":0,"family":0}],"id":"6798369802","secret":"31b213919f","server":"7054","farm":8,"page":1,"pages":17,"perpage":10,"total":"167"},"stat":"ok"}