{"photo":{"person":[{"nsid":"125456917@N02","username":"projectweather_hk","realname":"Project Weather Helen","favedate":"1434478784","iconserver":"2923","iconfarm":3,"contact":0,"friend":0,"family":0},{"nsid":"94041665@N06","username":"Pierre Alain2013","realname":"Pierre Alain","favedate":"1413122950","iconserver":"7553","iconfarm":8,"contact":0,"friend":0,"family":0},{"nsid":"31903932@N02","username":"barbabraba","realname":"","favedate":"1412635675","iconserver":"3416","iconfarm":4,"contact":0,"friend":0,"family":0},{"nsid":"98026025@N05","username":"Lorenzma0","realname":"LorenzMao","favedate":"1412088018","iconserver":"7486","iconfarm":8,"contact":0,"friend":0,"family":0},{"nsid":"83608707@N00","username":"@lvee","realname":"Alvee","favedate":"1412057381","iconserver":"441","iconfarm":1,"contact":0,"friend":0,"family":0},{"nsid":"125738196@N03","username":"M.H._Photo","realname":"","favedate":"1406654294","iconserver":"387","iconfarm":1,"contact":0,"friend":0,"family":0},{"nsid":"61091523@N02","username":"Mine_Kar","realname":"Carmine","favedate":"1399925859","iconserver":"5596","iconfarm":6,"contact":0,"friend":0,"family":0},{"nsid":"60289916@N02","username":"RJT11","realname":"","favedate":"1399571214","iconserver":"7325","iconfarm":8,"contact":0,"friend":0,"family":0},{"nsid":"13249895@N08","username":"Tony Borrach","realname":"Tony  Borrach","favedate":"1399396444","iconserver":"2298","iconfarm":3,"contact":0,"friend":0,"family":0},{"nsid":"87009119@N00","username":"Alcosinus \u00a9 \uf8ff ON-OFF \uf8ff","realname":"","favedate":"1398589342","iconserver":"3900","iconfarm":4,"contact":0,"friend":0,"family":0}],"id":"8564534462","secret":"3a99a2b98c","server":"8087","farm":9,"page":1,"pages":7,"perpage":10,"total":"64"},"stat":"ok"}