{"photo":{"person":[{"nsid":"100704194@N05","username":"Carson Schalk Photography","realname":"Carson Schalk","favedate":"1422481563","iconserver":"7389","iconfarm":8,"contact":0,"friend":0,"family":0},{"nsid":"97212291@N08","username":"~# abdulrahman al malki #~","realname":"D7m ~ instagram @d7m_1990","favedate":"1396648255","iconserver":"5488","iconfarm":6,"contact":0,"friend":0,"family":0},{"nsid":"105607457@N03","username":"FaustoDiGoethe","realname":"Fausto Di Goethe","favedate":"1396641891","iconserver":"3681","iconfarm":4,"contact":0,"friend":0,"family":0},{"nsid":"31481416@N06","username":"kranjay","realname":"Andrzej Godlewski","favedate":"1396640805","iconserver":"3163","iconfarm":4,"contact":0,"friend":0,"family":0},{"nsid":"10104446@N08","username":"LocalOzarkian Photography - Ozarks\/ Route 66 Photo","realname":"","favedate":"1396629629","iconserver":"7522","iconfarm":8,"contact":0,"friend":0,"family":0},{"nsid":"99656478@N02","username":"Forat Alawsii","realname":"Forat Alawsi","favedate":"1382551791","iconserver":"7416","iconfarm":8,"contact":0,"friend":0,"family":0},{"nsid":"66714053@N00","username":"moondoggie71","realname":"","favedate":"1370629572","iconserver":"2807","iconfarm":3,"contact":0,"friend":0,"family":0},{"nsid":"93669558@N04","username":"USATraveler2013","realname":"","favedate":"1370596310","iconserver":"0","iconfarm":0,"contact":0,"friend":0,"family":0},{"nsid":"31020569@N06","username":"labormaus_69","realname":"Andrea Jaeckel-Dobschat","favedate":"1370194655","iconserver":"7293","iconfarm":8,"contact":0,"friend":0,"family":0},{"nsid":"73097242@N08","username":"Green Revelation","realname":"","favedate":"1368422204","iconserver":"7315","iconfarm":8,"contact":0,"friend":0,"family":0}],"id":"8713805508","secret":"ddf412da19","server":"8533","farm":9,"page":1,"pages":2,"perpage":10,"total":"11"},"stat":"ok"}