{"photo":{"person":[{"nsid":"77561638@N02","username":"Jean-Michel Leroy","realname":"","favedate":"1424054686","iconserver":"8194","iconfarm":9,"contact":0,"friend":0,"family":0},{"nsid":"8860610@N07","username":"emmanuelsaussier2003","realname":"","favedate":"1372583053","iconserver":"1187","iconfarm":2,"contact":0,"friend":0,"family":0},{"nsid":"25694343@N00","username":"Andreas Helke","realname":"Andreas Helke","favedate":"1324094889","iconserver":"26","iconfarm":1,"contact":0,"friend":0,"family":0},{"nsid":"12784981@N04","username":"Norman-","realname":"Norman Fontana","favedate":"1312947342","iconserver":"8766","iconfarm":9,"contact":0,"friend":0,"family":0},{"nsid":"45568640@N03","username":"EdK.","realname":"Federico Edwinski","favedate":"1295939837","iconserver":"5233","iconfarm":6,"contact":0,"friend":0,"family":0},{"nsid":"55189240@N00","username":"Eva_F11","realname":"","favedate":"1283990288","iconserver":"7173","iconfarm":8,"contact":0,"friend":0,"family":0},{"nsid":"27908747@N02","username":"art Odris","realname":"Odris Ivan Minjarez","favedate":"1283621314","iconserver":"3035","iconfarm":4,"contact":0,"friend":0,"family":0},{"nsid":"32438110@N08","username":"LeandroMonasterio","realname":"","favedate":"1280716588","iconserver":"3060","iconfarm":4,"contact":0,"friend":0,"family":0},{"nsid":"24395958@N07","username":"JuanCh-","realname":"","favedate":"1280328203","iconserver":"2037","iconfarm":3,"contact":0,"friend":0,"family":0},{"nsid":"40430895@N08","username":"Noxces","realname":"Guadalupe","favedate":"1278032490","iconserver":"7131","iconfarm":8,"contact":0,"friend":0,"family":0}],"id":"4687374127","secret":"7a321573b8","server":"4067","farm":5,"page":1,"pages":2,"perpage":10,"total":"14"},"stat":"ok"}