{"photo":{"person":[{"nsid":"42727588@N04","username":"K\u0151szegiZs\u00f3ka","realname":"Zs\u00f3ka K\u0151szegi","favedate":"1435788016","iconserver":"392","iconfarm":1,"contact":0,"friend":0,"family":0},{"nsid":"133031113@N02","username":"trieuyenbinh","realname":"Hoang Trieuyenbinh","favedate":"1435190573","iconserver":"0","iconfarm":0,"contact":0,"friend":0,"family":0},{"nsid":"130514114@N02","username":"schlicht.karin","realname":"Karin Schlicht","favedate":"1434870004","iconserver":"7518","iconfarm":8,"contact":0,"friend":0,"family":0},{"nsid":"132828253@N02","username":"ssuaad45","realname":"suaad Soso","favedate":"1431211394","iconserver":"0","iconfarm":0,"contact":0,"friend":0,"family":0},{"nsid":"53948218@N02","username":"francesco mentonelli","realname":"Francesco Mentonelli","favedate":"1430767663","iconserver":"3767","iconfarm":4,"contact":0,"friend":0,"family":0},{"nsid":"90687543@N04","username":"rossomalpelo2","realname":"franco fedeli","favedate":"1430766770","iconserver":"8887","iconfarm":9,"contact":0,"friend":0,"family":0},{"nsid":"126890717@N06","username":"pena.cortes","realname":"Graciela Pe\u00f1a","favedate":"1430460019","iconserver":"0","iconfarm":0,"contact":0,"friend":0,"family":0},{"nsid":"97113950@N06","username":"Moril","realname":"Moril Moris","favedate":"1430154943","iconserver":"2894","iconfarm":3,"contact":0,"friend":0,"family":0},{"nsid":"131430687@N07","username":"Andr\u00e9 Vin\u00edcius Photographer","realname":"Andre Vin\u00edcius","favedate":"1429821056","iconserver":"3838","iconfarm":4,"contact":0,"friend":0,"family":0},{"nsid":"111703252@N04","username":"winniepan501","realname":"\u6f58 \u5ead\u5e7c","favedate":"1429210514","iconserver":"0","iconfarm":0,"contact":0,"friend":0,"family":0}],"id":"16871460237","secret":"abbfc35684","server":"8780","farm":9,"page":1,"pages":4,"perpage":10,"total":"33"},"stat":"ok"}