{"photo":{"person":[{"nsid":"90878327@N07","username":"Wookiewookie571","realname":"","favedate":"1435233913","iconserver":"2814","iconfarm":3,"contact":0,"friend":0,"family":0},{"nsid":"51618726@N07","username":"welolduh","realname":"Pedro Acevedo","favedate":"1432411897","iconserver":"5340","iconfarm":6,"contact":0,"friend":0,"family":0},{"nsid":"104255215@N04","username":"khawla ashour","realname":"Khawla Ashour","favedate":"1429607121","iconserver":"8719","iconfarm":9,"contact":0,"friend":0,"family":0},{"nsid":"101572311@N05","username":"Carla Sanders Photography","realname":"Carla Sanders","favedate":"1427663368","iconserver":"8123","iconfarm":9,"contact":0,"friend":0,"family":0},{"nsid":"75184456@N04","username":"Shein Die","realname":"Shein Die","favedate":"1427607982","iconserver":"2848","iconfarm":3,"contact":0,"friend":0,"family":0},{"nsid":"52725579@N05","username":"creativegaz","realname":"Gary Winfield","favedate":"1425745536","iconserver":"7703","iconfarm":8,"contact":0,"friend":0,"family":0},{"nsid":"104673325@N07","username":"ihab0021","realname":"Ihab Mahmoud","favedate":"1421428180","iconserver":"0","iconfarm":0,"contact":0,"friend":0,"family":0},{"nsid":"127328898@N07","username":"mike.sloan7","realname":"mike sloan","favedate":"1420521832","iconserver":"0","iconfarm":0,"contact":0,"friend":0,"family":0},{"nsid":"60199566@N08","username":"buffy2angel2011","realname":"","favedate":"1419785248","iconserver":"0","iconfarm":0,"contact":0,"friend":0,"family":0},{"nsid":"98848275@N06","username":"dangerfieldcasey","realname":"casey dangerfield","favedate":"1418435244","iconserver":"7286","iconfarm":8,"contact":0,"friend":0,"family":0}],"id":"14262658832","secret":"ff465e33f4","server":"3826","farm":4,"page":1,"pages":8,"perpage":10,"total":"74"},"stat":"ok"}