{"photo":{"person":[{"nsid":"97220937@N03","username":"LiamFromNB","realname":"Liam","favedate":"1428578087","iconserver":"5348","iconfarm":6,"contact":0,"friend":0,"family":0},{"nsid":"130215340@N08","username":"alankalfat","realname":"Alan Kalfat","favedate":"1427712930","iconserver":"7365","iconfarm":8,"contact":0,"friend":0,"family":0},{"nsid":"97529277@N06","username":"fraserpaul@btinternet.com","realname":"Paul Fraser","favedate":"1426794522","iconserver":"3942","iconfarm":4,"contact":0,"friend":0,"family":0},{"nsid":"106582884@N04","username":"g.tsitonakis","realname":"\u0393\u03b9\u03c9\u03c1\u03b3\u03bf\u03c2 \u03a4\u03c3\u03b9\u03c4\u03c9\u03bd\u03b1\u03ba\u03b7\u03c2","favedate":"1426699852","iconserver":"7610","iconfarm":8,"contact":0,"friend":0,"family":0},{"nsid":"85654302@N02","username":"Photonard","realname":"","favedate":"1426287862","iconserver":"3751","iconfarm":4,"contact":0,"friend":0,"family":0},{"nsid":"7349924@N08","username":"Jerry Jaynes","realname":"Jerry Jaynes","favedate":"1425132655","iconserver":"7320","iconfarm":8,"contact":0,"friend":0,"family":0},{"nsid":"9597077@N02","username":"Jimmy - Home now","realname":"","favedate":"1425094925","iconserver":"2942","iconfarm":3,"contact":0,"friend":0,"family":0},{"nsid":"46484616@N04","username":"Mr. Happy Face - Peace :)","realname":"","favedate":"1425088447","iconserver":"5450","iconfarm":6,"contact":0,"friend":0,"family":0},{"nsid":"128632798@N03","username":"naynay_55","realname":"debbie reid","favedate":"1425083713","iconserver":"7455","iconfarm":8,"contact":0,"friend":0,"family":0},{"nsid":"61397695@N05","username":"elbetobm thanks for + 2.500.000 views.","realname":"","favedate":"1425080379","iconserver":"3808","iconfarm":4,"contact":0,"friend":0,"family":0}],"id":"16478940588","secret":"9155d2565a","server":"8613","farm":9,"page":1,"pages":2,"perpage":10,"total":"11"},"stat":"ok"}