{"photo":{"person":[{"nsid":"132207852@N07","username":"andreas53.mill","realname":"Andreas -Victor Mill","favedate":"1429445492","iconserver":"7599","iconfarm":8,"contact":0,"friend":0,"family":0},{"nsid":"60289916@N02","username":"RJT11","realname":"","favedate":"1417464783","iconserver":"7325","iconfarm":8,"contact":0,"friend":0,"family":0},{"nsid":"110344938@N06","username":"raphaljung","realname":"R. photo","favedate":"1417456998","iconserver":"3804","iconfarm":4,"contact":0,"friend":0,"family":0},{"nsid":"61051447@N03","username":"Singer \u6674\u54e5","realname":"Singer \u6674\u54e5","favedate":"1417445738","iconserver":"7761","iconfarm":8,"contact":0,"friend":0,"family":0},{"nsid":"95097580@N03","username":"rivale67","realname":"Rivale67","favedate":"1416659136","iconserver":"7447","iconfarm":8,"contact":0,"friend":0,"family":0},{"nsid":"118429794@N04","username":"borsmx","realname":"Boris Labkovsky","favedate":"1415318719","iconserver":"7295","iconfarm":8,"contact":0,"friend":0,"family":0},{"nsid":"99781851@N07","username":"Stevie 66","realname":"","favedate":"1415090104","iconserver":"299","iconfarm":1,"contact":0,"friend":0,"family":0},{"nsid":"11642029@N02","username":"Generoso Mrack","realname":"Generoso Mrack","favedate":"1415031776","iconserver":"3772","iconfarm":4,"contact":0,"friend":0,"family":0},{"nsid":"120357463@N02","username":"m_red","realname":"Roro \u2665 MR","favedate":"1414961875","iconserver":"3848","iconfarm":4,"contact":0,"friend":0,"family":0},{"nsid":"22533627@N05","username":"Peters nik","realname":"Peters Nik","favedate":"1414438622","iconserver":"2402","iconfarm":3,"contact":0,"friend":0,"family":0}],"id":"15618601142","secret":"814a888cd7","server":"5607","farm":6,"page":1,"pages":4,"perpage":10,"total":"36"},"stat":"ok"}