{"photo":{"person":[{"nsid":"96949025@N08","username":"Javihb92","realname":"Javi Herrera","favedate":"1397225514","iconserver":"7401","iconfarm":8,"contact":0,"friend":0,"family":0},{"nsid":"40610636@N03","username":"Reina Smallenbroek","realname":"Reina","favedate":"1396704895","iconserver":"2946","iconfarm":3,"contact":0,"friend":0,"family":0},{"nsid":"121008544@N07","username":"Lotofphotography - Abdellatif Ahmed","realname":"Lotof Photography","favedate":"1396459013","iconserver":"8791","iconfarm":9,"contact":0,"friend":0,"family":0},{"nsid":"33743612@N03","username":"miss Y.*","realname":"","favedate":"1396407759","iconserver":"8721","iconfarm":9,"contact":0,"friend":0,"family":0},{"nsid":"35617048@N04","username":"Fotootje met...","realname":"Mieke Bosma","favedate":"1396209288","iconserver":"3743","iconfarm":4,"contact":0,"friend":0,"family":0},{"nsid":"46104707@N03","username":"Cecil0327","realname":"","favedate":"1396207021","iconserver":"0","iconfarm":0,"contact":0,"friend":0,"family":0},{"nsid":"77318933@N08","username":"TJ.Photography","realname":"TJ","favedate":"1396155586","iconserver":"5280","iconfarm":6,"contact":0,"friend":0,"family":0},{"nsid":"61765951@N03","username":"Terry Frederic","realname":"Terry F Luehmann","favedate":"1396127015","iconserver":"5025","iconfarm":6,"contact":0,"friend":0,"family":0},{"nsid":"94579059@N05","username":"m43photos (En vacances \/ On holiday)","realname":"S\u00e9bastien (m43photos)","favedate":"1396115200","iconserver":"2859","iconfarm":3,"contact":0,"friend":0,"family":0},{"nsid":"84046284@N06","username":"f118466e3c344ba8d7bda58b23713373","realname":"","favedate":"1396110604","iconserver":"7180","iconfarm":8,"contact":0,"friend":0,"family":0}],"id":"13486656915","secret":"c0e2fcf32a","server":"7369","farm":8,"page":1,"pages":2,"perpage":10,"total":"11"},"stat":"ok"}