{"photo":{"person":[{"nsid":"33143245@N02","username":"SurFeRGiRL30","realname":"","favedate":"1391413221","iconserver":"5474","iconfarm":6,"contact":0,"friend":0,"family":0},{"nsid":"64217776@N05","username":"chocco23","realname":"John Brown","favedate":"1391356435","iconserver":"8583","iconfarm":9,"contact":0,"friend":0,"family":0},{"nsid":"111053938@N03","username":"flautiste","realname":"Mikayil S\u00f6zbilir","favedate":"1391287875","iconserver":"0","iconfarm":0,"contact":0,"friend":0,"family":0},{"nsid":"16230743@N06","username":"Open your eyes<::::::::::::::::::::::::::::","realname":"","favedate":"1391269260","iconserver":"5604","iconfarm":6,"contact":0,"friend":0,"family":0},{"nsid":"90751531@N08","username":"KackaS","realname":"","favedate":"1391268265","iconserver":"8513","iconfarm":9,"contact":0,"friend":0,"family":0},{"nsid":"95729599@N07","username":"freyashunting","realname":"Freyas Hunting Journal","favedate":"1391268232","iconserver":"534","iconfarm":1,"contact":0,"friend":0,"family":0},{"nsid":"95849435@N02","username":"UrbanGarbageStories","realname":"Urban Garbage Stories","favedate":"1391267844","iconserver":"3785","iconfarm":4,"contact":0,"friend":0,"family":0},{"nsid":"93751560@N04","username":"Pierre Kroupensky Fotografo","realname":"Pierre Kroupensky","favedate":"1391267324","iconserver":"7631","iconfarm":8,"contact":0,"friend":0,"family":0},{"nsid":"91853021@N05","username":"Gabriele Tudico","realname":"","favedate":"1391267140","iconserver":"2874","iconfarm":3,"contact":0,"friend":0,"family":0},{"nsid":"108651058@N03","username":"DGecko Design & Concept Studio","realname":"D Gecko","favedate":"1391266519","iconserver":"3756","iconfarm":4,"contact":0,"friend":0,"family":0}],"id":"12241319126","secret":"58f3fb6161","server":"3831","farm":4,"page":1,"pages":4,"perpage":10,"total":"39"},"stat":"ok"}