{"photo":{"person":[{"nsid":"42625870@N05","username":"eliezede.com","realname":"Eli\u00e9zede Andrade","favedate":"1433543570","iconserver":"3713","iconfarm":4,"contact":0,"friend":0,"family":0},{"nsid":"91400424@N07","username":"Dejan H.","realname":"","favedate":"1433533628","iconserver":"2941","iconfarm":3,"contact":0,"friend":0,"family":0},{"nsid":"94579059@N05","username":"m43photos (En vacances \/ On holiday)","realname":"S\u00e9bastien (m43photos)","favedate":"1433487402","iconserver":"2859","iconfarm":3,"contact":0,"friend":0,"family":0},{"nsid":"101478900@N02","username":"Gi@nni B.","realname":"gianni belloni","favedate":"1433441093","iconserver":"7548","iconfarm":8,"contact":0,"friend":0,"family":0},{"nsid":"62973218@N02","username":"Doug's Lumix","realname":"Doug","favedate":"1433344224","iconserver":"8135","iconfarm":9,"contact":0,"friend":0,"family":0},{"nsid":"127014979@N05","username":"christiansaouma","realname":"Christian Saouma","favedate":"1433336320","iconserver":"3878","iconfarm":4,"contact":0,"friend":0,"family":0},{"nsid":"12420780@N08","username":"patrick.tafani","realname":"","favedate":"1433312020","iconserver":"8676","iconfarm":9,"contact":0,"friend":0,"family":0},{"nsid":"110569055@N04","username":"Justin Kenneth Rowley","realname":"Justin Kenneth Rowley","favedate":"1433294093","iconserver":"5534","iconfarm":6,"contact":0,"friend":0,"family":0},{"nsid":"78683307@N04","username":"~\u5c0f\u4e56~ Y.C.CHEN","realname":"Yu-Cheng Chen","favedate":"1433293187","iconserver":"8871","iconfarm":9,"contact":0,"friend":0,"family":0},{"nsid":"54097938@N05","username":"Wonggei St","realname":"Johnny Choi","favedate":"1433292095","iconserver":"7408","iconfarm":8,"contact":0,"friend":0,"family":0}],"id":"18209370251","secret":"3093f750c0","server":"8815","farm":9,"page":1,"pages":2,"perpage":10,"total":"15"},"stat":"ok"}