{"photo":{"person":[{"nsid":"92379714@N04","username":"RAFAHEREDI","realname":"","favedate":"1406580108","iconserver":"2633","iconfarm":3,"contact":0,"friend":0,"family":0},{"nsid":"62350104@N08","username":"ryndman","realname":"","favedate":"1390313307","iconserver":"5300","iconfarm":6,"contact":0,"friend":0,"family":0},{"nsid":"23234777@N07","username":"El fot\u00f3grafo celeste","realname":"","favedate":"1385396056","iconserver":"0","iconfarm":0,"contact":0,"friend":0,"family":0},{"nsid":"66945198@N08","username":"Dila Ramos","realname":"Dila Ramos","favedate":"1362339424","iconserver":"3715","iconfarm":4,"contact":0,"friend":0,"family":0},{"nsid":"9938180@N07","username":"iyoupapa","realname":"","favedate":"1358659421","iconserver":"2057","iconfarm":3,"contact":0,"friend":0,"family":0},{"nsid":"22272810@N06","username":"MarianoBrizzola","realname":"Mariano Brizzola","favedate":"1332325915","iconserver":"2467","iconfarm":3,"contact":0,"friend":0,"family":0},{"nsid":"97512531@N00","username":"m!Chou","realname":"Mihai Balan","favedate":"1325088693","iconserver":"8056","iconfarm":9,"contact":0,"friend":0,"family":0},{"nsid":"35445050@N00","username":"\u547d\u306f\u7f8e\u3057\u3044","realname":"","favedate":"1325009783","iconserver":"4071","iconfarm":5,"contact":0,"friend":0,"family":0},{"nsid":"49449760@N03","username":"made_of_plastic","realname":"Jennifer","favedate":"1324943150","iconserver":"8403","iconfarm":9,"contact":0,"friend":0,"family":0},{"nsid":"26676409@N06","username":"Toni Mula Foto","realname":"","favedate":"1324318622","iconserver":"8718","iconfarm":9,"contact":0,"friend":0,"family":0}],"id":"6515207587","secret":"a8fa4f41e3","server":"7031","farm":8,"page":1,"pages":2,"perpage":10,"total":"13"},"stat":"ok"}