{"photo":{"person":[{"nsid":"94507863@N00","username":"atomicshark","realname":"Dino Abatzidis","favedate":"1407762348","iconserver":"7354","iconfarm":8,"contact":0,"friend":0,"family":0},{"nsid":"95474055@N02","username":"Victor Hugo Pinheiro","realname":"Victor Hugo Pinheiro","favedate":"1403549659","iconserver":"3870","iconfarm":4,"contact":0,"friend":0,"family":0},{"nsid":"66661554@N02","username":"Kostas Petropoulos Photography","realname":"Kostas_ Petropoulos","favedate":"1402581995","iconserver":"3771","iconfarm":4,"contact":0,"friend":0,"family":0},{"nsid":"93864933@N07","username":"Mirada de Mujer","realname":"Lorna Lorna","favedate":"1401928164","iconserver":"7769","iconfarm":8,"contact":0,"friend":0,"family":0},{"nsid":"90795792@N04","username":"jose luis naussa ( + 1,2 M.`)(+1,2 \u03b5\u03ba.)","realname":"","favedate":"1401624581","iconserver":"3860","iconfarm":4,"contact":0,"friend":0,"family":0},{"nsid":"31512287@N03","username":"Ang\u00e9lica Lermanda S.","realname":"Ang\u00e9lica Lermanda Soto","favedate":"1400723153","iconserver":"7025","iconfarm":8,"contact":0,"friend":0,"family":0},{"nsid":"50182877@N06","username":"dan.kristiansen","realname":"","favedate":"1400596887","iconserver":"2946","iconfarm":3,"contact":0,"friend":0,"family":0},{"nsid":"117228832@N02","username":"arghavanzahra","realname":"zahra A","favedate":"1399710957","iconserver":"8689","iconfarm":9,"contact":0,"friend":0,"family":0},{"nsid":"115651633@N04","username":"Phoenix photo and craft UK","realname":"","favedate":"1399625200","iconserver":"8607","iconfarm":9,"contact":0,"friend":0,"family":0},{"nsid":"110035863@N04","username":"sbblore","realname":"sreela bandyopadhyay","favedate":"1399468438","iconserver":"2916","iconfarm":3,"contact":0,"friend":0,"family":0}],"id":"14043584102","secret":"76e431c0bd","server":"7384","farm":8,"page":1,"pages":9,"perpage":10,"total":"88"},"stat":"ok"}