{"photo":{"person":[{"nsid":"78853988@N07","username":"beauty of all things","realname":"Manfred Geyer","favedate":"1432208706","iconserver":"3729","iconfarm":4,"contact":0,"friend":0,"family":0},{"nsid":"12394893@N05","username":"Ludwig Danner","realname":"LUDWIG DANNER","favedate":"1431887741","iconserver":"2721","iconfarm":3,"contact":0,"friend":0,"family":0},{"nsid":"48718038@N05","username":"Alexis Gerard - Slowly back","realname":"Alexis Gerard","favedate":"1431740695","iconserver":"5457","iconfarm":6,"contact":0,"friend":0,"family":0},{"nsid":"7131181@N05","username":"stevejay2000","realname":"Steve Johnston","favedate":"1431104537","iconserver":"2736","iconfarm":3,"contact":0,"friend":0,"family":0},{"nsid":"52192330@N05","username":"heleconia","realname":"","favedate":"1430907148","iconserver":"7327","iconfarm":8,"contact":0,"friend":0,"family":0},{"nsid":"26685743@N07","username":"Richard C. Johnson: AKA fishwrapcomix","realname":"Richard C. Johnson","favedate":"1430872359","iconserver":"7331","iconfarm":8,"contact":0,"friend":0,"family":0},{"nsid":"7432018@N02","username":"Pascal Heymans","realname":"","favedate":"1430858588","iconserver":"3727","iconfarm":4,"contact":0,"friend":0,"family":0},{"nsid":"12263029@N00","username":"Franks Wild","realname":"Dan Mitchell-Innes","favedate":"1430855171","iconserver":"7348","iconfarm":8,"contact":0,"friend":0,"family":0},{"nsid":"35377274@N06","username":"Spiegelneuronen","realname":"Spiegelneuronen","favedate":"1430853065","iconserver":"8270","iconfarm":9,"contact":0,"friend":0,"family":0},{"nsid":"59433622@N05","username":".Till","realname":"","favedate":"1430852027","iconserver":"488","iconfarm":1,"contact":0,"friend":0,"family":0}],"id":"17374351565","secret":"1ee31c6a7c","server":"8725","farm":9,"page":1,"pages":2,"perpage":10,"total":"17"},"stat":"ok"}