{"photo":{"person":[{"nsid":"74867297@N05","username":"mattd85","realname":"Matthew Doogue","favedate":"1365628346","iconserver":"7477","iconfarm":8,"contact":0,"friend":0,"family":0},{"nsid":"94180552@N06","username":"marina lida","realname":"","favedate":"1364671391","iconserver":"8100","iconfarm":9,"contact":0,"friend":0,"family":0},{"nsid":"80597208@N07","username":"Hara78","realname":"","favedate":"1340312707","iconserver":"5337","iconfarm":6,"contact":0,"friend":0,"family":0},{"nsid":"63095032@N02","username":"Marti Bono Carpe Diem","realname":"Marti Bono","favedate":"1339279281","iconserver":"449","iconfarm":1,"contact":0,"friend":0,"family":0},{"nsid":"22992181@N02","username":"Francesco Littmann - Doc Savage","realname":"","favedate":"1329937894","iconserver":"7402","iconfarm":8,"contact":0,"friend":0,"family":0},{"nsid":"35176556@N06","username":"Juan \u00a9","realname":"Juan Cortez","favedate":"1329925109","iconserver":"7360","iconfarm":8,"contact":0,"friend":0,"family":0},{"nsid":"37974731@N03","username":"Christina Aroni","realname":"Christina Aroni","favedate":"1329041158","iconserver":"4123","iconfarm":5,"contact":0,"friend":0,"family":0},{"nsid":"17237864@N00","username":"rabidash*","realname":"","favedate":"1328954935","iconserver":"8553","iconfarm":9,"contact":0,"friend":0,"family":0},{"nsid":"36110633@N03","username":"ArneKaiser","realname":"","favedate":"1328562096","iconserver":"7391","iconfarm":8,"contact":0,"friend":0,"family":0},{"nsid":"68972321@N00","username":"arcadividal","realname":"","favedate":"1328561465","iconserver":"3908","iconfarm":4,"contact":0,"friend":0,"family":0}],"id":"6815681031","secret":"bff382d279","server":"7004","farm":8,"page":1,"pages":4,"perpage":10,"total":"32"},"stat":"ok"}