{"photo":{"person":[{"nsid":"17685557@N02","username":"Xocoatz\u00edn","realname":"","favedate":"1435248866","iconserver":"503","iconfarm":1,"contact":0,"friend":0,"family":0},{"nsid":"110544677@N03","username":"Bernhard Mueller","realname":"Bernhard Mueller","favedate":"1397448231","iconserver":"2890","iconfarm":3,"contact":0,"friend":0,"family":0},{"nsid":"44520651@N06","username":"FOTOS PARA PASAR EL RATO","realname":"","favedate":"1386468088","iconserver":"3874","iconfarm":4,"contact":0,"friend":0,"family":0},{"nsid":"87272508@N00","username":"hanan bercu","realname":"Hanan Bercu","favedate":"1384821813","iconserver":"2043","iconfarm":3,"contact":0,"friend":0,"family":0},{"nsid":"49221473@N00","username":"ebergcanada","realname":"Evelyn Berg","favedate":"1383279902","iconserver":"3773","iconfarm":4,"contact":0,"friend":0,"family":0},{"nsid":"97992491@N07","username":"niki_zh","realname":"\u0412\u0435\u0440\u043e\u043d\u0438\u043a\u0430 \u0416\u0443\u043a\u043e\u0432\u0441\u043a\u0430\u044f","favedate":"1374064118","iconserver":"0","iconfarm":0,"contact":0,"friend":0,"family":0},{"nsid":"69096122@N02","username":"hpc_","realname":"","favedate":"1373817624","iconserver":"5538","iconfarm":6,"contact":0,"friend":0,"family":0},{"nsid":"64598947@N00","username":"geirt.com","realname":"geir t\u00f8nnessen","favedate":"1373809898","iconserver":"5473","iconfarm":6,"contact":0,"friend":0,"family":0},{"nsid":"97972270@N07","username":"The White-Wolf","realname":"Aaron","favedate":"1373657909","iconserver":"3679","iconfarm":4,"contact":0,"friend":0,"family":0},{"nsid":"39667036@N02","username":"Haf3z","realname":"","favedate":"1373657257","iconserver":"3388","iconfarm":4,"contact":0,"friend":0,"family":0}],"id":"9253325507","secret":"5a940a2c1c","server":"7292","farm":8,"page":1,"pages":5,"perpage":10,"total":"41"},"stat":"ok"}