{"photo":{"person":[{"nsid":"130350534@N05","username":"joannmuench","realname":"joann muench","favedate":"1435828459","iconserver":"461","iconfarm":1,"contact":0,"friend":0,"family":0},{"nsid":"132106159@N08","username":"jaralt","realname":"Hedgehog","favedate":"1431859430","iconserver":"8701","iconfarm":9,"contact":0,"friend":0,"family":0},{"nsid":"66649794@N08","username":"el zopilote","realname":"Jorge Guadalupe Liz\u00e1rraga","favedate":"1431567861","iconserver":"8882","iconfarm":9,"contact":0,"friend":0,"family":0},{"nsid":"126208682@N06","username":"will cadbury","realname":"Will Cadbury","favedate":"1428510764","iconserver":"5557","iconfarm":6,"contact":0,"friend":0,"family":0},{"nsid":"130304681@N02","username":"elena_d80","realname":"Elena Daniela","favedate":"1428017040","iconserver":"8747","iconfarm":9,"contact":0,"friend":0,"family":0},{"nsid":"82293028@N07","username":"fotostopp","realname":"claus","favedate":"1427216336","iconserver":"7254","iconfarm":8,"contact":0,"friend":0,"family":0},{"nsid":"40302992@N05","username":"ax384400","realname":"hiraoka kim","favedate":"1422773965","iconserver":"7788","iconfarm":8,"contact":0,"friend":0,"family":0},{"nsid":"123730055@N04","username":"juliosabinagolf.","realname":"Julio Alvarez","favedate":"1420923314","iconserver":"7523","iconfarm":8,"contact":0,"friend":0,"family":0},{"nsid":"87540502@N03","username":"Kini Pier","realname":"Pier Paolo Chini","favedate":"1420834785","iconserver":"478","iconfarm":1,"contact":0,"friend":0,"family":0},{"nsid":"7641033@N08","username":"irina_h","realname":"","favedate":"1420036141","iconserver":"7287","iconfarm":8,"contact":0,"friend":0,"family":0}],"id":"9481902422","secret":"6288970003","server":"5508","farm":6,"page":1,"pages":3,"perpage":10,"total":"21"},"stat":"ok"}