{"photo":{"person":[{"nsid":"123856898@N06","username":"AlexandreRR","realname":"Alexandre Ricardo","favedate":"1432081565","iconserver":"506","iconfarm":1,"contact":0,"friend":0,"family":0},{"nsid":"131195263@N06","username":"noa.noa2015","realname":"Noa Noa","favedate":"1430228546","iconserver":"7633","iconfarm":8,"contact":0,"friend":0,"family":0},{"nsid":"128023596@N08","username":"suhridranjandas","realname":"Suhrid Ranjan Das","favedate":"1429679568","iconserver":"7551","iconfarm":8,"contact":0,"friend":0,"family":0},{"nsid":"117116685@N07","username":"Shiroki Alex","realname":"Alex Shiroki","favedate":"1428609534","iconserver":"7525","iconfarm":8,"contact":0,"friend":0,"family":0},{"nsid":"124908718@N06","username":"coc76","realname":"","favedate":"1428495899","iconserver":"5196","iconfarm":6,"contact":0,"friend":0,"family":0},{"nsid":"93463623@N05","username":"RKAMARI","realname":"RAMAZAN KAMARI","favedate":"1428487244","iconserver":"2885","iconfarm":3,"contact":0,"friend":0,"family":0},{"nsid":"23244169@N00","username":"Alberto Pasternak","realname":"","favedate":"1428486630","iconserver":"5608","iconfarm":6,"contact":0,"friend":0,"family":0},{"nsid":"26849514@N06","username":"Frans.Sellies","realname":"Frans Sellies","favedate":"1428401412","iconserver":"4072","iconfarm":5,"contact":0,"friend":0,"family":0},{"nsid":"100312562@N04","username":"basbaz","realname":"Bas Baz","favedate":"1428375865","iconserver":"2857","iconfarm":3,"contact":0,"friend":0,"family":0},{"nsid":"123865437@N06","username":"katalin_kerekes","realname":"","favedate":"1428368170","iconserver":"3873","iconfarm":4,"contact":0,"friend":0,"family":0}],"id":"17026545466","secret":"56cd2cb507","server":"7643","farm":8,"page":1,"pages":3,"perpage":10,"total":"24"},"stat":"ok"}