{"photo":{"person":[{"nsid":"132575621@N07","username":"Omar Jatkar","realname":"Omar Jatkar","favedate":"1429480771","iconserver":"7606","iconfarm":8,"contact":0,"friend":0,"family":0},{"nsid":"7896931@N02","username":"a g n \u00e8 s","realname":"","favedate":"1427962193","iconserver":"8823","iconfarm":9,"contact":0,"friend":0,"family":0},{"nsid":"127576314@N05","username":"buch.daniele","realname":"daniele buch","favedate":"1416237181","iconserver":"7671","iconfarm":8,"contact":0,"friend":0,"family":0},{"nsid":"28217693@N02","username":"Jawdoc","realname":"","favedate":"1414760037","iconserver":"5455","iconfarm":6,"contact":0,"friend":0,"family":0},{"nsid":"24043340@N08","username":"pytheasarg","realname":"","favedate":"1414606014","iconserver":"7025","iconfarm":8,"contact":0,"friend":0,"family":0},{"nsid":"127869440@N07","username":"deirdrepower69","realname":"Deirdre Power","favedate":"1414583382","iconserver":"5606","iconfarm":6,"contact":0,"friend":0,"family":0},{"nsid":"125572447@N04","username":"anna.bonoldi","realname":"Anna Luisa Bonoldi","favedate":"1406567915","iconserver":"3889","iconfarm":4,"contact":0,"friend":0,"family":0},{"nsid":"125047238@N04","username":"Noemi Gerosa","realname":"","favedate":"1406113589","iconserver":"8683","iconfarm":9,"contact":0,"friend":0,"family":0},{"nsid":"42559357@N04","username":"peterpics1","realname":"Peter","favedate":"1406028725","iconserver":"7391","iconfarm":8,"contact":0,"friend":0,"family":0},{"nsid":"33660572@N02","username":"claude gourlay","realname":"claude Gourlay","favedate":"1405703977","iconserver":"3600","iconfarm":4,"contact":0,"friend":0,"family":0}],"id":"13625181525","secret":"06efaaf59e","server":"7410","farm":8,"page":1,"pages":6,"perpage":10,"total":"53"},"stat":"ok"}