{"photo":{"person":[{"nsid":"52619424@N00","username":"www.facebook.com\/Hamoon.de","realname":"Hamoon Nasiri","favedate":"1375568619","iconserver":"3760","iconfarm":4,"contact":0,"friend":0,"family":0},{"nsid":"79397274@N00","username":"agedsenator","realname":"Vittorio Pandolfi","favedate":"1326878057","iconserver":"58","iconfarm":1,"contact":0,"friend":0,"family":0},{"nsid":"60199823@N04","username":"Miss Bunny Sunday","realname":"","favedate":"1318820535","iconserver":"0","iconfarm":0,"contact":0,"friend":0,"family":0},{"nsid":"23008965@N07","username":"marjia","realname":"","favedate":"1313208790","iconserver":"0","iconfarm":0,"contact":0,"friend":0,"family":0},{"nsid":"57754408@N07","username":"one.juniper","realname":"","favedate":"1313002382","iconserver":"8275","iconfarm":9,"contact":0,"friend":0,"family":0},{"nsid":"60748197@N03","username":"Glass on Glass","realname":"","favedate":"1309860701","iconserver":"8101","iconfarm":9,"contact":0,"friend":0,"family":0},{"nsid":"33023462@N03","username":"sammyz mama","realname":"sammyz mama","favedate":"1302502136","iconserver":"3177","iconfarm":4,"contact":0,"friend":0,"family":0},{"nsid":"46184432@N02","username":"Bella-bee","realname":"","favedate":"1300010353","iconserver":"4017","iconfarm":5,"contact":0,"friend":0,"family":0},{"nsid":"52178101@N07","username":"Loli Bernall","realname":"loli bernal serradilla","favedate":"1288561118","iconserver":"4136","iconfarm":5,"contact":0,"friend":0,"family":0},{"nsid":"34444991@N03","username":"Reddy E.","realname":"","favedate":"1288200955","iconserver":"8563","iconfarm":9,"contact":0,"friend":0,"family":0}],"id":"5063542566","secret":"43c82c943b","server":"4133","farm":5,"page":1,"pages":6,"perpage":10,"total":"51"},"stat":"ok"}