{"photo":{"person":[{"nsid":"32733999@N07","username":"Mymoca artesanato","realname":"Luciana Santos da Silva","favedate":"1428987819","iconserver":"3159","iconfarm":4,"contact":0,"friend":0,"family":0},{"nsid":"63591310@N04","username":"katzenfraulein","realname":"stephanie wefanie","favedate":"1424055435","iconserver":"7760","iconfarm":8,"contact":0,"friend":0,"family":0},{"nsid":"127973458@N07","username":"orsicrosi","realname":"Orsi Szasz","favedate":"1414869911","iconserver":"0","iconfarm":0,"contact":0,"friend":0,"family":0},{"nsid":"128301044@N03","username":"corinahaun","realname":"Corina Haun","favedate":"1414756605","iconserver":"0","iconfarm":0,"contact":0,"friend":0,"family":0},{"nsid":"126976350@N04","username":"nacktduscherin","realname":"","favedate":"1414100485","iconserver":"3846","iconfarm":4,"contact":0,"friend":0,"family":0},{"nsid":"60895619@N00","username":"thorpetowers","realname":"","favedate":"1403054821","iconserver":"7279","iconfarm":8,"contact":0,"friend":0,"family":0},{"nsid":"78728492@N04","username":"Carmen's plants","realname":"Carmen","favedate":"1402847026","iconserver":"8120","iconfarm":9,"contact":0,"friend":0,"family":0},{"nsid":"117423613@N02","username":"meire.picoli","realname":"Meire Picoli","favedate":"1401024877","iconserver":"0","iconfarm":0,"contact":0,"friend":0,"family":0},{"nsid":"47427102@N04","username":"Lil Elf Girl","realname":"","favedate":"1390162326","iconserver":"2741","iconfarm":3,"contact":0,"friend":0,"family":0},{"nsid":"26096635@N00","username":"junkieforyourlove","realname":"Stacy F","favedate":"1385988323","iconserver":"2403","iconfarm":3,"contact":0,"friend":0,"family":0}],"id":"5692846469","secret":"378f375c57","server":"5307","farm":6,"page":1,"pages":15,"perpage":10,"total":"148"},"stat":"ok"}