{"photo":{"person":[{"nsid":"131645694@N06","username":"ojsanchezg","realname":"Otoniel S\u00e1nchez","favedate":"1430976424","iconserver":"0","iconfarm":0,"contact":0,"friend":0,"family":0},{"nsid":"77201030@N02","username":"\u718f\u9999\u7684\u98ce","realname":"lau dylan","favedate":"1429001911","iconserver":"7292","iconfarm":8,"contact":0,"friend":0,"family":0},{"nsid":"131262778@N02","username":"saaxywalrus1920","realname":"walter luis","favedate":"1428418691","iconserver":"0","iconfarm":0,"contact":0,"friend":0,"family":0},{"nsid":"123798291@N06","username":"divonsirborges61","realname":"Divonsir Borges","favedate":"1428024106","iconserver":"2927","iconfarm":3,"contact":0,"friend":0,"family":0},{"nsid":"130843995@N03","username":"taniasierra2410","realname":"Tania Sierra","favedate":"1422379699","iconserver":"7461","iconfarm":8,"contact":0,"friend":0,"family":0},{"nsid":"128781958@N08","username":"rricardossbirdsqueirozz","realname":"ricardossbirdsqueirozz ricardossbirdsqueirozz","favedate":"1418401662","iconserver":"5604","iconfarm":6,"contact":0,"friend":0,"family":0},{"nsid":"127240223@N07","username":"jcdt777","realname":"juan carlos dominguez","favedate":"1418076999","iconserver":"0","iconfarm":0,"contact":0,"friend":0,"family":0},{"nsid":"49987757@N05","username":"Gilbert86","realname":"","favedate":"1400810823","iconserver":"4008","iconfarm":5,"contact":0,"friend":0,"family":0},{"nsid":"111625477@N08","username":"20samantha13","realname":"","favedate":"1390657025","iconserver":"0","iconfarm":0,"contact":0,"friend":0,"family":0},{"nsid":"47572295@N04","username":"november511","realname":"","favedate":"1384445979","iconserver":"7452","iconfarm":8,"contact":0,"friend":0,"family":0}],"id":"7997898546","secret":"99b1858da2","server":"8439","farm":9,"page":1,"pages":2,"perpage":10,"total":"17"},"stat":"ok"}