{"photo":{"person":[{"nsid":"105430502@N02","username":"gnicoli11","realname":"","favedate":"1430282724","iconserver":"0","iconfarm":0,"contact":0,"friend":0,"family":0},{"nsid":"129897507@N08","username":"samanthastaring144","realname":"Samantha Staring","favedate":"1426096899","iconserver":"0","iconfarm":0,"contact":0,"friend":0,"family":0},{"nsid":"129419249@N03","username":"cfischephoto","realname":"Chris Fischer","favedate":"1425281783","iconserver":"8569","iconfarm":9,"contact":0,"friend":0,"family":0},{"nsid":"125398168@N05","username":"anju7548","realname":"","favedate":"1424059000","iconserver":"8662","iconfarm":9,"contact":0,"friend":0,"family":0},{"nsid":"51097769@N04","username":"Jenn Houston","realname":"Jennifer Houston","favedate":"1420172290","iconserver":"7372","iconfarm":8,"contact":0,"friend":0,"family":0},{"nsid":"48577187@N02","username":"Toronjos","realname":"Javier","favedate":"1399345591","iconserver":"2829","iconfarm":3,"contact":0,"friend":0,"family":0},{"nsid":"24553397@N06","username":"NWPaddler","realname":"","favedate":"1394847089","iconserver":"3878","iconfarm":4,"contact":0,"friend":0,"family":0},{"nsid":"99681796@N08","username":"Sarah Zambiasi Art","realname":"Sarah Zambiasi","favedate":"1390436526","iconserver":"7539","iconfarm":8,"contact":0,"friend":0,"family":0},{"nsid":"28200184@N08","username":"Poupetta","realname":"","favedate":"1373939443","iconserver":"3154","iconfarm":4,"contact":0,"friend":0,"family":0},{"nsid":"29364835@N02","username":"lamisane66","realname":"","favedate":"1371928288","iconserver":"5539","iconfarm":6,"contact":0,"friend":0,"family":0}],"id":"8566641223","secret":"1d29616589","server":"8367","farm":9,"page":1,"pages":4,"perpage":10,"total":"40"},"stat":"ok"}