{"photo":{"person":[{"nsid":"108426446@N06","username":"Nailton Barbosa","realname":"Nailton Barbosa","favedate":"1427644135","iconserver":"5472","iconfarm":6,"contact":0,"friend":0,"family":0},{"nsid":"131820310@N04","username":"tainara_basilio","realname":"","favedate":"1426025392","iconserver":"7627","iconfarm":8,"contact":0,"friend":0,"family":0},{"nsid":"7695998@N05","username":"somel","realname":"","favedate":"1407774056","iconserver":"1140","iconfarm":2,"contact":0,"friend":0,"family":0},{"nsid":"90216316@N02","username":"Thiago.andrade2","realname":"","favedate":"1406442131","iconserver":"3914","iconfarm":4,"contact":0,"friend":0,"family":0},{"nsid":"36641896@N02","username":"Lovepie","realname":"Eszter","favedate":"1336745770","iconserver":"3640","iconfarm":4,"contact":0,"friend":0,"family":0},{"nsid":"57090585@N02","username":"Maria Vit\u00f3ria Dutra","realname":"Maria Vit\u00f3ria Dutra","favedate":"1312172178","iconserver":"3791","iconfarm":4,"contact":0,"friend":0,"family":0},{"nsid":"26952445@N06","username":"Rapha-chan","realname":"Rapha~Chan","favedate":"1238984017","iconserver":"5447","iconfarm":6,"contact":0,"friend":0,"family":0},{"nsid":"33645169@N06","username":"GABRIELRODRIGO","realname":"GABRIEL RODRIGO","favedate":"1233399514","iconserver":"5456","iconfarm":6,"contact":0,"friend":0,"family":0},{"nsid":"23212024@N07","username":"Dani Vargas.","realname":"Danielli Vargas","favedate":"1222870394","iconserver":"3897","iconfarm":4,"contact":0,"friend":0,"family":0},{"nsid":"77291832@N00","username":"littylovebug","realname":"","favedate":"1204310820","iconserver":"5452","iconfarm":6,"contact":0,"friend":0,"family":0}],"id":"19565676","secret":"2b4f6cf6d5","server":"17","farm":1,"page":1,"pages":4,"perpage":10,"total":"36"},"stat":"ok"}