{"photo":{"person":[{"nsid":"129382603@N05","username":"Filippo Peretti, Cagliari","realname":"","favedate":"1433972906","iconserver":"7285","iconfarm":8,"contact":0,"friend":0,"family":0},{"nsid":"66649794@N08","username":"el zopilote","realname":"Jorge Guadalupe Liz\u00e1rraga","favedate":"1416984450","iconserver":"8882","iconfarm":9,"contact":0,"friend":0,"family":0},{"nsid":"31342943@N03","username":"Alkarinkwa","realname":"Marietta","favedate":"1399636223","iconserver":"3719","iconfarm":4,"contact":0,"friend":0,"family":0},{"nsid":"78322331@N06","username":"s_inagaki","realname":"satoshi inagaki","favedate":"1390576945","iconserver":"3782","iconfarm":4,"contact":0,"friend":0,"family":0},{"nsid":"105212713@N07","username":"Luke Leung1993","realname":"","favedate":"1389142335","iconserver":"8571","iconfarm":9,"contact":0,"friend":0,"family":0},{"nsid":"11274134@N03","username":"Juc\u00e1 Costa","realname":"Juc\u00e1 Costa","favedate":"1388941999","iconserver":"3702","iconfarm":4,"contact":0,"friend":0,"family":0},{"nsid":"105072087@N06","username":"clueidea","realname":"Marian Rodriguez","favedate":"1388824038","iconserver":"325","iconfarm":1,"contact":0,"friend":0,"family":0},{"nsid":"102151848@N03","username":"T.JEFFREY","realname":"","favedate":"1388437009","iconserver":"7419","iconfarm":8,"contact":0,"friend":0,"family":0},{"nsid":"58306981@N03","username":"RW-V","realname":"Ren\u00e9 Vetter","favedate":"1388320123","iconserver":"7370","iconfarm":8,"contact":0,"friend":0,"family":0},{"nsid":"108221267@N06","username":"Nalaofmoonlight ( VACATION! BACK SOON!! )","realname":"","favedate":"1388254731","iconserver":"7285","iconfarm":8,"contact":0,"friend":0,"family":0}],"id":"11601196905","secret":"a016cfb003","server":"3694","farm":4,"page":1,"pages":2,"perpage":10,"total":"20"},"stat":"ok"}