{"photo":{"person":[{"nsid":"127523566@N08","username":"roizroiz","realname":"Roiz Roiz","favedate":"1436248159","iconserver":"7637","iconfarm":8,"contact":0,"friend":0,"family":0},{"nsid":"42625870@N05","username":"eliezede.com","realname":"Eli\u00e9zede Andrade","favedate":"1434531920","iconserver":"3713","iconfarm":4,"contact":0,"friend":0,"family":0},{"nsid":"127768205@N07","username":"trnph170","realname":"Tr\u1ea7n Ph\u00fa H\u1eefu","favedate":"1431472163","iconserver":"7610","iconfarm":8,"contact":0,"friend":0,"family":0},{"nsid":"132263725@N03","username":"lipevgoncalves","realname":"Filipe Gon\u00e7alves","favedate":"1427837226","iconserver":"8688","iconfarm":9,"contact":0,"friend":0,"family":0},{"nsid":"126575626@N03","username":"migliorinimariarosa","realname":"mariarosa migliorini","favedate":"1427661988","iconserver":"8691","iconfarm":9,"contact":0,"friend":0,"family":0},{"nsid":"69919393@N02","username":"Alexandra Jo\u00e3o","realname":"Alexandra Jo\u00e3o","favedate":"1423255940","iconserver":"475","iconfarm":1,"contact":0,"friend":0,"family":0},{"nsid":"123513652@N06","username":"juerdie","realname":"j\u00fcrdie D","favedate":"1422190370","iconserver":"0","iconfarm":0,"contact":0,"friend":0,"family":0},{"nsid":"67004501@N07","username":"Lieblings Bilder Yahel \u05d9\u05d4\u05dc","realname":"Yahel \u05d9\u05d4\u05dc","favedate":"1422122317","iconserver":"7552","iconfarm":8,"contact":0,"friend":0,"family":0},{"nsid":"115202145@N05","username":"aloversdiscourse","realname":"alovers discourse","favedate":"1421807460","iconserver":"0","iconfarm":0,"contact":0,"friend":0,"family":0},{"nsid":"128145473@N03","username":"loggiadeilanzi","realname":"Loggia deilanzi","favedate":"1420388705","iconserver":"0","iconfarm":0,"contact":0,"friend":0,"family":0}],"id":"8270891250","secret":"10f70b8e2e","server":"8224","farm":9,"page":1,"pages":8,"perpage":10,"total":"75"},"stat":"ok"}