{"photo":{"person":[{"nsid":"131619634@N06","username":"ohcalumities","realname":"","favedate":"1425316827","iconserver":"0","iconfarm":0,"contact":0,"friend":0,"family":0},{"nsid":"41759661@N00","username":"martins.v","realname":"","favedate":"1413350416","iconserver":"3908","iconfarm":4,"contact":0,"friend":0,"family":0},{"nsid":"9592565@N07","username":"mikedolinger","realname":"Michael Dolinger","favedate":"1408997914","iconserver":"3710","iconfarm":4,"contact":0,"friend":0,"family":0},{"nsid":"95710062@N07","username":"icastri11","realname":"Inocencio Castrillo Vega","favedate":"1391450869","iconserver":"7288","iconfarm":8,"contact":0,"friend":0,"family":0},{"nsid":"107934075@N07","username":"soychailatte","realname":"Andrew Tsoi","favedate":"1383822901","iconserver":"0","iconfarm":0,"contact":0,"friend":0,"family":0},{"nsid":"53944024@N02","username":"littlepearl2010","realname":"","favedate":"1368703776","iconserver":"4104","iconfarm":5,"contact":0,"friend":0,"family":0},{"nsid":"58289393@N02","username":"rocio_73mx","realname":"Roc\u00edo P\u00e9rez (Chio)","favedate":"1362703679","iconserver":"3849","iconfarm":4,"contact":0,"friend":0,"family":0},{"nsid":"32760706@N04","username":"S.A. Feite","realname":"S.A. Feite","favedate":"1358876126","iconserver":"3862","iconfarm":4,"contact":0,"friend":0,"family":0},{"nsid":"60999131@N04","username":"diana ivette.","realname":"","favedate":"1358686972","iconserver":"8347","iconfarm":9,"contact":0,"friend":0,"family":0},{"nsid":"12836528@N00","username":"kevin dooley","realname":"Kevin Dooley","favedate":"1350843902","iconserver":"171","iconfarm":1,"contact":0,"friend":0,"family":0}],"id":"3107756858","secret":"cfe532ae7f","server":"3046","farm":4,"page":1,"pages":12,"perpage":10,"total":"114"},"stat":"ok"}