{"photo":{"person":[{"nsid":"42625870@N05","username":"eliezede.com","realname":"Eli\u00e9zede Andrade","favedate":"1434058182","iconserver":"3713","iconfarm":4,"contact":0,"friend":0,"family":0},{"nsid":"123798291@N06","username":"divonsirborges61","realname":"Divonsir Borges","favedate":"1429879617","iconserver":"2927","iconfarm":3,"contact":0,"friend":0,"family":0},{"nsid":"127240223@N07","username":"jcdt777","realname":"juan carlos dominguez","favedate":"1418076983","iconserver":"0","iconfarm":0,"contact":0,"friend":0,"family":0},{"nsid":"34019995@N08","username":"maria georgiadou photography","realname":"maria georgiadou","favedate":"1414953780","iconserver":"3761","iconfarm":4,"contact":0,"friend":0,"family":0},{"nsid":"73445669@N06","username":"frefaith7777","realname":"teresa elder","favedate":"1410039147","iconserver":"5590","iconfarm":6,"contact":0,"friend":0,"family":0},{"nsid":"124771860@N08","username":"reginamcn","realname":"Regina Martin","favedate":"1403591094","iconserver":"0","iconfarm":0,"contact":0,"friend":0,"family":0},{"nsid":"44928159@N00","username":"Duveth","realname":"Du Veth","favedate":"1402380708","iconserver":"7567","iconfarm":8,"contact":0,"friend":0,"family":0},{"nsid":"9689101@N07","username":"hoai_n","realname":"","favedate":"1401626833","iconserver":"0","iconfarm":0,"contact":0,"friend":0,"family":0},{"nsid":"92355347@N05","username":"Paria1087","realname":"Paria Peyravi","favedate":"1399539155","iconserver":"7548","iconfarm":8,"contact":0,"friend":0,"family":0},{"nsid":"124336398@N08","username":"cuawhawj","realname":"Chun Li","favedate":"1399105213","iconserver":"0","iconfarm":0,"contact":0,"friend":0,"family":0}],"id":"7997890993","secret":"b4c09578da","server":"8032","farm":9,"page":1,"pages":2,"perpage":10,"total":"20"},"stat":"ok"}