{"photo":{"person":[{"nsid":"125603441@N03","username":"AsPennas","realname":"Asterios Pennas","favedate":"1406630296","iconserver":"5346","iconfarm":6,"contact":0,"friend":0,"family":0},{"nsid":"108781576@N08","username":"roberthughes145","realname":"robert hughes","favedate":"1405344398","iconserver":"3756","iconfarm":4,"contact":0,"friend":0,"family":0},{"nsid":"126031035@N05","username":"jadealixphotography","realname":"Jade","favedate":"1405157284","iconserver":"3875","iconfarm":4,"contact":0,"friend":0,"family":0},{"nsid":"90461861@N04","username":"Michal Hruby Photography","realname":"Michal Hruby","favedate":"1404746588","iconserver":"7380","iconfarm":8,"contact":0,"friend":0,"family":0},{"nsid":"123766901@N06","username":"noi photos","realname":"","favedate":"1404739577","iconserver":"7390","iconfarm":8,"contact":0,"friend":0,"family":0},{"nsid":"124761945@N06","username":"vitalitrofimov","realname":"vitali trofimov","favedate":"1404738192","iconserver":"7461","iconfarm":8,"contact":0,"friend":0,"family":0},{"nsid":"46944516@N00","username":"pedrosimoes7","realname":"Pedro Ribeiro Sim\u00f5es","favedate":"1404737826","iconserver":"3886","iconfarm":4,"contact":0,"friend":0,"family":0},{"nsid":"104094986@N06","username":"Discover Me!","realname":"Matthew Smith","favedate":"1404737291","iconserver":"7297","iconfarm":8,"contact":0,"friend":0,"family":0},{"nsid":"118403141@N02","username":"jeans.man59","realname":"Jeans Man59","favedate":"1404737055","iconserver":"5616","iconfarm":6,"contact":0,"friend":0,"family":0},{"nsid":"124333181@N08","username":"lucasantini75","realname":"luca santini","favedate":"1404736626","iconserver":"3812","iconfarm":4,"contact":0,"friend":0,"family":0}],"id":"6433676989","secret":"1f19ccae37","server":"7010","farm":8,"page":1,"pages":6,"perpage":10,"total":"51"},"stat":"ok"}