{"photo":{"person":[{"nsid":"21207178@N07","username":"Batikart","realname":"Uschi","favedate":"1435435408","iconserver":"8131","iconfarm":9,"contact":0,"friend":0,"family":0},{"nsid":"82296211@N08","username":"steigiotto","realname":"","favedate":"1430115609","iconserver":"8094","iconfarm":9,"contact":0,"friend":0,"family":0},{"nsid":"43424851@N08","username":"turn off your computer and go outside","realname":"","favedate":"1427075901","iconserver":"3762","iconfarm":4,"contact":0,"friend":0,"family":0},{"nsid":"34330381@N08","username":"Gerald Ow","realname":"Gerald Ow","favedate":"1421374216","iconserver":"7309","iconfarm":8,"contact":0,"friend":0,"family":0},{"nsid":"97502569@N06","username":"rayram2359","realname":"raymundo ramirez","favedate":"1421169220","iconserver":"2811","iconfarm":3,"contact":0,"friend":0,"family":0},{"nsid":"44520651@N06","username":"FOTOS PARA PASAR EL RATO","realname":"","favedate":"1418767454","iconserver":"3874","iconfarm":4,"contact":0,"friend":0,"family":0},{"nsid":"128719199@N04","username":"ramunas-hawk photography","realname":"Ramunas Vanagas","favedate":"1418545016","iconserver":"7650","iconfarm":8,"contact":0,"friend":0,"family":0},{"nsid":"107913974@N04","username":"Pancho Varela","realname":"Francisco Varela","favedate":"1417881243","iconserver":"3670","iconfarm":4,"contact":0,"friend":0,"family":0},{"nsid":"95855108@N06","username":"G ..Thank you for the millions & millions of views","realname":"Gary Schade","favedate":"1415938463","iconserver":"5463","iconfarm":6,"contact":0,"friend":0,"family":0},{"nsid":"45682921@N06","username":"fotopuppy","realname":"","favedate":"1415563709","iconserver":"1387","iconfarm":2,"contact":0,"friend":0,"family":0}],"id":"14992165533","secret":"3ab424493d","server":"5615","farm":6,"page":1,"pages":5,"perpage":10,"total":"48"},"stat":"ok"}