{"photo":{"person":[{"nsid":"24702042@N08","username":"deerpix","realname":"BOB HUEBNER","favedate":"1433087390","iconserver":"2809","iconfarm":3,"contact":0,"friend":0,"family":0},{"nsid":"93161065@N07","username":"pepoexpress - A few million thanks!","realname":"pepoexpress,  Madrid fun street!","favedate":"1431954605","iconserver":"3713","iconfarm":4,"contact":0,"friend":0,"family":0},{"nsid":"131195263@N06","username":"noa.noa2015","realname":"Noa Noa","favedate":"1430228523","iconserver":"7633","iconfarm":8,"contact":0,"friend":0,"family":0},{"nsid":"132631252@N05","username":"danielleclark888","realname":"Danielle Clark","favedate":"1429586442","iconserver":"0","iconfarm":0,"contact":0,"friend":0,"family":0},{"nsid":"125768867@N04","username":"jospedro_cordeiro","realname":"Jos\u00e9 Pedro Cordeiro","favedate":"1428800205","iconserver":"3873","iconfarm":4,"contact":0,"friend":0,"family":0},{"nsid":"65243203@N02","username":"\u745c\u73c9","realname":"\u745c\u73c9 \u5f20","favedate":"1428585263","iconserver":"8872","iconfarm":9,"contact":0,"friend":0,"family":0},{"nsid":"130481752@N07","username":"phcphmhong15","realname":"","favedate":"1428466579","iconserver":"8607","iconfarm":9,"contact":0,"friend":0,"family":0},{"nsid":"100312562@N04","username":"basbaz","realname":"Bas Baz","favedate":"1428462294","iconserver":"2857","iconfarm":3,"contact":0,"friend":0,"family":0},{"nsid":"107353128@N08","username":"poru0812","realname":"kenta tanaka","favedate":"1428461776","iconserver":"5519","iconfarm":6,"contact":0,"friend":0,"family":0},{"nsid":"96474289@N03","username":"ZAN570","realname":"KAI | ZAN57 | ZAN Studios","favedate":"1428448438","iconserver":"5610","iconfarm":6,"contact":0,"friend":0,"family":0}],"id":"16877946828","secret":"3cdd450609","server":"7670","farm":8,"page":1,"pages":3,"perpage":10,"total":"21"},"stat":"ok"}