{"photo":{"person":[{"nsid":"97209723@N02","username":"88_as_you_see_","realname":"\uc7ac\uc131 \uc774","favedate":"1404476446","iconserver":"3847","iconfarm":4,"contact":0,"friend":0,"family":0},{"nsid":"75649106@N04","username":"Sunday Money","realname":"Jeff Reardon","favedate":"1400452256","iconserver":"7357","iconfarm":8,"contact":0,"friend":0,"family":0},{"nsid":"61761272@N02","username":"ren leon","realname":"leon","favedate":"1399729702","iconserver":"3688","iconfarm":4,"contact":0,"friend":0,"family":0},{"nsid":"82782118@N07","username":"Studio76.se","realname":"Yahya al Khatib","favedate":"1399472043","iconserver":"7427","iconfarm":8,"contact":0,"friend":0,"family":0},{"nsid":"15107442@N00","username":"Hsuanya Tsai","realname":"","favedate":"1399456096","iconserver":"7313","iconfarm":8,"contact":0,"friend":0,"family":0},{"nsid":"39438869@N07","username":"Wang Sanjin","realname":"Yiqiao Wang","favedate":"1399425424","iconserver":"8102","iconfarm":9,"contact":0,"friend":0,"family":0},{"nsid":"76935125@N07","username":"VickyKitty","realname":"Vicky","favedate":"1399346604","iconserver":"7354","iconfarm":8,"contact":0,"friend":0,"family":0},{"nsid":"93073021@N00","username":"smata2","realname":"","favedate":"1399335788","iconserver":"8263","iconfarm":9,"contact":0,"friend":0,"family":0},{"nsid":"73491591@N07","username":"yoshi_2012","realname":"Yoshihiro Sakai","favedate":"1399330041","iconserver":"7156","iconfarm":8,"contact":0,"friend":0,"family":0},{"nsid":"72577687@N02","username":"Jessica Ceron Photography","realname":"","favedate":"1399305411","iconserver":"354","iconfarm":1,"contact":0,"friend":0,"family":0}],"id":"13924028988","secret":"37cf4eaf08","server":"7395","farm":8,"page":1,"pages":3,"perpage":10,"total":"22"},"stat":"ok"}