{"photo":{"person":[{"nsid":"17685557@N02","username":"Xocoatz\u00edn","realname":"","favedate":"1435329953","iconserver":"503","iconfarm":1,"contact":0,"friend":0,"family":0},{"nsid":"42429765@N07","username":"irina_rosca","realname":"","favedate":"1434439912","iconserver":"304","iconfarm":1,"contact":0,"friend":0,"family":0},{"nsid":"123689967@N07","username":"Saarblitz","realname":"","favedate":"1434318244","iconserver":"2938","iconfarm":3,"contact":0,"friend":0,"family":0},{"nsid":"52722219@N02","username":". c a n d i d a .","realname":"Candida Fedeli","favedate":"1434316569","iconserver":"7281","iconfarm":8,"contact":0,"friend":0,"family":0},{"nsid":"128962307@N03","username":"Newman, JA","realname":"","favedate":"1434309893","iconserver":"5333","iconfarm":6,"contact":0,"friend":0,"family":0},{"nsid":"88343576@N04","username":"beachtime12","realname":"Chris Jonte","favedate":"1434284002","iconserver":"5560","iconfarm":6,"contact":0,"friend":0,"family":0},{"nsid":"121809807@N06","username":"ferrerjosepm1","realname":"Josep M Ferrer","favedate":"1434270554","iconserver":"3928","iconfarm":4,"contact":0,"friend":0,"family":0},{"nsid":"67995121@N03","username":"Massimo Greco \u00b0","realname":"Massimo Greco","favedate":"1434261613","iconserver":"7310","iconfarm":8,"contact":0,"friend":0,"family":0},{"nsid":"89503623@N08","username":"Lesley A Butler","realname":"","favedate":"1434252661","iconserver":"2878","iconfarm":3,"contact":0,"friend":0,"family":0},{"nsid":"95842768@N06","username":"BeanheadWisconsin","realname":"Eileen","favedate":"1434249176","iconserver":"8832","iconfarm":9,"contact":0,"friend":0,"family":0}],"id":"18163086733","secret":"9dc53ec6e4","server":"533","farm":1,"page":1,"pages":2,"perpage":10,"total":"12"},"stat":"ok"}