{"photo":{"person":[{"nsid":"126235453@N03","username":"Jeff DuBay","realname":"Jeff DuBay","favedate":"1434891746","iconserver":"7471","iconfarm":8,"contact":0,"friend":0,"family":0},{"nsid":"13675180@N08","username":"bjarne.stokke","realname":"","favedate":"1434839945","iconserver":"5345","iconfarm":6,"contact":0,"friend":0,"family":0},{"nsid":"24249459@N03","username":"cynTEAa","realname":"Cynthia fazekas","favedate":"1434835128","iconserver":"3178","iconfarm":4,"contact":0,"friend":0,"family":0},{"nsid":"95842768@N06","username":"BeanheadWisconsin","realname":"Eileen","favedate":"1434774785","iconserver":"8832","iconfarm":9,"contact":0,"friend":0,"family":0},{"nsid":"77014757@N04","username":"PhotoJoy Photography","realname":"Joylynn Graham","favedate":"1434762786","iconserver":"5467","iconfarm":6,"contact":0,"friend":0,"family":0},{"nsid":"130229826@N04","username":"Pep's Hiking Team","realname":"Outdoorsgal","favedate":"1434754309","iconserver":"8737","iconfarm":9,"contact":0,"friend":0,"family":0},{"nsid":"100851286@N08","username":"Giuseppe Cocchieri","realname":"Giuseppe Cocchieri","favedate":"1434751886","iconserver":"2898","iconfarm":3,"contact":0,"friend":0,"family":0},{"nsid":"45129332@N07","username":"dtrsommer","realname":"Dieter Sommer","favedate":"1434749373","iconserver":"3727","iconfarm":4,"contact":0,"friend":0,"family":0},{"nsid":"128962307@N03","username":"Newman, JA","realname":"","favedate":"1434746981","iconserver":"5333","iconfarm":6,"contact":0,"friend":0,"family":0},{"nsid":"123689967@N07","username":"Saarblitz","realname":"","favedate":"1434742589","iconserver":"2938","iconfarm":3,"contact":0,"friend":0,"family":0}],"id":"18770494578","secret":"97e32d6342","server":"535","farm":1,"page":1,"pages":2,"perpage":10,"total":"13"},"stat":"ok"}