{"photo":{"person":[{"nsid":"125456917@N02","username":"projectweather_hk","realname":"Project Weather Helen","favedate":"1414175725","iconserver":"2923","iconfarm":3,"contact":0,"friend":0,"family":0},{"nsid":"84597858@N00","username":"Luana 0201","realname":"Luana","favedate":"1395036753","iconserver":"7751","iconfarm":8,"contact":0,"friend":0,"family":0},{"nsid":"27248374@N04","username":"MarculescuEugenIancuD60Alaska","realname":"","favedate":"1395035383","iconserver":"2932","iconfarm":3,"contact":0,"friend":0,"family":0},{"nsid":"96981888@N02","username":"jospedrocordeiro","realname":"Jos\u00e9 Pedro Cordeiro","favedate":"1388407366","iconserver":"7447","iconfarm":8,"contact":0,"friend":0,"family":0},{"nsid":"7489904@N03","username":"billdsym","realname":"william digman symington","favedate":"1388094255","iconserver":"2879","iconfarm":3,"contact":0,"friend":0,"family":0},{"nsid":"101209796@N06","username":"Mink Jones","realname":"","favedate":"1388071679","iconserver":"5477","iconfarm":6,"contact":0,"friend":0,"family":0},{"nsid":"93608894@N02","username":"Jean-Pierre ARIBAU","realname":"Jean-Pierre  ARIBAU","favedate":"1387990243","iconserver":"5482","iconfarm":6,"contact":0,"friend":0,"family":0},{"nsid":"56594709@N04","username":"seto.wai","realname":"","favedate":"1387932737","iconserver":"5254","iconfarm":6,"contact":0,"friend":0,"family":0},{"nsid":"23132567@N03","username":"leograttoni","realname":"Leontina Elsa Grattoni","favedate":"1387793353","iconserver":"7446","iconfarm":8,"contact":0,"friend":0,"family":0},{"nsid":"9320398@N08","username":"Flick'gAbility","realname":"","favedate":"1387782001","iconserver":"6135","iconfarm":7,"contact":0,"friend":0,"family":0}],"id":"11493977556","secret":"311479664e","server":"2848","farm":3,"page":1,"pages":7,"perpage":10,"total":"63"},"stat":"ok"}