{"photo":{"person":[{"nsid":"132910064@N07","username":"melanie.berg67","realname":"","favedate":"1436994385","iconserver":"422","iconfarm":1,"contact":0,"friend":0,"family":0},{"nsid":"134568086@N03","username":"barbara4amadio","realname":"B\u00e1rbara Am\u00e1dio","favedate":"1436991164","iconserver":"354","iconfarm":1,"contact":0,"friend":0,"family":0},{"nsid":"10786632@N02","username":"Peachhead (3,000,000 views!)","realname":"","favedate":"1368653021","iconserver":"7372","iconfarm":8,"contact":0,"friend":0,"family":0},{"nsid":"48320285@N02","username":"Carmen Q.1","realname":"Carmen Q.  M.","favedate":"1360529321","iconserver":"8527","iconfarm":9,"contact":0,"friend":0,"family":0},{"nsid":"99749220@N00","username":"DigiDi","realname":"","favedate":"1359435400","iconserver":"280","iconfarm":1,"contact":0,"friend":0,"family":0},{"nsid":"10112197@N02","username":"jaciii (off&on)","realname":"","favedate":"1357086144","iconserver":"1060","iconfarm":2,"contact":0,"friend":0,"family":0},{"nsid":"77748878@N05","username":"BradCraig","realname":"Brad Craig","favedate":"1356163647","iconserver":"7344","iconfarm":8,"contact":0,"friend":0,"family":0},{"nsid":"11202248@N04","username":"\u2606 Susyfox \u2606","realname":"Susanna Volpe","favedate":"1355918018","iconserver":"3681","iconfarm":4,"contact":0,"friend":0,"family":0},{"nsid":"38135341@N08","username":"Mumu24","realname":"","favedate":"1339686965","iconserver":"4013","iconfarm":5,"contact":0,"friend":0,"family":0},{"nsid":"38316684@N06","username":"OlyaA (busy)","realname":"","favedate":"1338438826","iconserver":"2026","iconfarm":3,"contact":0,"friend":0,"family":0}],"id":"6979167237","secret":"4464b05320","server":"7204","farm":8,"page":1,"pages":2,"perpage":10,"total":"15"},"stat":"ok"}