{"photo":{"person":[{"nsid":"97209723@N02","username":"88_as_you_see_","realname":"\uc7ac\uc131 \uc774","favedate":"1404476448","iconserver":"3847","iconfarm":4,"contact":0,"friend":0,"family":0},{"nsid":"51925140@N05","username":"fabio lf petry","realname":"","favedate":"1402063564","iconserver":"378","iconfarm":1,"contact":0,"friend":0,"family":0},{"nsid":"15107442@N00","username":"Hsuanya Tsai","realname":"","favedate":"1399456138","iconserver":"7313","iconfarm":8,"contact":0,"friend":0,"family":0},{"nsid":"82782118@N07","username":"Studio76.se","realname":"Yahya al Khatib","favedate":"1399193090","iconserver":"7427","iconfarm":8,"contact":0,"friend":0,"family":0},{"nsid":"9146679@N05","username":"Daniel.[V]","realname":"im danielv","favedate":"1399049289","iconserver":"3227","iconfarm":4,"contact":0,"friend":0,"family":0},{"nsid":"98130588@N08","username":"FotodioxPro","realname":"Fotodiox Pro","favedate":"1399042144","iconserver":"7365","iconfarm":8,"contact":0,"friend":0,"family":0},{"nsid":"65170107@N08","username":"Sara F. Massieu","realname":"","favedate":"1399040995","iconserver":"3743","iconfarm":4,"contact":0,"friend":0,"family":0},{"nsid":"93868712@N05","username":"Zaparowana","realname":"","favedate":"1399029955","iconserver":"2941","iconfarm":3,"contact":0,"friend":0,"family":0},{"nsid":"97151496@N02","username":"Suzuki.s","realname":"","favedate":"1399022349","iconserver":"3765","iconfarm":4,"contact":0,"friend":0,"family":0},{"nsid":"9583693@N03","username":"Armando G Alonso \u2708\ufe0e","realname":"Armando G Alonso","favedate":"1399020416","iconserver":"8260","iconfarm":9,"contact":0,"friend":0,"family":0}],"id":"14085359535","secret":"ebd7b69661","server":"7391","farm":8,"page":1,"pages":3,"perpage":10,"total":"22"},"stat":"ok"}