{"photo":{"person":[{"nsid":"97209723@N02","username":"88_as_you_see_","realname":"\uc7ac\uc131 \uc774","favedate":"1404476448","iconserver":"3847","iconfarm":4,"contact":0,"friend":0,"family":0},{"nsid":"104486340@N03","username":"jm.fikko","realname":"JM Fikko","favedate":"1399894488","iconserver":"3673","iconfarm":4,"contact":0,"friend":0,"family":0},{"nsid":"15107442@N00","username":"Hsuanya Tsai","realname":"","favedate":"1399456121","iconserver":"7313","iconfarm":8,"contact":0,"friend":0,"family":0},{"nsid":"82782118@N07","username":"Studio76.se","realname":"Yahya al Khatib","favedate":"1399193088","iconserver":"7427","iconfarm":8,"contact":0,"friend":0,"family":0},{"nsid":"73491591@N07","username":"yoshi_2012","realname":"Yoshihiro Sakai","favedate":"1399193081","iconserver":"7156","iconfarm":8,"contact":0,"friend":0,"family":0},{"nsid":"66369955@N06","username":"Noelle Mitchell Photography","realname":"Noelle Mitchell","favedate":"1399191413","iconserver":"3720","iconfarm":4,"contact":0,"friend":0,"family":0},{"nsid":"81343047@N08","username":"pal1rus","realname":"Pal Sol","favedate":"1399189340","iconserver":"3666","iconfarm":4,"contact":0,"friend":0,"family":0},{"nsid":"91506438@N02","username":"gdeus","realname":"","favedate":"1399171029","iconserver":"8081","iconfarm":9,"contact":0,"friend":0,"family":0},{"nsid":"79478675@N06","username":"Scrufftie","realname":"","favedate":"1399157601","iconserver":"2815","iconfarm":3,"contact":0,"friend":0,"family":0},{"nsid":"59224710@N06","username":"Willis.La","realname":"","favedate":"1399144286","iconserver":"5278","iconfarm":6,"contact":0,"friend":0,"family":0}],"id":"14093103615","secret":"e3a8187f3f","server":"2897","farm":3,"page":1,"pages":2,"perpage":10,"total":"20"},"stat":"ok"}