{"photo":{"person":[{"nsid":"8477852@N07","username":"afuertesm","realname":"Alberto Fuertes","favedate":"1420497799","iconserver":"3341","iconfarm":4,"contact":0,"friend":0,"family":0},{"nsid":"127746089@N05","username":"camilletaekwondo","realname":"","favedate":"1418864148","iconserver":"285","iconfarm":1,"contact":0,"friend":0,"family":0},{"nsid":"67151279@N08","username":"haapynot","realname":"","favedate":"1403348263","iconserver":"0","iconfarm":0,"contact":0,"friend":0,"family":0},{"nsid":"63233905@N05","username":"twylaburger","realname":"Twyla Burger","favedate":"1387601995","iconserver":"3713","iconfarm":4,"contact":0,"friend":0,"family":0},{"nsid":"91776325@N02","username":"Silvia Bonsi","realname":"Silvia Bonsi","favedate":"1360770691","iconserver":"3671","iconfarm":4,"contact":0,"friend":0,"family":0},{"nsid":"28726427@N06","username":"mddp12","realname":"","favedate":"1321822443","iconserver":"7116","iconfarm":8,"contact":0,"friend":0,"family":0},{"nsid":"62914766@N08","username":"nine9nine9","realname":"J. Paul DiMaggio","favedate":"1321157240","iconserver":"7411","iconfarm":8,"contact":0,"friend":0,"family":0},{"nsid":"49352452@N05","username":"daisuke344","realname":"Daisuke Miyoshi","favedate":"1314302737","iconserver":"4128","iconfarm":5,"contact":0,"friend":0,"family":0},{"nsid":"32487834@N04","username":"kash1764","realname":"sada kalo","favedate":"1311749218","iconserver":"3445","iconfarm":4,"contact":0,"friend":0,"family":0},{"nsid":"27992721@N06","username":"dianne_smith","realname":"Dianne Smith","favedate":"1306733025","iconserver":"8404","iconfarm":9,"contact":0,"friend":0,"family":0}],"id":"5287911897","secret":"ebf37d19e4","server":"5123","farm":6,"page":1,"pages":6,"perpage":10,"total":"53"},"stat":"ok"}