{"photo":{"person":[{"nsid":"43356667@N00","username":"Rafael Rodr\u00edguez H.","realname":"","favedate":"1404702020","iconserver":"2908","iconfarm":3,"contact":0,"friend":0,"family":0},{"nsid":"80861150@N07","username":"manposanpo","realname":"","favedate":"1404561410","iconserver":"8265","iconfarm":9,"contact":0,"friend":0,"family":0},{"nsid":"60142567@N05","username":"Paxtorino","realname":"","favedate":"1404341051","iconserver":"3679","iconfarm":4,"contact":0,"friend":0,"family":0},{"nsid":"109142838@N06","username":"carmelomoramacia","realname":"carmelo mora macia","favedate":"1403890213","iconserver":"7356","iconfarm":8,"contact":0,"friend":0,"family":0},{"nsid":"88795127@N02","username":"LPiH","realname":"Louis-Pierre Henry","favedate":"1403876256","iconserver":"2808","iconfarm":3,"contact":0,"friend":0,"family":0},{"nsid":"98179361@N03","username":"desouto","realname":"","favedate":"1403691942","iconserver":"2853","iconfarm":3,"contact":0,"friend":0,"family":0},{"nsid":"111448077@N06","username":"Bethula99","realname":"","favedate":"1403680589","iconserver":"3847","iconfarm":4,"contact":0,"friend":0,"family":0},{"nsid":"124909709@N02","username":"ap.frier","realname":"Andrew Frier","favedate":"1403669268","iconserver":"3749","iconfarm":4,"contact":0,"friend":0,"family":0},{"nsid":"93414716@N08","username":"Ken Mickel","realname":"Ken","favedate":"1403663704","iconserver":"2814","iconfarm":3,"contact":0,"friend":0,"family":0},{"nsid":"100016856@N08","username":"maco-nonch\u2605R","realname":"","favedate":"1403660843","iconserver":"3870","iconfarm":4,"contact":0,"friend":0,"family":0}],"id":"14499957355","secret":"f2dde735df","server":"2933","farm":3,"page":1,"pages":2,"perpage":10,"total":"14"},"stat":"ok"}