{"photo":{"person":[{"nsid":"129382603@N05","username":"Filippo Peretti, Cagliari","realname":"","favedate":"1433972898","iconserver":"7285","iconfarm":8,"contact":0,"friend":0,"family":0},{"nsid":"66649794@N08","username":"el zopilote","realname":"Jorge Guadalupe Liz\u00e1rraga","favedate":"1416984443","iconserver":"8882","iconfarm":9,"contact":0,"friend":0,"family":0},{"nsid":"78322331@N06","username":"s_inagaki","realname":"satoshi inagaki","favedate":"1390576936","iconserver":"3782","iconfarm":4,"contact":0,"friend":0,"family":0},{"nsid":"97641881@N02","username":"Nikonfan1346","realname":"","favedate":"1390558778","iconserver":"3812","iconfarm":4,"contact":0,"friend":0,"family":0},{"nsid":"90955804@N04","username":"Ted's photos - For me & you","realname":"Ted McGrath","favedate":"1390438407","iconserver":"8073","iconfarm":9,"contact":0,"friend":0,"family":0},{"nsid":"24876527@N07","username":"Black Napkin","realname":"","favedate":"1390023520","iconserver":"7701","iconfarm":8,"contact":0,"friend":0,"family":0},{"nsid":"91957276@N04","username":"ECC Edward","realname":"ECC Edward","favedate":"1389366582","iconserver":"0","iconfarm":0,"contact":0,"friend":0,"family":0},{"nsid":"30033998@N03","username":"Daniel Ibanez Amo","realname":"","favedate":"1389348411","iconserver":"3753","iconfarm":4,"contact":0,"friend":0,"family":0},{"nsid":"108221267@N06","username":"Nalaofmoonlight ( VACATION! BACK SOON!! )","realname":"","favedate":"1389345982","iconserver":"7285","iconfarm":8,"contact":0,"friend":0,"family":0},{"nsid":"58306981@N03","username":"RW-V","realname":"Ren\u00e9 Vetter","favedate":"1389294618","iconserver":"7370","iconfarm":8,"contact":0,"friend":0,"family":0}],"id":"11844234633","secret":"ce8d2006cf","server":"5508","farm":6,"page":1,"pages":3,"perpage":10,"total":"22"},"stat":"ok"}