{"photo":{"person":[{"nsid":"25892326@N02","username":"guolu5201","realname":"","favedate":"1428245518","iconserver":"0","iconfarm":0,"contact":0,"friend":0,"family":0},{"nsid":"42289168@N08","username":"Franz-Rudolph","realname":"","favedate":"1424430154","iconserver":"7574","iconfarm":8,"contact":0,"friend":0,"family":0},{"nsid":"74848418@N04","username":"mars3705","realname":"","favedate":"1420393969","iconserver":"260","iconfarm":1,"contact":0,"friend":0,"family":0},{"nsid":"100699774@N03","username":"Lotsoh","realname":"","favedate":"1418399793","iconserver":"5486","iconfarm":6,"contact":0,"friend":0,"family":0},{"nsid":"79510655@N08","username":"dee_dee_creamer","realname":"","favedate":"1413976524","iconserver":"7348","iconfarm":8,"contact":0,"friend":0,"family":0},{"nsid":"101532154@N06","username":"\u039a\u03c9\u03bd\u03c3\u03c4\u03b1\u03bd\u03c4\u03b9\u03bd\u03bf\u03c2 \u039c\u03b1\u03bd\u03c4\u03b9\u03b4\u03b7\u03c2","realname":"Konstantinos Mantidis","favedate":"1413396213","iconserver":"7644","iconfarm":8,"contact":0,"friend":0,"family":0},{"nsid":"64659159@N02","username":"Gabriel FW Koch","realname":"Gabriel F.W. Koch","favedate":"1413215140","iconserver":"7342","iconfarm":8,"contact":0,"friend":0,"family":0},{"nsid":"99757250@N07","username":"fools4tress","realname":"Harald (fools4tress)","favedate":"1412340104","iconserver":"7421","iconfarm":8,"contact":0,"friend":0,"family":0},{"nsid":"125476105@N02","username":"Heiner Engbrocks","realname":"Heiner Engbrocks","favedate":"1411307256","iconserver":"548","iconfarm":1,"contact":0,"friend":0,"family":0},{"nsid":"127018827@N05","username":"timastrass","realname":"Tim A. Stra\u00df Stra\u00df","favedate":"1410762952","iconserver":"0","iconfarm":0,"contact":0,"friend":0,"family":0}],"id":"14949544559","secret":"7e7bfe274f","server":"3848","farm":4,"page":1,"pages":2,"perpage":10,"total":"11"},"stat":"ok"}