{"photo":{"person":[{"nsid":"132462983@N03","username":"bobparman913","realname":"Bob Parman","favedate":"1436472268","iconserver":"482","iconfarm":1,"contact":0,"friend":0,"family":0},{"nsid":"125439606@N05","username":"T.ye","realname":"Todd Ye","favedate":"1434436590","iconserver":"5157","iconfarm":6,"contact":0,"friend":0,"family":0},{"nsid":"24702042@N08","username":"deerpix","realname":"BOB HUEBNER","favedate":"1433087384","iconserver":"2809","iconfarm":3,"contact":0,"friend":0,"family":0},{"nsid":"123856898@N06","username":"AlexandreRR","realname":"Alexandre Ricardo","favedate":"1432081485","iconserver":"506","iconfarm":1,"contact":0,"friend":0,"family":0},{"nsid":"100061496@N08","username":"jojo 28","realname":"Jo Jo","favedate":"1430437029","iconserver":"0","iconfarm":0,"contact":0,"friend":0,"family":0},{"nsid":"93161065@N07","username":"pepoexpress - A few million thanks!","realname":"pepoexpress,  Madrid fun street!","favedate":"1429464227","iconserver":"3713","iconfarm":4,"contact":0,"friend":0,"family":0},{"nsid":"21186555@N07","username":"Ray in Manila","realname":"","favedate":"1428810799","iconserver":"7379","iconfarm":8,"contact":0,"friend":0,"family":0},{"nsid":"125768867@N04","username":"jospedro_cordeiro","realname":"Jos\u00e9 Pedro Cordeiro","favedate":"1428800204","iconserver":"3873","iconfarm":4,"contact":0,"friend":0,"family":0},{"nsid":"57666876@N08","username":"perlaroques","realname":"perlaroques","favedate":"1428762445","iconserver":"7379","iconfarm":8,"contact":0,"friend":0,"family":0},{"nsid":"65243203@N02","username":"\u745c\u73c9","realname":"\u745c\u73c9 \u5f20","favedate":"1428633393","iconserver":"8872","iconfarm":9,"contact":0,"friend":0,"family":0}],"id":"16445582473","secret":"6746833764","server":"7610","farm":8,"page":1,"pages":4,"perpage":10,"total":"32"},"stat":"ok"}