{"photo":{"person":[{"nsid":"45232328@N00","username":"d315thedeity","realname":"Lisa","favedate":"1432937597","iconserver":"7598","iconfarm":8,"contact":0,"friend":0,"family":0},{"nsid":"13160720@N07","username":"vboeckli","realname":"","favedate":"1432459513","iconserver":"7037","iconfarm":8,"contact":0,"friend":0,"family":0},{"nsid":"85459485@N08","username":"Nstajn","realname":"","favedate":"1432282863","iconserver":"5557","iconfarm":6,"contact":0,"friend":0,"family":0},{"nsid":"61357928@N05","username":"sharko333","realname":"Stefan H","favedate":"1430906011","iconserver":"3897","iconfarm":4,"contact":0,"friend":0,"family":0},{"nsid":"45464860@N08","username":"Bluespete","realname":"Peter Sieling","favedate":"1430671723","iconserver":"3766","iconfarm":4,"contact":0,"friend":0,"family":0},{"nsid":"130754245@N07","username":"karen.hawes789","realname":"karen hawes","favedate":"1430589965","iconserver":"8813","iconfarm":9,"contact":0,"friend":0,"family":0},{"nsid":"40354867@N04","username":"MB aus D","realname":"","favedate":"1430473615","iconserver":"2491","iconfarm":3,"contact":0,"friend":0,"family":0},{"nsid":"40121221@N04","username":"Mado46","realname":"Martin","favedate":"1430469962","iconserver":"8606","iconfarm":9,"contact":0,"friend":0,"family":0},{"nsid":"8366733@N05","username":"mandalaybus","realname":"","favedate":"1430222513","iconserver":"2857","iconfarm":3,"contact":0,"friend":0,"family":0},{"nsid":"113819844@N05","username":"dan_ober","realname":"Dan Ober","favedate":"1430079375","iconserver":"8619","iconfarm":9,"contact":0,"friend":0,"family":0}],"id":"17046568359","secret":"cd4b552b3e","server":"7693","farm":8,"page":1,"pages":4,"perpage":10,"total":"32"},"stat":"ok"}