{"photo":{"person":[{"nsid":"129764300@N08","username":"Isuann L.","realname":"","favedate":"1426887222","iconserver":"8890","iconfarm":9,"contact":0,"friend":0,"family":0},{"nsid":"32299190@N06","username":"ewaldmario","realname":"ewald mario","favedate":"1426797059","iconserver":"8579","iconfarm":9,"contact":0,"friend":0,"family":0},{"nsid":"129005581@N06","username":"Stefano Fili\u00e8 Photography","realname":"Stefano Fili\u00e8","favedate":"1426795102","iconserver":"8843","iconfarm":9,"contact":0,"friend":0,"family":0},{"nsid":"125561682@N08","username":"D Schwarz Photography","realname":"TheGuyCalledDennis","favedate":"1426445679","iconserver":"8649","iconfarm":9,"contact":0,"friend":0,"family":0},{"nsid":"65949682@N00","username":"OR_U","realname":"Oliver","favedate":"1426408831","iconserver":"7454","iconfarm":8,"contact":0,"friend":0,"family":0},{"nsid":"128393778@N03","username":"Sabrina Farro","realname":"","favedate":"1426390019","iconserver":"7588","iconfarm":8,"contact":0,"friend":0,"family":0},{"nsid":"124075276@N04","username":"imhof.patrick","realname":"imhof patrick","favedate":"1426368415","iconserver":"301","iconfarm":1,"contact":0,"friend":0,"family":0},{"nsid":"124773805@N06","username":"Florian Grundstein","realname":"","favedate":"1426367847","iconserver":"5529","iconfarm":6,"contact":0,"friend":0,"family":0},{"nsid":"97084178@N05","username":"sebastianquante","realname":"sebastian Quante","favedate":"1426366165","iconserver":"7445","iconfarm":8,"contact":0,"friend":0,"family":0},{"nsid":"126687905@N03","username":"axel_fw","realname":"","favedate":"1426365412","iconserver":"8628","iconfarm":9,"contact":0,"friend":0,"family":0}],"id":"16625763208","secret":"ee87e39693","server":"8629","farm":9,"page":1,"pages":2,"perpage":10,"total":"18"},"stat":"ok"}