{"photo":{"person":[{"nsid":"131375613@N08","username":"gruberphilipp819","realname":"Philipp Gruber","favedate":"1427406430","iconserver":"7644","iconfarm":8,"contact":0,"friend":0,"family":0},{"nsid":"13250763@N02","username":"mucahidefendi","realname":"","favedate":"1427402995","iconserver":"8170","iconfarm":9,"contact":0,"friend":0,"family":0},{"nsid":"52725579@N05","username":"creativegaz","realname":"Gary Winfield","favedate":"1427366443","iconserver":"7703","iconfarm":8,"contact":0,"friend":0,"family":0},{"nsid":"68778436@N04","username":"The Open Wall (Catching Up)","realname":"","favedate":"1424153593","iconserver":"7306","iconfarm":8,"contact":0,"friend":0,"family":0},{"nsid":"25509772@N00","username":"Eustaquio Santimano","realname":"","favedate":"1424137259","iconserver":"8776","iconfarm":9,"contact":0,"friend":0,"family":0},{"nsid":"97632434@N07","username":"musette thierry","realname":"Thierry Musette","favedate":"1421609436","iconserver":"8816","iconfarm":9,"contact":0,"friend":0,"family":0},{"nsid":"125562668@N06","username":"still.driftingpembrokeshire","realname":"Pembrokeshire Coast-o-graphs","favedate":"1421527369","iconserver":"2922","iconfarm":3,"contact":0,"friend":0,"family":0},{"nsid":"38036558@N03","username":"Mike07922, 2.3 Million+ Views - thanks guys","realname":"","favedate":"1420919817","iconserver":"5494","iconfarm":6,"contact":0,"friend":0,"family":0},{"nsid":"96863354@N00","username":"max tuta noronha","realname":"Max Tuta Noronha","favedate":"1420433915","iconserver":"8123","iconfarm":9,"contact":0,"friend":0,"family":0},{"nsid":"92848652@N07","username":"Andi Gisel","realname":"","favedate":"1420421653","iconserver":"8845","iconfarm":9,"contact":0,"friend":0,"family":0}],"id":"5171324952","secret":"d3f2938422","server":"4148","farm":5,"page":1,"pages":4,"perpage":10,"total":"34"},"stat":"ok"}