{"photo":{"person":[{"nsid":"55790422@N02","username":"SNAPDECISIONS !","realname":"trevor","favedate":"1397342839","iconserver":"1276","iconfarm":2,"contact":0,"friend":0,"family":0},{"nsid":"43732164@N05","username":"\u043c\u03b9\u0455\u0455\u0443 \u2113\u03c5\u0438g\u03c5 on\/ off x)","realname":"","favedate":"1397327333","iconserver":"2747","iconfarm":3,"contact":0,"friend":0,"family":0},{"nsid":"98476483@N04","username":"Cheryl's Fine Art Photography","realname":"Cheryl S","favedate":"1397316784","iconserver":"7392","iconfarm":8,"contact":0,"friend":0,"family":0},{"nsid":"41896995@N05","username":"greenhillt","realname":"TONG","favedate":"1397277353","iconserver":"2491","iconfarm":3,"contact":0,"friend":0,"family":0},{"nsid":"68996768@N02","username":"itsphilsil","realname":"Luiz  Felipe","favedate":"1397272104","iconserver":"5103","iconfarm":6,"contact":0,"friend":0,"family":0},{"nsid":"119514908@N03","username":"amandapaulinoo6","realname":"Amanda Paulino","favedate":"1397270291","iconserver":"8851","iconfarm":9,"contact":0,"friend":0,"family":0},{"nsid":"96532009@N08","username":"namhdyk","realname":"","favedate":"1397267754","iconserver":"7504","iconfarm":8,"contact":0,"friend":0,"family":0},{"nsid":"43102195@N08","username":"|| UggBoy\u2665UggGirl || PHOTO || WORLD || TRAVEL ||","realname":"","favedate":"1397261835","iconserver":"5450","iconfarm":6,"contact":0,"friend":0,"family":0},{"nsid":"40809474@N03","username":"PIPIQ","realname":"PIPIQ Lai","favedate":"1397261433","iconserver":"7313","iconfarm":8,"contact":0,"friend":0,"family":0},{"nsid":"78095692@N03","username":"m-miki","realname":"","favedate":"1397257238","iconserver":"5483","iconfarm":6,"contact":0,"friend":0,"family":0}],"id":"13785869354","secret":"4966022d9f","server":"2830","farm":3,"page":1,"pages":2,"perpage":10,"total":"12"},"stat":"ok"}