{"photo":{"person":[{"nsid":"47362589@N07","username":"SLin","realname":"","favedate":"1431482305","iconserver":"8574","iconfarm":9,"contact":0,"friend":0,"family":0},{"nsid":"100980148@N05","username":"orebrandonm","realname":"Brandon Ore","favedate":"1430841833","iconserver":"2941","iconfarm":3,"contact":0,"friend":0,"family":0},{"nsid":"128601170@N07","username":"michawm2","realname":"michael gust","favedate":"1430825553","iconserver":"0","iconfarm":0,"contact":0,"friend":0,"family":0},{"nsid":"120241063@N05","username":"Jolanda Donn\u00e9","realname":"Jolanda Donn\u00e9","favedate":"1430723986","iconserver":"3788","iconfarm":4,"contact":0,"friend":0,"family":0},{"nsid":"33322938@N05","username":"Le fabuleux destin d'Am\u00e9lie Poulain","realname":"","favedate":"1430680915","iconserver":"3049","iconfarm":4,"contact":0,"friend":0,"family":0},{"nsid":"96542190@N07","username":"tomfoxphotography.de","realname":"Tom Fox","favedate":"1430676388","iconserver":"5448","iconfarm":6,"contact":0,"friend":0,"family":0},{"nsid":"51480802@N02","username":"button one","realname":"","favedate":"1430675338","iconserver":"5520","iconfarm":6,"contact":0,"friend":0,"family":0},{"nsid":"18312520@N00","username":"Max Lieberwirth","realname":"Max Lieberwirth","favedate":"1430673775","iconserver":"3881","iconfarm":4,"contact":0,"friend":0,"family":0},{"nsid":"126427612@N06","username":"mller_gertrud","realname":"Gertrud M\u00fcller","favedate":"1430673770","iconserver":"0","iconfarm":0,"contact":0,"friend":0,"family":0},{"nsid":"105986374@N05","username":"Pixelgauner","realname":"","favedate":"1430669350","iconserver":"2816","iconfarm":3,"contact":0,"friend":0,"family":0}],"id":"17353757321","secret":"8e8fb67f91","server":"7692","farm":8,"page":1,"pages":2,"perpage":10,"total":"15"},"stat":"ok"}