{"photo":{"person":[{"nsid":"32695627@N05","username":"zaralawler","realname":"","favedate":"1243371790","iconserver":"0","iconfarm":0,"contact":0,"friend":0,"family":0},{"nsid":"49503077570@N01","username":"H & A","realname":"Hideki ANDO","favedate":"1235192321","iconserver":"97","iconfarm":1,"contact":0,"friend":0,"family":0},{"nsid":"32185567@N00","username":"Naoko E.","realname":"","favedate":"1182634481","iconserver":"151","iconfarm":1,"contact":0,"friend":0,"family":0},{"nsid":"8093905@N08","username":"fantartsy JJ *2013 year of LOVE!*","realname":"","favedate":"1181526008","iconserver":"3778","iconfarm":4,"contact":0,"friend":0,"family":0},{"nsid":"71423247@N00","username":"outro_olhar79","realname":"","favedate":"1181425404","iconserver":"3864","iconfarm":4,"contact":0,"friend":0,"family":0},{"nsid":"7274317@N03","username":"cheekybugger (mostly away)","realname":"","favedate":"1181405899","iconserver":"212","iconfarm":1,"contact":0,"friend":0,"family":0},{"nsid":"83953792@N00","username":"Em\u00edlia Couto Della-Porther","realname":"Emilia Couto Della-Porther","favedate":"1181389109","iconserver":"3391","iconfarm":4,"contact":0,"friend":0,"family":0},{"nsid":"58722587@N00","username":"mmarsupilami","realname":"","favedate":"1181382784","iconserver":"7398","iconfarm":8,"contact":0,"friend":0,"family":0},{"nsid":"77371991@N00","username":"C\u00e9sar Augusto","realname":"C\u00e9sar Augusto V. R.","favedate":"1181376174","iconserver":"3797","iconfarm":4,"contact":0,"friend":0,"family":0},{"nsid":"56232427@N00","username":"Don_Gato (LoFi Photography)","realname":"Toni","favedate":"1181368575","iconserver":"33","iconfarm":1,"contact":0,"friend":0,"family":0}],"id":"536802653","secret":"0d0d997423","server":"1037","farm":2,"page":1,"pages":2,"perpage":10,"total":"13"},"stat":"ok"}