{"photo":{"person":[{"nsid":"47590365@N07","username":"swaplus","realname":"","favedate":"1435093295","iconserver":"8361","iconfarm":9,"contact":0,"friend":0,"family":0},{"nsid":"123727742@N03","username":"Jose Manuel Cano","realname":"Jose M. Cano","favedate":"1431367773","iconserver":"3898","iconfarm":4,"contact":0,"friend":0,"family":0},{"nsid":"74142509@N06","username":"j mahon","realname":"james mahon","favedate":"1431280782","iconserver":"5510","iconfarm":6,"contact":0,"friend":0,"family":0},{"nsid":"37982904@N07","username":"anagrama2009","realname":"","favedate":"1431278865","iconserver":"7305","iconfarm":8,"contact":0,"friend":0,"family":0},{"nsid":"125186567@N06","username":"strjustin","realname":"justin Str","favedate":"1431186990","iconserver":"7631","iconfarm":8,"contact":0,"friend":0,"family":0},{"nsid":"114409020@N03","username":"joselorivera","realname":"Jos\u00e9 Luis de la Rosa Sghirla","favedate":"1431101403","iconserver":"2819","iconfarm":3,"contact":0,"friend":0,"family":0},{"nsid":"109724878@N08","username":"\u05de\u05d9\u05dc\u05d9 \u05e9\u05dc\u05d9","realname":"\u05de\u05d9\u05dc\u05d9 \u05e9\u05dc\u05d9","favedate":"1430801696","iconserver":"5530","iconfarm":6,"contact":0,"friend":0,"family":0},{"nsid":"37129591@N08","username":"Aram G.","realname":"Aram","favedate":"1430441636","iconserver":"3944","iconfarm":4,"contact":0,"friend":0,"family":0},{"nsid":"87908863@N05","username":"Juanjo RS","realname":"Juan Jose Rentero","favedate":"1430393064","iconserver":"7341","iconfarm":8,"contact":0,"friend":0,"family":0},{"nsid":"130223906@N02","username":"tanaka0511","realname":"tanaka kazui","favedate":"1430369173","iconserver":"8632","iconfarm":9,"contact":0,"friend":0,"family":0}],"id":"16672007754","secret":"9cfb7a5250","server":"7701","farm":8,"page":1,"pages":2,"perpage":10,"total":"16"},"stat":"ok"}