{"photo":{"person":[{"nsid":"73601520@N08","username":"\u25ac A n n a \u25ac","realname":"","favedate":"1423588883","iconserver":"475","iconfarm":1,"contact":0,"friend":0,"family":0},{"nsid":"110237155@N04","username":"JohnyBast","realname":"Evgeny Islamov","favedate":"1418420686","iconserver":"7327","iconfarm":8,"contact":0,"friend":0,"family":0},{"nsid":"128138810@N03","username":"Skvortsov Photography","realname":"Kita Skvortsov","favedate":"1417912851","iconserver":"7581","iconfarm":8,"contact":0,"friend":0,"family":0},{"nsid":"74828972@N00","username":"grapfapan","realname":"","favedate":"1410845724","iconserver":"3739","iconfarm":4,"contact":0,"friend":0,"family":0},{"nsid":"105074956@N06","username":"Michal Drzewicz","realname":"Michal Drzewicz","favedate":"1402237351","iconserver":"3777","iconfarm":4,"contact":0,"friend":0,"family":0},{"nsid":"57419260@N04","username":"Caius Gracchus","realname":"","favedate":"1399119796","iconserver":"7395","iconfarm":8,"contact":0,"friend":0,"family":0},{"nsid":"49824927@N02","username":"\"O\" Fotos","realname":"Orlando Rodr\u00edguez","favedate":"1395545515","iconserver":"430","iconfarm":1,"contact":0,"friend":0,"family":0},{"nsid":"70065633@N06","username":"Switch82","realname":"","favedate":"1395329066","iconserver":"8126","iconfarm":9,"contact":0,"friend":0,"family":0},{"nsid":"111693664@N04","username":"scotty NEX harper","realname":"Scott Harper","favedate":"1395292097","iconserver":"3828","iconfarm":4,"contact":0,"friend":0,"family":0},{"nsid":"82822842@N06","username":"Jorge Luis G","realname":"","favedate":"1395192293","iconserver":"7427","iconfarm":8,"contact":0,"friend":0,"family":0}],"id":"13114977785","secret":"66535874c9","server":"7330","farm":8,"page":1,"pages":17,"perpage":10,"total":"162"},"stat":"ok"}