{"photo":{"person":[{"nsid":"24702042@N08","username":"deerpix","realname":"BOB HUEBNER","favedate":"1433087440","iconserver":"2809","iconfarm":3,"contact":0,"friend":0,"family":0},{"nsid":"131491579@N08","username":"aratinargide","realname":"Arati Nargide","favedate":"1431591551","iconserver":"544","iconfarm":1,"contact":0,"friend":0,"family":0},{"nsid":"123727742@N03","username":"Jose Manuel Cano","realname":"Jose M. Cano","favedate":"1430337197","iconserver":"3898","iconfarm":4,"contact":0,"friend":0,"family":0},{"nsid":"128294308@N05","username":"Rogg4n","realname":"","favedate":"1430221462","iconserver":"7479","iconfarm":8,"contact":0,"friend":0,"family":0},{"nsid":"131304324@N04","username":"Jcveillette","realname":"","favedate":"1429911273","iconserver":"8821","iconfarm":9,"contact":0,"friend":0,"family":0},{"nsid":"16516058@N03","username":"PapaPiper (Travelling)","realname":"","favedate":"1429788971","iconserver":"8157","iconfarm":9,"contact":0,"friend":0,"family":0},{"nsid":"76593694@N03","username":"Glenda Hall","realname":"Glenda Hall","favedate":"1429778452","iconserver":"3929","iconfarm":4,"contact":0,"friend":0,"family":0},{"nsid":"73304008@N00","username":"jawadn_99","realname":"","favedate":"1429777418","iconserver":"7306","iconfarm":8,"contact":0,"friend":0,"family":0},{"nsid":"22822941@N08","username":"Bartholomew K Poonsiri","realname":"","favedate":"1429711435","iconserver":"2918","iconfarm":3,"contact":0,"friend":0,"family":0},{"nsid":"128023596@N08","username":"suhridranjandas","realname":"Suhrid Ranjan Das","favedate":"1429679572","iconserver":"7551","iconfarm":8,"contact":0,"friend":0,"family":0}],"id":"16852737809","secret":"38d9d7b8dc","server":"8704","farm":9,"page":1,"pages":7,"perpage":10,"total":"64"},"stat":"ok"}