{"photo":{"person":[{"nsid":"9041416@N06","username":"boodiba","realname":"","favedate":"1430196079","iconserver":"0","iconfarm":0,"contact":0,"friend":0,"family":0},{"nsid":"105175385@N06","username":"@philipcomp.philipcomp","realname":"philipcomp philipcomp","favedate":"1386505355","iconserver":"3838","iconfarm":4,"contact":0,"friend":0,"family":0},{"nsid":"68666109@N07","username":"xiaoai_88","realname":"","favedate":"1339405447","iconserver":"0","iconfarm":0,"contact":0,"friend":0,"family":0},{"nsid":"61439498@N06","username":"S.Graemer","realname":"","favedate":"1303806273","iconserver":"0","iconfarm":0,"contact":0,"friend":0,"family":0},{"nsid":"44898077@N08","username":"\u0416\u0438\u0432\u044b\u0435 \u0443\u043b\u0438\u0446\u044b \/ Live Streets","realname":"Vladimir Zlokazov","favedate":"1301213855","iconserver":"2658","iconfarm":3,"contact":0,"friend":0,"family":0},{"nsid":"38123137@N00","username":"melcir.meri","realname":"","favedate":"1295820510","iconserver":"2570","iconfarm":3,"contact":0,"friend":0,"family":0},{"nsid":"50930107@N07","username":"eyeofthebeh0lder","realname":"","favedate":"1283777971","iconserver":"4020","iconfarm":5,"contact":0,"friend":0,"family":0},{"nsid":"28775433@N05","username":"fallenangelfish","realname":"Taylor","favedate":"1274107985","iconserver":"4100","iconfarm":5,"contact":0,"friend":0,"family":0},{"nsid":"96098291@N00","username":"paulhillsdon","realname":"Paul Hillsdon","favedate":"1273474021","iconserver":"44","iconfarm":1,"contact":0,"friend":0,"family":0},{"nsid":"63125501@N00","username":"bricoleurbanism","realname":"","favedate":"1257504875","iconserver":"1206","iconfarm":2,"contact":0,"friend":0,"family":0}],"id":"2822758183","secret":"73b3b229c4","server":"3250","farm":4,"page":1,"pages":3,"perpage":10,"total":"24"},"stat":"ok"}