{"photo":{"person":[{"nsid":"91992876@N03","username":"paulnwales","realname":"","favedate":"1430696007","iconserver":"257","iconfarm":1,"contact":0,"friend":0,"family":0},{"nsid":"105309556@N06","username":"polina__n","realname":"Polina N","favedate":"1415179766","iconserver":"3694","iconfarm":4,"contact":0,"friend":0,"family":0},{"nsid":"43939471@N08","username":"Goutkin","realname":"Alexander Gutkin","favedate":"1414149742","iconserver":"2844","iconfarm":3,"contact":0,"friend":0,"family":0},{"nsid":"80923701@N08","username":"e-malekula","realname":"","favedate":"1409589354","iconserver":"7041","iconfarm":8,"contact":0,"friend":0,"family":0},{"nsid":"89197537@N05","username":"Bugtris","realname":"Stefan Beutler","favedate":"1407682951","iconserver":"8193","iconfarm":9,"contact":0,"friend":0,"family":0},{"nsid":"93040738@N07","username":"tikhont","realname":"","favedate":"1406911573","iconserver":"2871","iconfarm":3,"contact":0,"friend":0,"family":0},{"nsid":"126699116@N08","username":"alefajardo","realname":"Alejandra Fajardo","favedate":"1406862754","iconserver":"3923","iconfarm":4,"contact":0,"friend":0,"family":0},{"nsid":"22458569@N04","username":"Andrey  B. Barhatov","realname":"Andrew Barkhatov","favedate":"1406805352","iconserver":"5461","iconfarm":6,"contact":0,"friend":0,"family":0},{"nsid":"87923529@N03","username":"JohKl","realname":"","favedate":"1406770274","iconserver":"5564","iconfarm":6,"contact":0,"friend":0,"family":0},{"nsid":"82409274@N06","username":"yuzefe","realname":"yuzefe","favedate":"1406611715","iconserver":"8022","iconfarm":9,"contact":0,"friend":0,"family":0}],"id":"14575077269","secret":"bfc962b9a9","server":"3923","farm":4,"page":1,"pages":2,"perpage":10,"total":"12"},"stat":"ok"}