{"photo":{"person":[{"nsid":"21503482@N06","username":"ride0583","realname":"John Linton","favedate":"1348313212","iconserver":"2417","iconfarm":3,"contact":0,"friend":0,"family":0},{"nsid":"26713910@N05","username":"blueyescapt","realname":"Marino","favedate":"1348235565","iconserver":"5331","iconfarm":6,"contact":0,"friend":0,"family":0},{"nsid":"31119160@N06","username":"loco's photos","realname":"Lori C.","favedate":"1348228502","iconserver":"5612","iconfarm":6,"contact":0,"friend":0,"family":0},{"nsid":"61548427@N03","username":"courtneyureelmowry","realname":"Courtney Mowry","favedate":"1348227017","iconserver":"8544","iconfarm":9,"contact":0,"friend":0,"family":0},{"nsid":"43589035@N06","username":"Victoria.....a secas.","realname":"Victoria  Rivas","favedate":"1348219542","iconserver":"3685","iconfarm":4,"contact":0,"friend":0,"family":0},{"nsid":"73792059@N07","username":"star79322","realname":"Steven Roebuck","favedate":"1348217888","iconserver":"3725","iconfarm":4,"contact":0,"friend":0,"family":0},{"nsid":"35349573@N06","username":"Shibu Bhattacharjee (Very busy In Profession )","realname":"Shibu Bhattacharjee","favedate":"1348215588","iconserver":"7431","iconfarm":8,"contact":0,"friend":0,"family":0},{"nsid":"42511372@N06","username":"Kristin Magnusd","realname":"","favedate":"1348214432","iconserver":"3795","iconfarm":4,"contact":0,"friend":0,"family":0},{"nsid":"47290259@N06","username":"Ostseetroll","realname":"","favedate":"1348212905","iconserver":"8262","iconfarm":9,"contact":0,"friend":0,"family":0},{"nsid":"23051871@N08","username":"J\u00f3n P\u00e1lma","realname":"J\u00f3n P\u00e1lmason  My dear friends I'm not gone Just a good break. I do not have time to comment. and you do not need to commenting on my pictures.","favedate":"1348209862","iconserver":"2862","iconfarm":3,"contact":0,"friend":0,"family":0}],"id":"8008265800","secret":"8ae438d36c","server":"8320","farm":9,"page":1,"pages":2,"perpage":10,"total":"12"},"stat":"ok"}