{"photo":{"person":[{"nsid":"38207417@N04","username":"Charlie Chapman 75","realname":"","favedate":"1432516357","iconserver":"5188","iconfarm":6,"contact":0,"friend":0,"family":0},{"nsid":"94256768@N05","username":"marcel.rodrigue","realname":"Jka Midnorthcoast","favedate":"1431687895","iconserver":"7365","iconfarm":8,"contact":0,"friend":0,"family":0},{"nsid":"129520543@N05","username":"enricoegeo","realname":"Enrico Egeo","favedate":"1428525667","iconserver":"8681","iconfarm":9,"contact":0,"friend":0,"family":0},{"nsid":"91284013@N03","username":"Mr Gio1","realname":"","favedate":"1427612374","iconserver":"2930","iconfarm":3,"contact":0,"friend":0,"family":0},{"nsid":"122590466@N08","username":"nikandrea","realname":"andrea photos","favedate":"1427608094","iconserver":"8761","iconfarm":9,"contact":0,"friend":0,"family":0},{"nsid":"96894888@N02","username":"Digi Knips","realname":"Andreas Saf","favedate":"1427580991","iconserver":"3666","iconfarm":4,"contact":0,"friend":0,"family":0},{"nsid":"47716682@N07","username":"Minoltakid","realname":"Ross Evans","favedate":"1427560428","iconserver":"4071","iconfarm":5,"contact":0,"friend":0,"family":0},{"nsid":"131066434@N06","username":"joanhowitt33","realname":"Joan Howitt","favedate":"1427538345","iconserver":"303","iconfarm":1,"contact":0,"friend":0,"family":0},{"nsid":"15559934@N03","username":"Newatthis - Forget Me Not","realname":"","favedate":"1427532890","iconserver":"7787","iconfarm":8,"contact":0,"friend":0,"family":0},{"nsid":"22338198@N07","username":"BlueLunarRose","realname":"Ran","favedate":"1427432786","iconserver":"7301","iconfarm":8,"contact":0,"friend":0,"family":0}],"id":"16918821331","secret":"1fabddde6c","server":"7597","farm":8,"page":1,"pages":3,"perpage":10,"total":"21"},"stat":"ok"}