{"photo":{"person":[{"nsid":"126140006@N02","username":"yuccayellow","realname":"Yellow Yucca","favedate":"1434575100","iconserver":"2950","iconfarm":3,"contact":0,"friend":0,"family":0},{"nsid":"69745125@N03","username":"By Hayan","realname":"","favedate":"1420903165","iconserver":"3930","iconfarm":4,"contact":0,"friend":0,"family":0},{"nsid":"126670849@N03","username":"misuhi","realname":"\uc778\uc6b0 \uc815","favedate":"1420207820","iconserver":"3921","iconfarm":4,"contact":0,"friend":0,"family":0},{"nsid":"128890387@N05","username":"Dana takes care of our page (I'm leaving on a brea","realname":"","favedate":"1419188065","iconserver":"8833","iconfarm":9,"contact":0,"friend":0,"family":0},{"nsid":"82066314@N06","username":"Iqbal Osman1","realname":"Iqbal Osman","favedate":"1419084677","iconserver":"3917","iconfarm":4,"contact":0,"friend":0,"family":0},{"nsid":"39129723@N00","username":"Halliwell_Michael ## Thank you for your visits #","realname":"Mike Halliwell","favedate":"1418999218","iconserver":"5514","iconfarm":6,"contact":0,"friend":0,"family":0},{"nsid":"58781103@N03","username":"parsifal2011","realname":"","favedate":"1418991926","iconserver":"7493","iconfarm":8,"contact":0,"friend":0,"family":0},{"nsid":"125992325@N06","username":"duarte_cesar","realname":"Carlos Cesar Duarte","favedate":"1418667372","iconserver":"7465","iconfarm":8,"contact":0,"friend":0,"family":0},{"nsid":"26849514@N06","username":"Frans.Sellies","realname":"Frans Sellies","favedate":"1417812502","iconserver":"4072","iconfarm":5,"contact":0,"friend":0,"family":0},{"nsid":"53269577@N08","username":"Viagens5","realname":"","favedate":"1417521865","iconserver":"7721","iconfarm":8,"contact":0,"friend":0,"family":0}],"id":"15833106425","secret":"39d0a71e74","server":"7549","farm":8,"page":1,"pages":5,"perpage":10,"total":"41"},"stat":"ok"}