{"photo":{"person":[{"nsid":"134675672@N05","username":"igorm.karida40","realname":"\u0418\u0433\u043e\u0440\u044c \u041a\u0430\u0440\u0438\u0434\u0430","favedate":"1436904581","iconserver":"271","iconfarm":1,"contact":0,"friend":0,"family":0},{"nsid":"120973156@N06","username":"@cachorrosujo","realname":"Antonio Cecconi","favedate":"1398386009","iconserver":"7262","iconfarm":8,"contact":0,"friend":0,"family":0},{"nsid":"66778994@N05","username":"Mickey Nelson","realname":"Mickey Martinez","favedate":"1385866075","iconserver":"8020","iconfarm":9,"contact":0,"friend":0,"family":0},{"nsid":"7568929@N03","username":"Sinister Blue Note","realname":"","favedate":"1376540553","iconserver":"7734","iconfarm":8,"contact":0,"friend":0,"family":0},{"nsid":"95553524@N07","username":"driftinround","realname":"Rick Sanor","favedate":"1374534972","iconserver":"7458","iconfarm":8,"contact":0,"friend":0,"family":0},{"nsid":"88345903@N00","username":"xgray","realname":"Stephen Gray","favedate":"1373946420","iconserver":"7522","iconfarm":8,"contact":0,"friend":0,"family":0},{"nsid":"32437595@N02","username":"Ape Flavored","realname":"","favedate":"1373931620","iconserver":"3933","iconfarm":4,"contact":0,"friend":0,"family":0},{"nsid":"24842486@N07","username":"e r j k . a m e r j k a","realname":"","favedate":"1373928329","iconserver":"8765","iconfarm":9,"contact":0,"friend":0,"family":0},{"nsid":"70980743@N03","username":"Westographer","realname":"Warren Kirk","favedate":"1373920640","iconserver":"7369","iconfarm":8,"contact":0,"friend":0,"family":0},{"nsid":"59852454@N03","username":"Pavel P.","realname":"","favedate":"1373920302","iconserver":"7601","iconfarm":8,"contact":0,"friend":0,"family":0}],"id":"9294649736","secret":"b844583550","server":"2843","farm":3,"page":1,"pages":2,"perpage":10,"total":"14"},"stat":"ok"}