{"photo":{"person":[{"nsid":"113186044@N07","username":"sarkis_sakaz","realname":"Sarkis Kevork Sakaz","favedate":"1408741575","iconserver":"7691","iconfarm":8,"contact":0,"friend":0,"family":0},{"nsid":"124021707@N05","username":"martinski_1","realname":"Martin Vasilev","favedate":"1405841357","iconserver":"0","iconfarm":0,"contact":0,"friend":0,"family":0},{"nsid":"111473779@N03","username":"proffkom_","realname":"Ivan Nikolaichuk","favedate":"1401397196","iconserver":"7451","iconfarm":8,"contact":0,"friend":0,"family":0},{"nsid":"88795127@N02","username":"LPiH","realname":"Louis-Pierre Henry","favedate":"1401370351","iconserver":"2808","iconfarm":3,"contact":0,"friend":0,"family":0},{"nsid":"22490717@N02","username":"archer10 (Dennis)","realname":"Dennis Jarvis","favedate":"1401309625","iconserver":"3940","iconfarm":4,"contact":0,"friend":0,"family":0},{"nsid":"91660386@N02","username":"ninavv100","realname":"","favedate":"1401218480","iconserver":"0","iconfarm":0,"contact":0,"friend":0,"family":0},{"nsid":"97664410@N02","username":"Julieta Portel","realname":"J Portel","favedate":"1401121053","iconserver":"2850","iconfarm":3,"contact":0,"friend":0,"family":0},{"nsid":"111448077@N06","username":"Bethula99","realname":"","favedate":"1401112238","iconserver":"3847","iconfarm":4,"contact":0,"friend":0,"family":0},{"nsid":"68778436@N04","username":"The Open Wall (Catching Up)","realname":"","favedate":"1401050611","iconserver":"7306","iconfarm":8,"contact":0,"friend":0,"family":0},{"nsid":"84728938@N06","username":"renebasurto","realname":"Rene A Basurto Quijada","favedate":"1401046081","iconserver":"3829","iconfarm":4,"contact":0,"friend":0,"family":0}],"id":"14258098621","secret":"1435ae22a1","server":"5072","farm":6,"page":1,"pages":2,"perpage":10,"total":"12"},"stat":"ok"}