{"photo":{"person":[{"nsid":"37765483@N05","username":"Guille Ibanez","realname":"Guille Ibanez","favedate":"1434435571","iconserver":"3861","iconfarm":4,"contact":0,"friend":0,"family":0},{"nsid":"79855893@N00","username":"real00","realname":"William Real","favedate":"1434379259","iconserver":"193","iconfarm":1,"contact":0,"friend":0,"family":0},{"nsid":"62503327@N00","username":"gabdietrich","realname":"Gabriel Dietrich","favedate":"1427100969","iconserver":"2929","iconfarm":3,"contact":0,"friend":0,"family":0},{"nsid":"64704752@N00","username":"pra\u015bna prolative","realname":"New Turkic Alphabet","favedate":"1425751074","iconserver":"2844","iconfarm":3,"contact":0,"friend":0,"family":0},{"nsid":"79114132@N02","username":"Silence Effects","realname":"","favedate":"1425562211","iconserver":"5443","iconfarm":6,"contact":0,"friend":0,"family":0},{"nsid":"66592939@N02","username":"Martin-Fox","realname":"Miguel A. Blanco","favedate":"1425490681","iconserver":"8664","iconfarm":9,"contact":0,"friend":0,"family":0},{"nsid":"46905637@N08","username":"\u03bb*","realname":"","favedate":"1425402178","iconserver":"7775","iconfarm":8,"contact":0,"friend":0,"family":0},{"nsid":"46356507@N04","username":"beneditto","realname":"Benedikt Schnabel","favedate":"1422279520","iconserver":"0","iconfarm":0,"contact":0,"friend":0,"family":0},{"nsid":"97184993@N05","username":"silvia.alessi","realname":"Silvia Alessi","favedate":"1422138152","iconserver":"7415","iconfarm":8,"contact":0,"friend":0,"family":0},{"nsid":"45115503@N02","username":"darkerthanblue","realname":"ginette rimmington jones","favedate":"1419188215","iconserver":"5040","iconfarm":6,"contact":0,"friend":0,"family":0}],"id":"14576274731","secret":"ac3be98350","server":"2928","farm":3,"page":1,"pages":6,"perpage":10,"total":"59"},"stat":"ok"}