{"photo":{"person":[{"nsid":"23781854@N03","username":"Ryan Good","realname":"Ryan","favedate":"1407187487","iconserver":"3708","iconfarm":4,"contact":0,"friend":0,"family":0},{"nsid":"95656871@N08","username":"Miss Peppermint - mylumiaphone.com","realname":"","favedate":"1400872745","iconserver":"2915","iconfarm":3,"contact":0,"friend":0,"family":0},{"nsid":"28267861@N07","username":"ralaphoto","realname":"ramona langner","favedate":"1382302516","iconserver":"2813","iconfarm":3,"contact":0,"friend":0,"family":0},{"nsid":"32903860@N08","username":"a. fagan","realname":"","favedate":"1373234376","iconserver":"3780","iconfarm":4,"contact":0,"friend":0,"family":0},{"nsid":"77961316@N06","username":"AnnaPirata","realname":"","favedate":"1371728949","iconserver":"3776","iconfarm":4,"contact":0,"friend":0,"family":0},{"nsid":"29381908@N02","username":"thtgrlnamdsam","realname":"","favedate":"1356828131","iconserver":"8245","iconfarm":9,"contact":0,"friend":0,"family":0},{"nsid":"84869306@N02","username":"Felix Cutillo","realname":"","favedate":"1353860503","iconserver":"8378","iconfarm":9,"contact":0,"friend":0,"family":0},{"nsid":"59001817@N03","username":"Oneboat","realname":"","favedate":"1353382970","iconserver":"5294","iconfarm":6,"contact":0,"friend":0,"family":0},{"nsid":"86493735@N00","username":"joshedwards","realname":"Josh Edwards","favedate":"1353376618","iconserver":"2649","iconfarm":3,"contact":0,"friend":0,"family":0},{"nsid":"71261045@N05","username":"paul noble images","realname":"Paul","favedate":"1352243202","iconserver":"7495","iconfarm":8,"contact":0,"friend":0,"family":0}],"id":"8159726385","secret":"ee92555d97","server":"8481","farm":9,"page":1,"pages":2,"perpage":10,"total":"16"},"stat":"ok"}