{"photo":{"person":[{"nsid":"56742635@N08","username":"zsofimatyas","realname":"","favedate":"1368644326","iconserver":"0","iconfarm":0,"contact":0,"friend":0,"family":0},{"nsid":"87272508@N00","username":"hanan bercu","realname":"Hanan Bercu","favedate":"1335794585","iconserver":"2043","iconfarm":3,"contact":0,"friend":0,"family":0},{"nsid":"70281905@N03","username":"Ian Hines","realname":"Ian Hines","favedate":"1334758420","iconserver":"7199","iconfarm":8,"contact":0,"friend":0,"family":0},{"nsid":"65329526@N05","username":"bflatminor","realname":"","favedate":"1311006591","iconserver":"0","iconfarm":0,"contact":0,"friend":0,"family":0},{"nsid":"48943119@N05","username":"Sarrah P.","realname":"Sarrah P.","favedate":"1288817334","iconserver":"4026","iconfarm":5,"contact":0,"friend":0,"family":0},{"nsid":"23451196@N00","username":"Tamas Kalman","realname":"Tamas Kalman","favedate":"1272709636","iconserver":"63","iconfarm":1,"contact":0,"friend":0,"family":0},{"nsid":"42980613@N07","username":"Jar&Diamante","realname":"Irene Ollargiu","favedate":"1258887981","iconserver":"2586","iconfarm":3,"contact":0,"friend":0,"family":0},{"nsid":"40923546@N04","username":"dtci7624","realname":"Atsuo Itsuji","favedate":"1256094998","iconserver":"2653","iconfarm":3,"contact":0,"friend":0,"family":0},{"nsid":"7246301@N05","username":"LLuiz Antonio","realname":"Luiz Antonio Mendes","favedate":"1254754035","iconserver":"1330","iconfarm":2,"contact":0,"friend":0,"family":0},{"nsid":"11574326@N00","username":"jh_hj","realname":"J H","favedate":"1254230566","iconserver":"3195","iconfarm":4,"contact":0,"friend":0,"family":0}],"id":"3052603571","secret":"ac9b87768f","server":"3141","farm":4,"page":1,"pages":4,"perpage":10,"total":"32"},"stat":"ok"}