{"photo":{"person":[{"nsid":"95521086@N05","username":"Rifa21","realname":"Richard Smith","favedate":"1416257765","iconserver":"8638","iconfarm":9,"contact":0,"friend":0,"family":0},{"nsid":"125266347@N02","username":"tommystig","realname":"Tommy Johansson","favedate":"1416078173","iconserver":"0","iconfarm":0,"contact":0,"friend":0,"family":0},{"nsid":"123689967@N07","username":"Saarblitz","realname":"","favedate":"1415859254","iconserver":"2938","iconfarm":3,"contact":0,"friend":0,"family":0},{"nsid":"112616056@N08","username":"oxfordwight","realname":"","favedate":"1415832063","iconserver":"5572","iconfarm":6,"contact":0,"friend":0,"family":0},{"nsid":"126234839@N04","username":"robertdralston","realname":"Robert Ralston","favedate":"1415765317","iconserver":"3851","iconfarm":4,"contact":0,"friend":0,"family":0},{"nsid":"79901868@N02","username":"laurie.7","realname":"Laurie Brunson  Altieri","favedate":"1415757862","iconserver":"2912","iconfarm":3,"contact":0,"friend":0,"family":0},{"nsid":"99188925@N07","username":"mladencoko","realname":"Mladen \u010coko","favedate":"1415743901","iconserver":"8592","iconfarm":9,"contact":0,"friend":0,"family":0},{"nsid":"127275545@N06","username":"denito90","realname":"Deniz Thoma","favedate":"1415743833","iconserver":"3942","iconfarm":4,"contact":0,"friend":0,"family":0},{"nsid":"104002621@N02","username":"air3548-Ahmad Ragab","realname":"Ahmad Ragab","favedate":"1415743830","iconserver":"5442","iconfarm":6,"contact":0,"friend":0,"family":0},{"nsid":"128667567@N06","username":"christianstapor","realname":"christian Stapor","favedate":"1415742787","iconserver":"8619","iconfarm":9,"contact":0,"friend":0,"family":0}],"id":"15768154815","secret":"b310e8b4c8","server":"5614","farm":6,"page":1,"pages":2,"perpage":10,"total":"13"},"stat":"ok"}