{"photo":{"person":[{"nsid":"9115672@N05","username":"StephenReed","realname":"","favedate":"1332645597","iconserver":"3169","iconfarm":4,"contact":0,"friend":0,"family":0},{"nsid":"47504575@N06","username":"P11P","realname":"","favedate":"1274811752","iconserver":"4138","iconfarm":5,"contact":0,"friend":0,"family":0},{"nsid":"43614016@N03","username":"yuu99","realname":"yuko sakuma","favedate":"1272289052","iconserver":"2695","iconfarm":3,"contact":0,"friend":0,"family":0},{"nsid":"32960729@N05","username":"H\u00e9ctor Guerra (working, working...and working....","realname":"H\u00e9ctor Guerra","favedate":"1270594395","iconserver":"4010","iconfarm":5,"contact":0,"friend":0,"family":0},{"nsid":"36439465@N03","username":"leoberenstam","realname":"Leonel Gast\u00f3n Berenstam","favedate":"1269259683","iconserver":"3601","iconfarm":4,"contact":0,"friend":0,"family":0},{"nsid":"28812165@N08","username":"Postsumptio","realname":"Kai C. Schwarzer","favedate":"1267045213","iconserver":"4141","iconfarm":5,"contact":0,"friend":0,"family":0},{"nsid":"8410085@N03","username":"lenag_photographee","realname":"Lena G","favedate":"1266410416","iconserver":"4063","iconfarm":5,"contact":0,"friend":0,"family":0},{"nsid":"88323212@N00","username":"Dreamer7112","realname":"Milo Baumgartner","favedate":"1265987810","iconserver":"2867","iconfarm":3,"contact":0,"friend":0,"family":0},{"nsid":"36823892@N05","username":"Julka2009...(mostly off)","realname":"","favedate":"1265815742","iconserver":"3555","iconfarm":4,"contact":0,"friend":0,"family":0},{"nsid":"76503227@N00","username":"mluisa_","realname":"Maria Luisa","favedate":"1265740050","iconserver":"70","iconfarm":1,"contact":0,"friend":0,"family":0}],"id":"4341567442","secret":"62065206b4","server":"4009","farm":5,"page":1,"pages":2,"perpage":10,"total":"15"},"stat":"ok"}