{"photo":{"person":[{"nsid":"34839997@N00","username":"zrep","realname":"Jesus Llaria","favedate":"1359497538","iconserver":"128","iconfarm":1,"contact":0,"friend":0,"family":0},{"nsid":"20718576@N00","username":"andrew_zirm","realname":"Andrew Zirm","favedate":"1281427189","iconserver":"23","iconfarm":1,"contact":0,"friend":0,"family":0},{"nsid":"25865676@N08","username":"ErcanY.","realname":"","favedate":"1275055001","iconserver":"7417","iconfarm":8,"contact":0,"friend":0,"family":0},{"nsid":"29273347@N06","username":"grigoryev","realname":"nikolay grigoryev","favedate":"1270465393","iconserver":"5325","iconfarm":6,"contact":0,"friend":0,"family":0},{"nsid":"45766776@N06","username":"Flanflipflop","realname":"Paul Flanagan","favedate":"1269031457","iconserver":"2696","iconfarm":3,"contact":0,"friend":0,"family":0},{"nsid":"15277883@N03","username":"Lucas Ricart","realname":"","favedate":"1266819886","iconserver":"1204","iconfarm":2,"contact":0,"friend":0,"family":0},{"nsid":"25703069@N02","username":"Angevinn","realname":"","favedate":"1260937746","iconserver":"5538","iconfarm":6,"contact":0,"friend":0,"family":0},{"nsid":"29534867@N05","username":"Robert Herrmann.","realname":"Robert","favedate":"1260667917","iconserver":"3796","iconfarm":4,"contact":0,"friend":0,"family":0},{"nsid":"37651373@N05","username":"AlexRuz","realname":"Alex Ruz","favedate":"1260564584","iconserver":"3798","iconfarm":4,"contact":0,"friend":0,"family":0},{"nsid":"23333447@N00","username":"Xax","realname":"","favedate":"1260468917","iconserver":"2856","iconfarm":3,"contact":0,"friend":0,"family":0}],"id":"4170718802","secret":"dd79238a92","server":"2626","farm":3,"page":1,"pages":4,"perpage":10,"total":"34"},"stat":"ok"}