{"photo":{"person":[{"nsid":"78195174@N06","username":"brandon.ferrari","realname":"Brandon Ferrari","favedate":"1432322609","iconserver":"7404","iconfarm":8,"contact":0,"friend":0,"family":0},{"nsid":"96217536@N04","username":"Okay Lamb","realname":"","favedate":"1432308518","iconserver":"3793","iconfarm":4,"contact":0,"friend":0,"family":0},{"nsid":"127210706@N07","username":"Luca Rohmann","realname":"","favedate":"1432225695","iconserver":"8649","iconfarm":9,"contact":0,"friend":0,"family":0},{"nsid":"53570040@N08","username":"Vincent Sheed","realname":"","favedate":"1432165923","iconserver":"5319","iconfarm":6,"contact":0,"friend":0,"family":0},{"nsid":"13938843@N02","username":"delia raicu","realname":"","favedate":"1432138174","iconserver":"2865","iconfarm":3,"contact":0,"friend":0,"family":0},{"nsid":"93868712@N05","username":"Zaparowana","realname":"","favedate":"1432116881","iconserver":"2941","iconfarm":3,"contact":0,"friend":0,"family":0},{"nsid":"100017593@N04","username":"felipeorvi","realname":"Felipe Orvi","favedate":"1432095300","iconserver":"347","iconfarm":1,"contact":0,"friend":0,"family":0},{"nsid":"75977947@N05","username":"carfanatic45","realname":"","favedate":"1432069904","iconserver":"7619","iconfarm":8,"contact":0,"friend":0,"family":0},{"nsid":"74661487@N00","username":"FotoBen","realname":"Benjamim Silva","favedate":"1432067848","iconserver":"3703","iconfarm":4,"contact":0,"friend":0,"family":0},{"nsid":"60114177@N03","username":"krkojzla","realname":"Boris Krsti\u0107","favedate":"1432066945","iconserver":"374","iconfarm":1,"contact":0,"friend":0,"family":0}],"id":"17843347816","secret":"c3933d0779","server":"7773","farm":8,"page":1,"pages":2,"perpage":10,"total":"12"},"stat":"ok"}