{"photo":{"person":[{"nsid":"95845057@N04","username":"MaeCurtis","realname":"","favedate":"1369580534","iconserver":"7298","iconfarm":8,"contact":0,"friend":0,"family":0},{"nsid":"38414403@N08","username":"David Shield Photography","realname":"David Shield","favedate":"1366753112","iconserver":"7441","iconfarm":8,"contact":0,"friend":0,"family":0},{"nsid":"76098459@N04","username":"rschnaible","realname":"","favedate":"1365676160","iconserver":"3808","iconfarm":4,"contact":0,"friend":0,"family":0},{"nsid":"50826531@N07","username":"Teehuah Tan","realname":"T H Tan","favedate":"1365672972","iconserver":"3922","iconfarm":4,"contact":0,"friend":0,"family":0},{"nsid":"28773252@N03","username":"Chris (Midland05)","realname":"Chris Parfeniuk","favedate":"1365645669","iconserver":"8653","iconfarm":9,"contact":0,"friend":0,"family":0},{"nsid":"47292034@N02","username":"SergeyKD","realname":"Sergey","favedate":"1365606612","iconserver":"6105","iconfarm":7,"contact":0,"friend":0,"family":0},{"nsid":"86314847@N00","username":"Susanna Siu","realname":"","favedate":"1365598026","iconserver":"5592","iconfarm":6,"contact":0,"friend":0,"family":0},{"nsid":"63876795@N06","username":"HCHanebeck","realname":"Chris Hanebeck","favedate":"1365593861","iconserver":"5032","iconfarm":6,"contact":0,"friend":0,"family":0},{"nsid":"57791142@N07","username":"reiernilsen","realname":"Frode Reier-Nilsen","favedate":"1365581809","iconserver":"7483","iconfarm":8,"contact":0,"friend":0,"family":0},{"nsid":"61337172@N00","username":"Dave Curtis","realname":"David Curtis","favedate":"1365571212","iconserver":"7332","iconfarm":8,"contact":0,"friend":0,"family":0}],"id":"8635161210","secret":"c7485e5673","server":"8117","farm":9,"page":1,"pages":2,"perpage":10,"total":"12"},"stat":"ok"}