{"photo":{"person":[{"nsid":"63684321@N07","username":"Clay Percy","realname":"Clayton Percy","favedate":"1379359724","iconserver":"8119","iconfarm":9,"contact":0,"friend":0,"family":0},{"nsid":"92283365@N08","username":"miguelangelomoraes","realname":"","favedate":"1374532863","iconserver":"3684","iconfarm":4,"contact":0,"friend":0,"family":0},{"nsid":"22068884@N04","username":"Julie Corne","realname":"","favedate":"1366469100","iconserver":"8537","iconfarm":9,"contact":0,"friend":0,"family":0},{"nsid":"54144402@N03","username":"Bob Dass","realname":"","favedate":"1366092540","iconserver":"2931","iconfarm":3,"contact":0,"friend":0,"family":0},{"nsid":"68362103@N03","username":"obviously 5 believers","realname":"","favedate":"1366064919","iconserver":"5449","iconfarm":6,"contact":0,"friend":0,"family":0},{"nsid":"44915680@N05","username":"jack_b_","realname":"","favedate":"1365841166","iconserver":"8470","iconfarm":9,"contact":0,"friend":0,"family":0},{"nsid":"34256037@N00","username":"Bart van Damme","realname":"Bart van Damme","favedate":"1365799430","iconserver":"343","iconfarm":1,"contact":0,"friend":0,"family":0},{"nsid":"61301115@N03","username":"Tristan Styles","realname":"Tristan Styles","favedate":"1365724348","iconserver":"5441","iconfarm":6,"contact":0,"friend":0,"family":0},{"nsid":"23065806@N02","username":"lux fecit","realname":"","favedate":"1365716036","iconserver":"2033","iconfarm":3,"contact":0,"friend":0,"family":0},{"nsid":"8939386@N08","username":"Brulama","realname":"","favedate":"1365665845","iconserver":"5323","iconfarm":6,"contact":0,"friend":0,"family":0}],"id":"8637232487","secret":"15d662b829","server":"8539","farm":9,"page":1,"pages":2,"perpage":10,"total":"18"},"stat":"ok"}