{"photo":{"person":[{"nsid":"76069050@N08","username":"Alessandro Giorgi Art Photography","realname":"www.alegiorgiartphoto.com","favedate":"1421139291","iconserver":"5559","iconfarm":6,"contact":0,"friend":0,"family":0},{"nsid":"99637267@N02","username":"MacMahli","realname":"","favedate":"1420999766","iconserver":"7462","iconfarm":8,"contact":0,"friend":0,"family":0},{"nsid":"42138679@N04","username":"*dapple dapple","realname":"","favedate":"1420840511","iconserver":"8560","iconfarm":9,"contact":0,"friend":0,"family":0},{"nsid":"54887115@N04","username":"Dave_O1 ~ Dave Edwards (On holiday)","realname":"Dave Edwards","favedate":"1420823537","iconserver":"7468","iconfarm":8,"contact":0,"friend":0,"family":0},{"nsid":"123965478@N03","username":"bozenabozena890","realname":"Bozena Bozena","favedate":"1420784147","iconserver":"3786","iconfarm":4,"contact":0,"friend":0,"family":0},{"nsid":"126792664@N08","username":"alan_kalfat","realname":"alan kalfat","favedate":"1420782461","iconserver":"5589","iconfarm":6,"contact":0,"friend":0,"family":0},{"nsid":"119262041@N02","username":"dani.castorina","realname":"","favedate":"1420743520","iconserver":"2814","iconfarm":3,"contact":0,"friend":0,"family":0},{"nsid":"126038682@N06","username":"Lu(x)","realname":"","favedate":"1420742567","iconserver":"8836","iconfarm":9,"contact":0,"friend":0,"family":0},{"nsid":"126288926@N02","username":"kashefreza","realname":"Reza Kashef","favedate":"1420736475","iconserver":"7535","iconfarm":8,"contact":0,"friend":0,"family":0},{"nsid":"48447300@N02","username":"Finn Frode (DK)","realname":"Finn Frode","favedate":"1420735937","iconserver":"8674","iconfarm":9,"contact":0,"friend":0,"family":0}],"id":"15608751584","secret":"93f9a57ede","server":"7546","farm":8,"page":1,"pages":2,"perpage":10,"total":"18"},"stat":"ok"}