{"photo":{"person":[{"nsid":"49280636@N02","username":"Tocqe","realname":"","favedate":"1317490003","iconserver":"2682","iconfarm":3,"contact":0,"friend":0,"family":0},{"nsid":"11294776@N00","username":"_Zinni_","realname":"Gerald Zinnecker","favedate":"1305445263","iconserver":"5333","iconfarm":6,"contact":0,"friend":0,"family":0},{"nsid":"49055198@N07","username":"Deian Vladov","realname":"","favedate":"1284925798","iconserver":"5532","iconfarm":6,"contact":0,"friend":0,"family":0},{"nsid":"21444319@N07","username":"\u2764 Lilli \u2764 OFF","realname":"Lilli Rang","favedate":"1280598007","iconserver":"2712","iconfarm":3,"contact":0,"friend":0,"family":0},{"nsid":"38391318@N00","username":"Hugotepic","realname":"Hugo Rodriguez","favedate":"1280333893","iconserver":"2388","iconfarm":3,"contact":0,"friend":0,"family":0},{"nsid":"96399230@N00","username":"H G M","realname":"H G Mukhopadhyay","favedate":"1280020787","iconserver":"5511","iconfarm":6,"contact":0,"friend":0,"family":0},{"nsid":"13071281@N00","username":"naruo0720","realname":"","favedate":"1279506210","iconserver":"2159","iconfarm":3,"contact":0,"friend":0,"family":0},{"nsid":"21809377@N08","username":"meghimeg","realname":"Meghimeg","favedate":"1279209215","iconserver":"3123","iconfarm":4,"contact":0,"friend":0,"family":0},{"nsid":"14112658@N02","username":"Gattou - Lucie Provencher","realname":"Lucie Provencher","favedate":"1279195855","iconserver":"1255","iconfarm":2,"contact":0,"friend":0,"family":0},{"nsid":"24419270@N04","username":"Angy Fotoclick ( OFF )","realname":"","favedate":"1279036961","iconserver":"7459","iconfarm":8,"contact":0,"friend":0,"family":0}],"id":"4779449317","secret":"396b8ae726","server":"4118","farm":5,"page":1,"pages":3,"perpage":10,"total":"24"},"stat":"ok"}