{"photo":{"person":[{"nsid":"55876399@N07","username":"nannyjean35","realname":"","favedate":"1427065883","iconserver":"7296","iconfarm":8,"contact":0,"friend":0,"family":0},{"nsid":"43588196@N05","username":"kennethcanada1","realname":"kenneth r rowley","favedate":"1424712562","iconserver":"294","iconfarm":1,"contact":0,"friend":0,"family":0},{"nsid":"43664225@N07","username":"JANO58","realname":"Iano Vitrano","favedate":"1420639418","iconserver":"8096","iconfarm":9,"contact":0,"friend":0,"family":0},{"nsid":"78683307@N04","username":"~\u5c0f\u4e56~ Y.C.CHEN","realname":"Yu-Cheng Chen","favedate":"1420384093","iconserver":"8871","iconfarm":9,"contact":0,"friend":0,"family":0},{"nsid":"36856792@N07","username":"ripe mang0","realname":"","favedate":"1416673103","iconserver":"5555","iconfarm":6,"contact":0,"friend":0,"family":0},{"nsid":"43292307@N06","username":"Carlos GF","realname":"Carlos GF","favedate":"1416600888","iconserver":"2615","iconfarm":3,"contact":0,"friend":0,"family":0},{"nsid":"33555663@N04","username":"Miro Carvalho","realname":"Miro Carvalho","favedate":"1416386040","iconserver":"2911","iconfarm":3,"contact":0,"friend":0,"family":0},{"nsid":"36012971@N04","username":"m.andarina","realname":"","favedate":"1415900385","iconserver":"3755","iconfarm":4,"contact":0,"friend":0,"family":0},{"nsid":"79510655@N08","username":"dee_dee_creamer","realname":"","favedate":"1415715082","iconserver":"7348","iconfarm":8,"contact":0,"friend":0,"family":0},{"nsid":"21396667@N08","username":"emocjonalna","realname":"Sensi","favedate":"1415465118","iconserver":"3798","iconfarm":4,"contact":0,"friend":0,"family":0}],"id":"15071414484","secret":"68d6e3389f","server":"7491","farm":8,"page":1,"pages":3,"perpage":10,"total":"24"},"stat":"ok"}