{"photo":{"person":[{"nsid":"121456055@N06","username":"n1kez","realname":"Tracy morris","favedate":"1413888391","iconserver":"8664","iconfarm":9,"contact":0,"friend":0,"family":0},{"nsid":"35529616@N03","username":"Elliotphotos","realname":"Elliot Gilfix","favedate":"1403491049","iconserver":"5577","iconfarm":6,"contact":0,"friend":0,"family":0},{"nsid":"60831796@N07","username":"Bazzo2011","realname":"Alan Bazzani","favedate":"1400366763","iconserver":"3842","iconfarm":4,"contact":0,"friend":0,"family":0},{"nsid":"93293707@N00","username":"Earthly Image Photography","realname":"Bob Dansereau","favedate":"1400268591","iconserver":"3725","iconfarm":4,"contact":0,"friend":0,"family":0},{"nsid":"124483749@N03","username":"Lamasatt","realname":"Lamasatt Gallery","favedate":"1399839504","iconserver":"7446","iconfarm":8,"contact":0,"friend":0,"family":0},{"nsid":"61876461@N04","username":"Tomiz","realname":"","favedate":"1399774628","iconserver":"8603","iconfarm":9,"contact":0,"friend":0,"family":0},{"nsid":"41430802@N03","username":"ihab.atwan","realname":"Ihab Atwan","favedate":"1399760308","iconserver":"8207","iconfarm":9,"contact":0,"friend":0,"family":0},{"nsid":"100506734@N04","username":"tranz46","realname":"mehmet kantarc\u0131","favedate":"1399735816","iconserver":"7583","iconfarm":8,"contact":0,"friend":0,"family":0},{"nsid":"69665722@N02","username":"orion964","realname":"","favedate":"1399730457","iconserver":"3861","iconfarm":4,"contact":0,"friend":0,"family":0},{"nsid":"38134034@N04","username":"blavandmaster","realname":"Christian","favedate":"1399729679","iconserver":"5454","iconfarm":6,"contact":0,"friend":0,"family":0}],"id":"13963554867","secret":"fb34ddc498","server":"2925","farm":3,"page":1,"pages":2,"perpage":10,"total":"17"},"stat":"ok"}