{"photo":{"person":[{"nsid":"130518027@N02","username":"sutley6","realname":"chris Sutley","favedate":"1424744425","iconserver":"8759","iconfarm":9,"contact":0,"friend":0,"family":0},{"nsid":"121456055@N06","username":"n1kez","realname":"Tracy morris","favedate":"1413888312","iconserver":"8664","iconfarm":9,"contact":0,"friend":0,"family":0},{"nsid":"35529616@N03","username":"Elliotphotos","realname":"Elliot Gilfix","favedate":"1403479623","iconserver":"5577","iconfarm":6,"contact":0,"friend":0,"family":0},{"nsid":"56501174@N08","username":"witchiewoman333","realname":"","favedate":"1401335024","iconserver":"277","iconfarm":1,"contact":0,"friend":0,"family":0},{"nsid":"36132505@N05","username":"redwolf518","realname":"C.S. Redmond","favedate":"1401310056","iconserver":"3572","iconfarm":4,"contact":0,"friend":0,"family":0},{"nsid":"98227349@N08","username":"JackPhotography_","realname":"Jack Bergeron","favedate":"1401293066","iconserver":"7603","iconfarm":8,"contact":0,"friend":0,"family":0},{"nsid":"115584674@N02","username":"mbensebti","realname":"Mohamed Bensebti","favedate":"1401282675","iconserver":"5587","iconfarm":6,"contact":0,"friend":0,"family":0},{"nsid":"106066524@N04","username":"sunil.koovakkat","realname":"Sunil Koovakkat","favedate":"1401232551","iconserver":"5568","iconfarm":6,"contact":0,"friend":0,"family":0},{"nsid":"69665722@N02","username":"orion964","realname":"","favedate":"1401221272","iconserver":"3861","iconfarm":4,"contact":0,"friend":0,"family":0},{"nsid":"105586254@N02","username":"senipelita","realname":"Seni Pelita","favedate":"1401179325","iconserver":"2084","iconfarm":3,"contact":0,"friend":0,"family":0}],"id":"14093220700","secret":"5f6d65a176","server":"2896","farm":3,"page":1,"pages":2,"perpage":10,"total":"14"},"stat":"ok"}