{"photo":{"person":[{"nsid":"45658645@N00","username":"Cristina Sartori","realname":"Cristina Sartori","favedate":"1405074030","iconserver":"160","iconfarm":1,"contact":0,"friend":0,"family":0},{"nsid":"94444779@N06","username":"Son of Rome","realname":"Giorgio Clooney","favedate":"1385203325","iconserver":"8246","iconfarm":9,"contact":0,"friend":0,"family":0},{"nsid":"87415683@N06","username":"s13296562640","realname":"","favedate":"1371631835","iconserver":"0","iconfarm":0,"contact":0,"friend":0,"family":0},{"nsid":"44245969@N00","username":"tntpolaris","realname":"fabio","favedate":"1353008273","iconserver":"27","iconfarm":1,"contact":0,"friend":0,"family":0},{"nsid":"45956265@N08","username":"yolyespinosa","realname":"yoly espinosa","favedate":"1352326718","iconserver":"8708","iconfarm":9,"contact":0,"friend":0,"family":0},{"nsid":"66771766@N07","username":"anjahektor","realname":"Anja","favedate":"1315050634","iconserver":"6184","iconfarm":7,"contact":0,"friend":0,"family":0},{"nsid":"11187987@N00","username":"peggyhr","realname":"Peggy Reimchen","favedate":"1295923155","iconserver":"132","iconfarm":1,"contact":0,"friend":0,"family":0},{"nsid":"42711578@N04","username":"Yasmin de light","realname":"","favedate":"1295915190","iconserver":"3869","iconfarm":4,"contact":0,"friend":0,"family":0},{"nsid":"34804353@N02","username":"jd.echenard","realname":"Jean-Daniel Echenard","favedate":"1295912238","iconserver":"3316","iconfarm":4,"contact":0,"friend":0,"family":0},{"nsid":"59192203@N00","username":"Michelle Rick","realname":"Michelle Rick","favedate":"1295739528","iconserver":"5560","iconfarm":6,"contact":0,"friend":0,"family":0}],"id":"4842529190","secret":"f4880377fe","server":"4151","farm":5,"page":1,"pages":4,"perpage":10,"total":"35"},"stat":"ok"}