{"photo":{"person":[{"nsid":"128807045@N08","username":"Perkvats Havatkov","realname":"","favedate":"1430081850","iconserver":"5598","iconfarm":6,"contact":0,"friend":0,"family":0},{"nsid":"128208993@N06","username":"valdecilima.1950","realname":"valdeci lima","favedate":"1419805935","iconserver":"319","iconfarm":1,"contact":0,"friend":0,"family":0},{"nsid":"120214143@N02","username":"FHOLM","realname":"","favedate":"1418660630","iconserver":"7477","iconfarm":8,"contact":0,"friend":0,"family":0},{"nsid":"81471986@N03","username":"Gonzalo M. Heredia","realname":"","favedate":"1418593132","iconserver":"8763","iconfarm":9,"contact":0,"friend":0,"family":0},{"nsid":"39492956@N08","username":"NIKONIMAC","realname":"Miguel Amigo","favedate":"1418499574","iconserver":"7459","iconfarm":8,"contact":0,"friend":0,"family":0},{"nsid":"90704033@N00","username":"Florian Martys","realname":"Florian Martys","favedate":"1418075960","iconserver":"5505","iconfarm":6,"contact":0,"friend":0,"family":0},{"nsid":"58390084@N07","username":"BethAHudson","realname":"Beth","favedate":"1418016450","iconserver":"7476","iconfarm":8,"contact":0,"friend":0,"family":0},{"nsid":"98286252@N07","username":"jezqio","realname":"Jo\u00ebl van der Wie","favedate":"1417965181","iconserver":"8663","iconfarm":9,"contact":0,"friend":0,"family":0},{"nsid":"53601471@N08","username":"Alexey Kljatov (ChaoticMind75)","realname":"Alexey Kljatov","favedate":"1417946563","iconserver":"7307","iconfarm":8,"contact":0,"friend":0,"family":0},{"nsid":"97843487@N07","username":"grigorios1972","realname":"Grigorios Kokorakis","favedate":"1417909037","iconserver":"2937","iconfarm":3,"contact":0,"friend":0,"family":0}],"id":"15156049473","secret":"18aa734f28","server":"5602","farm":6,"page":1,"pages":5,"perpage":10,"total":"46"},"stat":"ok"}