{"photo":{"person":[{"nsid":"126250149@N08","username":"stevelamb007","realname":"Steve Lamb","favedate":"1429592807","iconserver":"5586","iconfarm":6,"contact":0,"friend":0,"family":0},{"nsid":"99781851@N07","username":"Stevie 66","realname":"","favedate":"1416994012","iconserver":"299","iconfarm":1,"contact":0,"friend":0,"family":0},{"nsid":"109142838@N06","username":"carmelomoramacia","realname":"carmelo mora macia","favedate":"1416985682","iconserver":"7356","iconfarm":8,"contact":0,"friend":0,"family":0},{"nsid":"126277882@N03","username":"caballero.22039816","realname":"","favedate":"1416457980","iconserver":"8611","iconfarm":9,"contact":0,"friend":0,"family":0},{"nsid":"69419092@N00","username":"dogman5","realname":"","favedate":"1416183721","iconserver":"5594","iconfarm":6,"contact":0,"friend":0,"family":0},{"nsid":"22490717@N02","username":"archer10 (Dennis)","realname":"Dennis Jarvis","favedate":"1416157153","iconserver":"3940","iconfarm":4,"contact":0,"friend":0,"family":0},{"nsid":"9019841@N08","username":"fusion-of-horizons","realname":"","favedate":"1416156918","iconserver":"7312","iconfarm":8,"contact":0,"friend":0,"family":0},{"nsid":"83422944@N03","username":"Kevin Scattini","realname":"","favedate":"1416115343","iconserver":"5506","iconfarm":6,"contact":0,"friend":0,"family":0},{"nsid":"106741179@N08","username":"kamenkaludov","realname":"\u041a\u0430\u043c\u0435\u043d \u041a\u0430\u043b\u0443\u0434\u043e\u0432","favedate":"1416073936","iconserver":"3674","iconfarm":4,"contact":0,"friend":0,"family":0},{"nsid":"53575739@N06","username":"Jims_photos","realname":"Jim Allen","favedate":"1416052706","iconserver":"7650","iconfarm":8,"contact":0,"friend":0,"family":0}],"id":"15790420695","secret":"04d1177ccb","server":"7485","farm":8,"page":1,"pages":2,"perpage":10,"total":"17"},"stat":"ok"}