{"photo":{"person":[{"nsid":"96981888@N02","username":"jospedrocordeiro","realname":"Jos\u00e9 Pedro Cordeiro","favedate":"1404245262","iconserver":"7447","iconfarm":8,"contact":0,"friend":0,"family":0},{"nsid":"93361399@N00","username":"liviucrl","realname":"","favedate":"1397917333","iconserver":"5243","iconfarm":6,"contact":0,"friend":0,"family":0},{"nsid":"110544677@N03","username":"Bernhard Mueller","realname":"Bernhard Mueller","favedate":"1397238287","iconserver":"2890","iconfarm":3,"contact":0,"friend":0,"family":0},{"nsid":"57761648@N02","username":"David Kracht","realname":"David Kracht","favedate":"1387460308","iconserver":"7415","iconfarm":8,"contact":0,"friend":0,"family":0},{"nsid":"65406983@N05","username":"Ignacio Paredes Photography","realname":"Ignacio  Paredes","favedate":"1386266610","iconserver":"8764","iconfarm":9,"contact":0,"friend":0,"family":0},{"nsid":"22671264@N04","username":"lloren\u00e71","realname":"Lloren\u00e7 Montori","favedate":"1385330148","iconserver":"7319","iconfarm":8,"contact":0,"friend":0,"family":0},{"nsid":"53914820@N02","username":"efpalinos","realname":"Emmanuel D.","favedate":"1384868198","iconserver":"4106","iconfarm":5,"contact":0,"friend":0,"family":0},{"nsid":"64598947@N00","username":"geirt.com","realname":"geir t\u00f8nnessen","favedate":"1384607667","iconserver":"5473","iconfarm":6,"contact":0,"friend":0,"family":0},{"nsid":"13675180@N08","username":"bjarne.stokke","realname":"","favedate":"1384476719","iconserver":"5345","iconfarm":6,"contact":0,"friend":0,"family":0},{"nsid":"47763961@N02","username":"AmpaCar","realname":"AmpaCar AmpaCar","favedate":"1384293766","iconserver":"3873","iconfarm":4,"contact":0,"friend":0,"family":0}],"id":"10760174943","secret":"e224ca2a48","server":"5481","farm":6,"page":1,"pages":9,"perpage":10,"total":"81"},"stat":"ok"}