{"photo":{"person":[{"nsid":"63976799@N04","username":"BrigitteFischer","realname":"B Fischer","favedate":"1425762488","iconserver":"2002","iconfarm":3,"contact":0,"friend":0,"family":0},{"nsid":"124202315@N06","username":"coen-6","realname":"Jakob Aaron Coen","favedate":"1403565834","iconserver":"7331","iconfarm":8,"contact":0,"friend":0,"family":0},{"nsid":"75604229@N02","username":"laughingissoulfood","realname":"","favedate":"1399654782","iconserver":"3675","iconfarm":4,"contact":0,"friend":0,"family":0},{"nsid":"101189452@N03","username":"veronica_v63","realname":"veronica","favedate":"1399570963","iconserver":"7339","iconfarm":8,"contact":0,"friend":0,"family":0},{"nsid":"61320515@N08","username":"elisabethTX","realname":"Elisabeth Spector","favedate":"1399324108","iconserver":"7310","iconfarm":8,"contact":0,"friend":0,"family":0},{"nsid":"23378183@N06","username":".b\u00e4rbel","realname":"","favedate":"1399304837","iconserver":"8683","iconfarm":9,"contact":0,"friend":0,"family":0},{"nsid":"110534024@N05","username":"davidbowden45","realname":"David Bowden","favedate":"1398919452","iconserver":"7394","iconfarm":8,"contact":0,"friend":0,"family":0},{"nsid":"92317074@N08","username":"Ferguscat1","realname":"Liz Traynor","favedate":"1398851340","iconserver":"3720","iconfarm":4,"contact":0,"friend":0,"family":0},{"nsid":"110498733@N07","username":"stonodk","realname":"Steen Andersen","favedate":"1398836065","iconserver":"3854","iconfarm":4,"contact":0,"friend":0,"family":0},{"nsid":"110569055@N04","username":"Justin Kenneth Rowley","realname":"Justin Kenneth Rowley","favedate":"1398825738","iconserver":"5534","iconfarm":6,"contact":0,"friend":0,"family":0}],"id":"14061302365","secret":"71a219fecb","server":"2928","farm":3,"page":1,"pages":2,"perpage":10,"total":"17"},"stat":"ok"}