{"photo":{"person":[{"nsid":"100016856@N08","username":"maco-nonch\u2605R","realname":"","favedate":"1403939317","iconserver":"3870","iconfarm":4,"contact":0,"friend":0,"family":0},{"nsid":"111473779@N03","username":"proffkom_","realname":"Ivan Nikolaichuk","favedate":"1401397198","iconserver":"7451","iconfarm":8,"contact":0,"friend":0,"family":0},{"nsid":"88795127@N02","username":"LPiH","realname":"Louis-Pierre Henry","favedate":"1401370352","iconserver":"2808","iconfarm":3,"contact":0,"friend":0,"family":0},{"nsid":"22490717@N02","username":"archer10 (Dennis)","realname":"Dennis Jarvis","favedate":"1401309638","iconserver":"3940","iconfarm":4,"contact":0,"friend":0,"family":0},{"nsid":"111448077@N06","username":"Bethula99","realname":"","favedate":"1401120869","iconserver":"3847","iconfarm":4,"contact":0,"friend":0,"family":0},{"nsid":"16811666@N05","username":"Steve Whitham - BGphotography","realname":"","favedate":"1401113622","iconserver":"5515","iconfarm":6,"contact":0,"friend":0,"family":0},{"nsid":"84728938@N06","username":"renebasurto","realname":"Rene A Basurto Quijada","favedate":"1401046083","iconserver":"3829","iconfarm":4,"contact":0,"friend":0,"family":0},{"nsid":"47992465@N07","username":"Caty V. mazarias antoranz","realname":"Caty","favedate":"1401038669","iconserver":"5343","iconfarm":6,"contact":0,"friend":0,"family":0},{"nsid":"43356667@N00","username":"Rafael Rodr\u00edguez H.","realname":"","favedate":"1401037702","iconserver":"2908","iconfarm":3,"contact":0,"friend":0,"family":0},{"nsid":"9019841@N08","username":"fusion-of-horizons","realname":"","favedate":"1401010777","iconserver":"7312","iconfarm":8,"contact":0,"friend":0,"family":0}],"id":"14074792510","secret":"cc4ee80017","server":"3767","farm":4,"page":1,"pages":2,"perpage":10,"total":"16"},"stat":"ok"}