{"photo":{"person":[{"nsid":"62817797@N06","username":"MrSam2U","realname":"","favedate":"1387381183","iconserver":"5447","iconfarm":6,"contact":0,"friend":0,"family":0},{"nsid":"10291822@N00","username":"mahmoud_ali901","realname":"MAHMOUD ALI","favedate":"1242109061","iconserver":"3858","iconfarm":4,"contact":0,"friend":0,"family":0},{"nsid":"61623344@N00","username":"cool_colonia4711","realname":"Lars Schleicher","favedate":"1239141055","iconserver":"405","iconfarm":1,"contact":0,"friend":0,"family":0},{"nsid":"68008857@N00","username":"Ferdi's - World","realname":"Ferdi de Gier","favedate":"1239024708","iconserver":"3809","iconfarm":4,"contact":0,"friend":0,"family":0},{"nsid":"51953816@N00","username":"larigan.","realname":"Larigan","favedate":"1239020275","iconserver":"5465","iconfarm":6,"contact":0,"friend":0,"family":0},{"nsid":"94881465@N00","username":"Batram","realname":"","favedate":"1239011626","iconserver":"5459","iconfarm":6,"contact":0,"friend":0,"family":0},{"nsid":"26952049@N00","username":"habaneros","realname":"","favedate":"1239007188","iconserver":"7724","iconfarm":8,"contact":0,"friend":0,"family":0},{"nsid":"48488208@N00","username":"the-father","realname":"Gernot Schreyer","favedate":"1239004641","iconserver":"74","iconfarm":1,"contact":0,"friend":0,"family":0},{"nsid":"34726560@N00","username":"Steve-h","realname":"","favedate":"1239001198","iconserver":"3665","iconfarm":4,"contact":0,"friend":0,"family":0},{"nsid":"16441477@N05","username":"nature photographer.","realname":"nature photographer.","favedate":"1238999490","iconserver":"7498","iconfarm":8,"contact":0,"friend":0,"family":0}],"id":"3416666293","secret":"cec9ff0fda","server":"3543","farm":4,"page":1,"pages":2,"perpage":10,"total":"12"},"stat":"ok"}