{"photo":{"person":[{"nsid":"21410637@N02","username":"* FLEUR DE LYS *","realname":"Karine FLEURDELYS","favedate":"1428145306","iconserver":"7386","iconfarm":8,"contact":0,"friend":0,"family":0},{"nsid":"22533627@N05","username":"Peters nik","realname":"Peters Nik","favedate":"1421259836","iconserver":"2402","iconfarm":3,"contact":0,"friend":0,"family":0},{"nsid":"119678408@N03","username":"gpagani56","realname":"giovanni pagani","favedate":"1419101180","iconserver":"7374","iconfarm":8,"contact":0,"friend":0,"family":0},{"nsid":"114595165@N06","username":"aysunatay","realname":"aysun Atay","favedate":"1416488852","iconserver":"7542","iconfarm":8,"contact":0,"friend":0,"family":0},{"nsid":"128789926@N03","username":"StowleaOnAfon","realname":"Erin Holmquist","favedate":"1416227897","iconserver":"3934","iconfarm":4,"contact":0,"friend":0,"family":0},{"nsid":"117688338@N03","username":"Kazuo Ishikawa2014","realname":"Kazuo Ishikawa","favedate":"1416188295","iconserver":"0","iconfarm":0,"contact":0,"friend":0,"family":0},{"nsid":"82908812@N06","username":"Marsmart","realname":"","favedate":"1415508598","iconserver":"3715","iconfarm":4,"contact":0,"friend":0,"family":0},{"nsid":"121232586@N08","username":"georgeplakides","realname":"George Plakides","favedate":"1414930322","iconserver":"7443","iconfarm":8,"contact":0,"friend":0,"family":0},{"nsid":"124650435@N05","username":"marina_broccardo","realname":"Marina Broccardo","favedate":"1414851352","iconserver":"2897","iconfarm":3,"contact":0,"friend":0,"family":0},{"nsid":"50476222@N06","username":"Jasmina Du","realname":"Jasmina D.","favedate":"1414785726","iconserver":"4010","iconfarm":5,"contact":0,"friend":0,"family":0}],"id":"15357149295","secret":"e8abd40330","server":"2944","farm":3,"page":1,"pages":12,"perpage":10,"total":"117"},"stat":"ok"}