{"photo":{"person":[{"nsid":"128009423@N05","username":"vijay_c_anand","realname":"vijayanand chelliahdhas","favedate":"1417564266","iconserver":"7486","iconfarm":8,"contact":0,"friend":0,"family":0},{"nsid":"127670553@N02","username":"kaylinx13","realname":"Kaylin Lucas","favedate":"1410303914","iconserver":"0","iconfarm":0,"contact":0,"friend":0,"family":0},{"nsid":"51772273@N04","username":"Sheldon DeFilippi","realname":"","favedate":"1406678623","iconserver":"8171","iconfarm":9,"contact":0,"friend":0,"family":0},{"nsid":"125635539@N07","username":"ivillaseran","realname":"Ibarra Villaseran","favedate":"1406545160","iconserver":"3921","iconfarm":4,"contact":0,"friend":0,"family":0},{"nsid":"10059899@N08","username":"tataiermail","realname":"suman","favedate":"1403147648","iconserver":"2797","iconfarm":3,"contact":0,"friend":0,"family":0},{"nsid":"123587707@N05","username":"Yuri ;de Souza","realname":"Yuri Souza","favedate":"1399632533","iconserver":"7399","iconfarm":8,"contact":0,"friend":0,"family":0},{"nsid":"79949026@N06","username":"Phillloyd fotographie","realname":"Philip Lloyd-Hodgkinson","favedate":"1389268785","iconserver":"5611","iconfarm":6,"contact":0,"friend":0,"family":0},{"nsid":"9251361@N06","username":"The Indestructible Enforcer","realname":"","favedate":"1332785581","iconserver":"7460","iconfarm":8,"contact":0,"friend":0,"family":0},{"nsid":"60615059@N04","username":"caterpiya","realname":"Cory Brown","favedate":"1300332687","iconserver":"7028","iconfarm":8,"contact":0,"friend":0,"family":0},{"nsid":"50888810@N08","username":"pixelraid","realname":"","favedate":"1277699763","iconserver":"5456","iconfarm":6,"contact":0,"friend":0,"family":0}],"id":"1481040770","secret":"36799bb7a7","server":"1242","farm":2,"page":1,"pages":4,"perpage":10,"total":"33"},"stat":"ok"}