{"photo":{"person":[{"nsid":"110971828@N06","username":"findcharlie60","realname":"Charlie C","favedate":"1430768441","iconserver":"0","iconfarm":0,"contact":0,"friend":0,"family":0},{"nsid":"131071956@N08","username":"wpitallo","realname":"Warren Pitallo","favedate":"1430476399","iconserver":"0","iconfarm":0,"contact":0,"friend":0,"family":0},{"nsid":"85694460@N07","username":"Marina BN","realname":"","favedate":"1418971631","iconserver":"7455","iconfarm":8,"contact":0,"friend":0,"family":0},{"nsid":"123849518@N02","username":"denisedyer63","realname":"Denise Dyer","favedate":"1414382255","iconserver":"5598","iconfarm":6,"contact":0,"friend":0,"family":0},{"nsid":"98922014@N04","username":"FreedomOnTheCorner","realname":"Tatiana Berkoh","favedate":"1412628753","iconserver":"5335","iconfarm":6,"contact":0,"friend":0,"family":0},{"nsid":"9196640@N07","username":"jew4jee","realname":"","favedate":"1411396605","iconserver":"0","iconfarm":0,"contact":0,"friend":0,"family":0},{"nsid":"57578968@N00","username":"skaha","realname":"Alice Grange","favedate":"1400112503","iconserver":"0","iconfarm":0,"contact":0,"friend":0,"family":0},{"nsid":"103979757@N08","username":"AnsaDP","realname":"Ansa du Plessis","favedate":"1381752245","iconserver":"0","iconfarm":0,"contact":0,"friend":0,"family":0},{"nsid":"18204138@N07","username":"ReniGallagher","realname":"","favedate":"1369727210","iconserver":"5461","iconfarm":6,"contact":0,"friend":0,"family":0},{"nsid":"76509819@N04","username":"Li Taipo","realname":"","favedate":"1361650776","iconserver":"2848","iconfarm":3,"contact":0,"friend":0,"family":0}],"id":"6315327499","secret":"0528702d78","server":"6031","farm":7,"page":1,"pages":2,"perpage":10,"total":"17"},"stat":"ok"}