{"photo":{"person":[{"nsid":"131897669@N06","username":"cristinabarretog","realname":"Cristina Barreto","favedate":"1429736770","iconserver":"0","iconfarm":0,"contact":0,"friend":0,"family":0},{"nsid":"131735954@N03","username":"l.visagie","realname":"Linda Visagie","favedate":"1428818983","iconserver":"0","iconfarm":0,"contact":0,"friend":0,"family":0},{"nsid":"37273517@N00","username":"amynj","realname":"Amy Jordan","favedate":"1421771192","iconserver":"7556","iconfarm":8,"contact":0,"friend":0,"family":0},{"nsid":"128151485@N06","username":"wald_pony","realname":"Wald Pony","favedate":"1417963266","iconserver":"0","iconfarm":0,"contact":0,"friend":0,"family":0},{"nsid":"127973458@N07","username":"orsicrosi","realname":"Orsi Szasz","favedate":"1414869846","iconserver":"0","iconfarm":0,"contact":0,"friend":0,"family":0},{"nsid":"124475169@N08","username":"Pfarra","realname":"","favedate":"1413652662","iconserver":"2911","iconfarm":3,"contact":0,"friend":0,"family":0},{"nsid":"13789570@N08","username":"Carolinck","realname":"","favedate":"1411001454","iconserver":"4042","iconfarm":5,"contact":0,"friend":0,"family":0},{"nsid":"18241779@N06","username":"LaineZinzin","realname":"Laurence","favedate":"1410644144","iconserver":"3193","iconfarm":4,"contact":0,"friend":0,"family":0},{"nsid":"96815553@N03","username":"roseb20131","realname":"Rose Baumgartner","favedate":"1405121857","iconserver":"0","iconfarm":0,"contact":0,"friend":0,"family":0},{"nsid":"120157088@N03","username":"juanaalberti","realname":"juana alberti","favedate":"1403458197","iconserver":"0","iconfarm":0,"contact":0,"friend":0,"family":0}],"id":"5692847017","secret":"2ee134b3e6","server":"5268","farm":6,"page":1,"pages":5,"perpage":10,"total":"44"},"stat":"ok"}