{"photo":{"person":[{"nsid":"127943165@N03","username":"Marina-Volpe","realname":"Marina Volpe","favedate":"1435657272","iconserver":"3918","iconfarm":4,"contact":0,"friend":0,"family":0},{"nsid":"63503245@N00","username":"Manu praba","realname":"Manu Praba","favedate":"1434684383","iconserver":"7302","iconfarm":8,"contact":0,"friend":0,"family":0},{"nsid":"102899303@N07","username":"mabumarion","realname":"elfenstaub2","favedate":"1434398613","iconserver":"5558","iconfarm":6,"contact":0,"friend":0,"family":0},{"nsid":"126488143@N02","username":"mariozysk","realname":"Mariusz Zysk","favedate":"1433929526","iconserver":"5597","iconfarm":6,"contact":0,"friend":0,"family":0},{"nsid":"124243757@N05","username":"Yarka...","realname":"Jarmila Storkova","favedate":"1433871849","iconserver":"2923","iconfarm":3,"contact":0,"friend":0,"family":0},{"nsid":"125209572@N08","username":"ISO Everything","realname":"","favedate":"1433348407","iconserver":"8843","iconfarm":9,"contact":0,"friend":0,"family":0},{"nsid":"85459485@N08","username":"Nstajn","realname":"","favedate":"1433346148","iconserver":"5557","iconfarm":6,"contact":0,"friend":0,"family":0},{"nsid":"123712885@N05","username":"cobracobra84","realname":"COBRA COBRA","favedate":"1433162925","iconserver":"449","iconfarm":1,"contact":0,"friend":0,"family":0},{"nsid":"130052202@N02","username":"gongming71","realname":"","favedate":"1432915528","iconserver":"7603","iconfarm":8,"contact":0,"friend":0,"family":0},{"nsid":"108061559@N03","username":"2dxtreem...SAS","realname":"","favedate":"1432698810","iconserver":"3880","iconfarm":4,"contact":0,"friend":0,"family":0}],"id":"17058081907","secret":"889b67ea6e","server":"7654","farm":8,"page":1,"pages":7,"perpage":10,"total":"66"},"stat":"ok"}