{"photo":{"person":[{"nsid":"58306981@N03","username":"RW-V","realname":"Ren\u00e9 Vetter","favedate":"1414255224","iconserver":"7370","iconfarm":8,"contact":0,"friend":0,"family":0},{"nsid":"110544677@N03","username":"Bernhard Mueller","realname":"Bernhard Mueller","favedate":"1397237707","iconserver":"2890","iconfarm":3,"contact":0,"friend":0,"family":0},{"nsid":"55389352@N07","username":"argeswara","realname":"thoersi argeswara","favedate":"1391132874","iconserver":"7458","iconfarm":8,"contact":0,"friend":0,"family":0},{"nsid":"68381589@N07","username":"Studio OMG","realname":"","favedate":"1389873270","iconserver":"7370","iconfarm":8,"contact":0,"friend":0,"family":0},{"nsid":"52725579@N05","username":"creativegaz","realname":"Gary Winfield","favedate":"1388722356","iconserver":"7703","iconfarm":8,"contact":0,"friend":0,"family":0},{"nsid":"85902208@N07","username":"Silviu Calin","realname":"Silviu Calin","favedate":"1388258064","iconserver":"5327","iconfarm":6,"contact":0,"friend":0,"family":0},{"nsid":"41139559@N08","username":"Jesterhead_Germany","realname":"Max Hungerland","favedate":"1388163511","iconserver":"3667","iconfarm":4,"contact":0,"friend":0,"family":0},{"nsid":"57761648@N02","username":"David Kracht","realname":"David Kracht","favedate":"1387473293","iconserver":"7415","iconfarm":8,"contact":0,"friend":0,"family":0},{"nsid":"31911618@N07","username":"LordWalt Thanks for 5.8 million views","realname":"","favedate":"1385731972","iconserver":"3022","iconfarm":4,"contact":0,"friend":0,"family":0},{"nsid":"10687551@N02","username":"Mark Bilton","realname":"","favedate":"1385185981","iconserver":"8590","iconfarm":9,"contact":0,"friend":0,"family":0}],"id":"10681815203","secret":"9983eb6c8a","server":"7346","farm":8,"page":1,"pages":3,"perpage":10,"total":"28"},"stat":"ok"}