{"photo":{"person":[{"nsid":"132543633@N05","username":"birgitbechtold","realname":"birgit bechtold","favedate":"1435744666","iconserver":"418","iconfarm":1,"contact":0,"friend":0,"family":0},{"nsid":"56865294@N05","username":"ashuphoto","realname":"Ashu Shah","favedate":"1435715617","iconserver":"7466","iconfarm":8,"contact":0,"friend":0,"family":0},{"nsid":"131057908@N06","username":"leo shy","realname":"","favedate":"1435675434","iconserver":"411","iconfarm":1,"contact":0,"friend":0,"family":0},{"nsid":"130655106@N04","username":"tanjaettl","realname":"Tanja Ettl","favedate":"1435294778","iconserver":"347","iconfarm":1,"contact":0,"friend":0,"family":0},{"nsid":"128411491@N06","username":"talyushka","realname":"Natalyushka","favedate":"1435261734","iconserver":"5454","iconfarm":6,"contact":0,"friend":0,"family":0},{"nsid":"127852792@N06","username":"melvlim85","realname":"Melvin Lim","favedate":"1434985581","iconserver":"7670","iconfarm":8,"contact":0,"friend":0,"family":0},{"nsid":"64404657@N02","username":"nicamf","realname":"","favedate":"1430094540","iconserver":"7624","iconfarm":8,"contact":0,"friend":0,"family":0},{"nsid":"126647229@N02","username":"TTQ_M","realname":"Q_D","favedate":"1429150110","iconserver":"7640","iconfarm":8,"contact":0,"friend":0,"family":0},{"nsid":"131432952@N03","username":"loriana.caruso","realname":"Loriana Caruso","favedate":"1429113572","iconserver":"7655","iconfarm":8,"contact":0,"friend":0,"family":0},{"nsid":"75655189@N00","username":"lelaki tinggi","realname":"","favedate":"1429036016","iconserver":"7634","iconfarm":8,"contact":0,"friend":0,"family":0}],"id":"16895724179","secret":"8a3694d3be","server":"8701","farm":9,"page":1,"pages":14,"perpage":10,"total":"135"},"stat":"ok"}