{"photo":{"person":[{"nsid":"131262778@N02","username":"saaxywalrus1920","realname":"walter luis","favedate":"1430315534","iconserver":"0","iconfarm":0,"contact":0,"friend":0,"family":0},{"nsid":"80533900@N07","username":"Jeanne W Pics","realname":"Jeanne W","favedate":"1393357100","iconserver":"7671","iconfarm":8,"contact":0,"friend":0,"family":0},{"nsid":"118726357@N08","username":"fz_shaheen2008","realname":"Filza Shaheen","favedate":"1393317265","iconserver":"0","iconfarm":0,"contact":0,"friend":0,"family":0},{"nsid":"99359166@N07","username":"Swens221","realname":"Eric Swenson","favedate":"1392954474","iconserver":"0","iconfarm":0,"contact":0,"friend":0,"family":0},{"nsid":"10676748@N00","username":"cFranklinPhotos","realname":"Christopher J. Franklin","favedate":"1384061534","iconserver":"5605","iconfarm":6,"contact":0,"friend":0,"family":0},{"nsid":"57706730@N04","username":"Talaria Moonspell","realname":"Talaria Moonspell","favedate":"1384004949","iconserver":"372","iconfarm":1,"contact":0,"friend":0,"family":0},{"nsid":"105003790@N03","username":"Raimondas Ka.","realname":"Raimondas Kairys","favedate":"1383067497","iconserver":"7381","iconfarm":8,"contact":0,"friend":0,"family":0},{"nsid":"87951826@N02","username":"Kenny Ngo (Lehen)","realname":"Kenny","favedate":"1383027215","iconserver":"8042","iconfarm":9,"contact":0,"friend":0,"family":0},{"nsid":"86504715@N08","username":"MrEessa","realname":"Eessa Mansoor","favedate":"1382573927","iconserver":"8136","iconfarm":9,"contact":0,"friend":0,"family":0},{"nsid":"25886873@N05","username":"G Michael Lewis","realname":"","favedate":"1382504591","iconserver":"8124","iconfarm":9,"contact":0,"friend":0,"family":0}],"id":"10322813736","secret":"ac477ecff8","server":"5548","farm":6,"page":1,"pages":3,"perpage":10,"total":"29"},"stat":"ok"}