{"photo":{"person":[{"nsid":"115143374@N02","username":"jilllian2","realname":"","favedate":"1428892201","iconserver":"2919","iconfarm":3,"contact":0,"friend":0,"family":0},{"nsid":"127949642@N08","username":"grady_31","realname":"","favedate":"1428292377","iconserver":"381","iconfarm":1,"contact":0,"friend":0,"family":0},{"nsid":"37685136@N06","username":"snc145","realname":"Steven Chateauneuf","favedate":"1428203892","iconserver":"7575","iconfarm":8,"contact":0,"friend":0,"family":0},{"nsid":"112386875@N05","username":"pure photography!","realname":"Norbert Posselt","favedate":"1428154139","iconserver":"8614","iconfarm":9,"contact":0,"friend":0,"family":0},{"nsid":"92036053@N06","username":"IVOLINES","realname":"IVOLINES","favedate":"1428092176","iconserver":"404","iconfarm":1,"contact":0,"friend":0,"family":0},{"nsid":"108426446@N06","username":"Nailton Barbosa","realname":"Nailton Barbosa","favedate":"1428079128","iconserver":"5472","iconfarm":6,"contact":0,"friend":0,"family":0},{"nsid":"73260897@N03","username":"ultravivid imaging","realname":"Richard Thot","favedate":"1428037644","iconserver":"7313","iconfarm":8,"contact":0,"friend":0,"family":0},{"nsid":"114485358@N08","username":"Anannya Kabir","realname":"Anannya Kabir","favedate":"1428030097","iconserver":"8606","iconfarm":9,"contact":0,"friend":0,"family":0},{"nsid":"72365606@N08","username":"Jafo11","realname":"JAIME OLIVEIRA","favedate":"1428006863","iconserver":"7317","iconfarm":8,"contact":0,"friend":0,"family":0},{"nsid":"86981110@N07","username":"frankolayag","realname":"frank olaya","favedate":"1428006752","iconserver":"8442","iconfarm":9,"contact":0,"friend":0,"family":0}],"id":"7989907496","secret":"a8291d5513","server":"8439","farm":9,"page":1,"pages":2,"perpage":10,"total":"17"},"stat":"ok"}