{"photo":{"person":[{"nsid":"55864922@N05","username":"tsuping.liu","realname":"Tsuping Liu","favedate":"1416363217","iconserver":"5541","iconfarm":6,"contact":0,"friend":0,"family":0},{"nsid":"82908812@N06","username":"Marsmart","realname":"","favedate":"1400298740","iconserver":"3715","iconfarm":4,"contact":0,"friend":0,"family":0},{"nsid":"27557403@N03","username":"frayser","realname":"Louis Frayser","favedate":"1395130562","iconserver":"7411","iconfarm":8,"contact":0,"friend":0,"family":0},{"nsid":"39819915@N05","username":"chumlee10","realname":"chumlee10","favedate":"1392955832","iconserver":"3462","iconfarm":4,"contact":0,"friend":0,"family":0},{"nsid":"97923098@N02","username":"sophie_merlo","realname":"Sophie Merlo","favedate":"1390959195","iconserver":"7572","iconfarm":8,"contact":0,"friend":0,"family":0},{"nsid":"92581030@N02","username":"laneylost","realname":"","favedate":"1379531395","iconserver":"5479","iconfarm":6,"contact":0,"friend":0,"family":0},{"nsid":"99119957@N07","username":"RENE SUPERTRAMP","realname":"RENE SUPERTRAMP","favedate":"1378476752","iconserver":"7629","iconfarm":8,"contact":0,"friend":0,"family":0},{"nsid":"25001994@N04","username":"emka9801","realname":"","favedate":"1372348128","iconserver":"3946","iconfarm":4,"contact":0,"friend":0,"family":0},{"nsid":"91232369@N05","username":"Franelle_","realname":"","favedate":"1356064908","iconserver":"8357","iconfarm":9,"contact":0,"friend":0,"family":0},{"nsid":"43259949@N04","username":"Wameq R","realname":"","favedate":"1350370959","iconserver":"7397","iconfarm":8,"contact":0,"friend":0,"family":0}],"id":"6816593572","secret":"437d9c4263","server":"7207","farm":8,"page":1,"pages":4,"perpage":10,"total":"37"},"stat":"ok"}