{"photo":{"person":[{"nsid":"125768867@N04","username":"jospedro_cordeiro","realname":"Jos\u00e9 Pedro Cordeiro","favedate":"1412625032","iconserver":"3873","iconfarm":4,"contact":0,"friend":0,"family":0},{"nsid":"96981888@N02","username":"jospedrocordeiro","realname":"Jos\u00e9 Pedro Cordeiro","favedate":"1393541508","iconserver":"7447","iconfarm":8,"contact":0,"friend":0,"family":0},{"nsid":"111188500@N03","username":"Eurydice Ples..","realname":"","favedate":"1391002293","iconserver":"8641","iconfarm":9,"contact":0,"friend":0,"family":0},{"nsid":"90634379@N06","username":"Lilian_Anadan","realname":"Lilian -:\u00a6:-  Anadan","favedate":"1389564816","iconserver":"7714","iconfarm":8,"contact":0,"friend":0,"family":0},{"nsid":"91284013@N03","username":"Mr Gio1","realname":"","favedate":"1389441341","iconserver":"2930","iconfarm":3,"contact":0,"friend":0,"family":0},{"nsid":"78094365@N08","username":"Felicity Lennie","realname":"","favedate":"1389436156","iconserver":"8103","iconfarm":9,"contact":0,"friend":0,"family":0},{"nsid":"55237870@N05","username":"*DIDI**005 very busy","realname":"","favedate":"1389395268","iconserver":"2874","iconfarm":3,"contact":0,"friend":0,"family":0},{"nsid":"91284145@N03","username":"Stellaforever","realname":"Antonella Stecco","favedate":"1389387816","iconserver":"7669","iconfarm":8,"contact":0,"friend":0,"family":0},{"nsid":"9346693@N05","username":"bajuavik","realname":"Avik Roy","favedate":"1389378393","iconserver":"3753","iconfarm":4,"contact":0,"friend":0,"family":0},{"nsid":"81963686@N02","username":"Moonkey King","realname":"KIng Monkey","favedate":"1389375490","iconserver":"332","iconfarm":1,"contact":0,"friend":0,"family":0}],"id":"11871165556","secret":"d146401a2a","server":"5511","farm":6,"page":1,"pages":2,"perpage":10,"total":"18"},"stat":"ok"}