{"photo":{"person":[{"nsid":"46618110@N05","username":"SDRPhoto321","realname":"S R","favedate":"1428378541","iconserver":"4050","iconfarm":5,"contact":0,"friend":0,"family":0},{"nsid":"29364835@N02","username":"lamisane66","realname":"","favedate":"1427830052","iconserver":"5539","iconfarm":6,"contact":0,"friend":0,"family":0},{"nsid":"80318257@N06","username":"m_travels","realname":"","favedate":"1427826911","iconserver":"343","iconfarm":1,"contact":0,"friend":0,"family":0},{"nsid":"39100993@N02","username":"Min\u00e8le","realname":"","favedate":"1427817986","iconserver":"3328","iconfarm":4,"contact":0,"friend":0,"family":0},{"nsid":"100851286@N08","username":"Giuseppe Cocchieri","realname":"Giuseppe Cocchieri","favedate":"1427815031","iconserver":"2898","iconfarm":3,"contact":0,"friend":0,"family":0},{"nsid":"88328067@N03","username":"Canadian Son","realname":"Paul Aningat","favedate":"1427810210","iconserver":"5480","iconfarm":6,"contact":0,"friend":0,"family":0},{"nsid":"128363297@N02","username":"Bernd Kretzer","realname":"Bernd Kretzer","favedate":"1427807784","iconserver":"7484","iconfarm":8,"contact":0,"friend":0,"family":0},{"nsid":"106309526@N08","username":"Bilihut","realname":"Philippe Roland W\u00fcst","favedate":"1427804204","iconserver":"7340","iconfarm":8,"contact":0,"friend":0,"family":0},{"nsid":"84761059@N08","username":"sharanoruddin","realname":"Shar Anoruddin Shar Anuar","favedate":"1427799502","iconserver":"7483","iconfarm":8,"contact":0,"friend":0,"family":0},{"nsid":"122896845@N07","username":"Marcela Aguerre","realname":"Marcela (Away. Happy July everyone)","favedate":"1427798973","iconserver":"8590","iconfarm":9,"contact":0,"friend":0,"family":0}],"id":"16983794352","secret":"aec91046b6","server":"7587","farm":8,"page":1,"pages":3,"perpage":10,"total":"26"},"stat":"ok"}