{"photo":{"person":[{"nsid":"59277100@N07","username":"Jessica Christie Wildlife Photographer","realname":"","favedate":"1297806816","iconserver":"7369","iconfarm":8,"contact":0,"friend":0,"family":0},{"nsid":"47375894@N05","username":"pick up the pace","realname":"Lil Lou Magoo","favedate":"1285200128","iconserver":"4050","iconfarm":5,"contact":0,"friend":0,"family":0},{"nsid":"33640718@N08","username":"ADD MY NEW ACCOUNT! URL jessicachristiephotography","realname":"","favedate":"1285108173","iconserver":"2562","iconfarm":3,"contact":0,"friend":0,"family":0},{"nsid":"8773698@N03","username":"l plater","realname":"aka Gerald","favedate":"1285073573","iconserver":"5342","iconfarm":6,"contact":0,"friend":0,"family":0},{"nsid":"96525092@N00","username":"Jeff_B.","realname":"Jeff  Bergman","favedate":"1285012600","iconserver":"3062","iconfarm":4,"contact":0,"friend":0,"family":0},{"nsid":"7705637@N03","username":"seryani","realname":"","favedate":"1284989746","iconserver":"3730","iconfarm":4,"contact":0,"friend":0,"family":0},{"nsid":"21966325@N00","username":"Mike_tn","realname":"Mike_tn","favedate":"1284930490","iconserver":"3785","iconfarm":4,"contact":0,"friend":0,"family":0},{"nsid":"12836528@N00","username":"kevin dooley","realname":"Kevin Dooley","favedate":"1284811305","iconserver":"171","iconfarm":1,"contact":0,"friend":0,"family":0},{"nsid":"7672965@N02","username":"New  Yorkled","realname":"New Yorkled","favedate":"1284689139","iconserver":"5331","iconfarm":6,"contact":0,"friend":0,"family":0},{"nsid":"36825657@N03","username":"dittma_d","realname":"Dirk Dittmar","favedate":"1284663762","iconserver":"3759","iconfarm":4,"contact":0,"friend":0,"family":0}],"id":"4996089624","secret":"d271c17c03","server":"4129","farm":5,"page":1,"pages":2,"perpage":10,"total":"14"},"stat":"ok"}