{"photo":{"person":[{"nsid":"46673838@N00","username":"SeenyaRita","realname":"","favedate":"1346295279","iconserver":"2367","iconfarm":3,"contact":0,"friend":0,"family":0},{"nsid":"7383565@N04","username":"Protonotarios","realname":"\u0399\u03c9\u03ac\u03bd\u03bd\u03b7\u03c2 \u03a0\u03c1\u03c9\u03c4\u03bf\u03bd\u03bf\u03c4\u03ac\u03c1\u03b9\u03bf\u03c2","favedate":"1316411151","iconserver":"7417","iconfarm":8,"contact":0,"friend":0,"family":0},{"nsid":"38336928@N04","username":"cr8visions - Robert Boisson","realname":"Robert ( Bob ) Boisson","favedate":"1264190332","iconserver":"3588","iconfarm":4,"contact":0,"friend":0,"family":0},{"nsid":"12587057@N00","username":"ubik14","realname":"Evan Helfrich","favedate":"1263524646","iconserver":"8134","iconfarm":9,"contact":0,"friend":0,"family":0},{"nsid":"20474999@N00","username":"teh resa","realname":"","favedate":"1263459344","iconserver":"5279","iconfarm":6,"contact":0,"friend":0,"family":0},{"nsid":"31477151@N04","username":"Jim Hart (*)","realname":"Jim Hart","favedate":"1263444262","iconserver":"3080","iconfarm":4,"contact":0,"friend":0,"family":0},{"nsid":"29641417@N04","username":"German Adolfo","realname":"German Adolfo","favedate":"1263426455","iconserver":"2487","iconfarm":3,"contact":0,"friend":0,"family":0},{"nsid":"39179091@N03","username":"nick gruenberg","realname":"Nick Gruenberg","favedate":"1263416316","iconserver":"3382","iconfarm":4,"contact":0,"friend":0,"family":0},{"nsid":"39048697@N02","username":"Manfred Hofmann","realname":"Manfred Hofmann","favedate":"1263408337","iconserver":"8589","iconfarm":9,"contact":0,"friend":0,"family":0},{"nsid":"33475246@N02","username":"ojofoto","realname":"","favedate":"1263407148","iconserver":"3182","iconfarm":4,"contact":0,"friend":0,"family":0}],"id":"4270495500","secret":"00de4a65e3","server":"2696","farm":3,"page":1,"pages":2,"perpage":10,"total":"13"},"stat":"ok"}