{"photo":{"person":[{"nsid":"100790584@N03","username":"corchado.juan","realname":"Juan Corchado","favedate":"1427025065","iconserver":"3747","iconfarm":4,"contact":0,"friend":0,"family":0},{"nsid":"79091413@N04","username":"Sweezey Pictures","realname":"Ken Sweezey","favedate":"1426186536","iconserver":"2846","iconfarm":3,"contact":0,"friend":0,"family":0},{"nsid":"128179293@N02","username":"susacu","realname":"","favedate":"1426105156","iconserver":"8620","iconfarm":9,"contact":0,"friend":0,"family":0},{"nsid":"128363297@N02","username":"Bernd Kretzer","realname":"Bernd Kretzer","favedate":"1426090377","iconserver":"7484","iconfarm":8,"contact":0,"friend":0,"family":0},{"nsid":"66950653@N05","username":"dbuckle2695","realname":"Dave Buckle","favedate":"1425401091","iconserver":"546","iconfarm":1,"contact":0,"friend":0,"family":0},{"nsid":"125736691@N07","username":"Eduardo Bertr\u00e1n Ruiz","realname":"Eduardo Bertran Ruiz","favedate":"1425304112","iconserver":"8723","iconfarm":9,"contact":0,"friend":0,"family":0},{"nsid":"55566724@N02","username":"filipdescheemaecker","realname":"Filip Descheemaecker","favedate":"1424935245","iconserver":"4060","iconfarm":5,"contact":0,"friend":0,"family":0},{"nsid":"22384042@N07","username":"Paul.White","realname":"Paul  White","favedate":"1424553345","iconserver":"3905","iconfarm":4,"contact":0,"friend":0,"family":0},{"nsid":"87614963@N04","username":"Burdizo","realname":"","favedate":"1424540275","iconserver":"7121","iconfarm":8,"contact":0,"friend":0,"family":0},{"nsid":"61397695@N05","username":"elbetobm thanks for + 2.500.000 views.","realname":"","favedate":"1424468790","iconserver":"3808","iconfarm":4,"contact":0,"friend":0,"family":0}],"id":"16321618049","secret":"621e8e755a","server":"8637","farm":9,"page":1,"pages":8,"perpage":10,"total":"80"},"stat":"ok"}