{"photo":{"person":[{"nsid":"23712646@N05","username":"mycahjudy","realname":"","favedate":"1435784523","iconserver":"0","iconfarm":0,"contact":0,"friend":0,"family":0},{"nsid":"27639284@N03","username":"Dreaming under a Banyan Tree","realname":"","favedate":"1406115365","iconserver":"2610","iconfarm":3,"contact":0,"friend":0,"family":0},{"nsid":"48262205@N06","username":"hsu41","realname":"","favedate":"1401170623","iconserver":"3785","iconfarm":4,"contact":0,"friend":0,"family":0},{"nsid":"8136604@N05","username":"UweBKK (\u03b1 77 on \uf8ff)","realname":"Uwe Schwarzbach","favedate":"1400835147","iconserver":"7351","iconfarm":8,"contact":0,"friend":0,"family":0},{"nsid":"65042165@N07","username":"\u2600galaxius2013\u2600","realname":"Patrick Steinert","favedate":"1400774967","iconserver":"3678","iconfarm":4,"contact":0,"friend":0,"family":0},{"nsid":"90353501@N00","username":"Lea Duckitt","realname":"Lea Duckitt","favedate":"1400751590","iconserver":"3717","iconfarm":4,"contact":0,"friend":0,"family":0},{"nsid":"95197901@N07","username":"Liwei\u266a","realname":"Liwei","favedate":"1400732935","iconserver":"7469","iconfarm":8,"contact":0,"friend":0,"family":0},{"nsid":"90383168@N03","username":"Black Baron93","realname":"Tai Van","favedate":"1400728608","iconserver":"3732","iconfarm":4,"contact":0,"friend":0,"family":0},{"nsid":"33270154@N03","username":"seetyoong","realname":"seet yoong loh","favedate":"1400708543","iconserver":"7475","iconfarm":8,"contact":0,"friend":0,"family":0},{"nsid":"92153865@N03","username":"m. refaat","realname":"","favedate":"1400704652","iconserver":"7540","iconfarm":8,"contact":0,"friend":0,"family":0}],"id":"14238407994","secret":"d2ce5c24e6","server":"2933","farm":3,"page":1,"pages":2,"perpage":10,"total":"17"},"stat":"ok"}