{"photo":{"person":[{"nsid":"126445596@N08","username":"vyshegor","realname":"Denis v","favedate":"1436071864","iconserver":"8698","iconfarm":9,"contact":0,"friend":0,"family":0},{"nsid":"59476458@N04","username":"Camellia time","realname":"","favedate":"1406661306","iconserver":"7017","iconfarm":8,"contact":0,"friend":0,"family":0},{"nsid":"115327346@N06","username":"josmanuelpalacio","realname":"jos\u00e9 Manuel Palacio","favedate":"1405994228","iconserver":"5279","iconfarm":6,"contact":0,"friend":0,"family":0},{"nsid":"106568824@N04","username":"george.bailey971","realname":"George Bailey","favedate":"1401532438","iconserver":"0","iconfarm":0,"contact":0,"friend":0,"family":0},{"nsid":"116199148@N08","username":"henk.sijgers - mostly off a little while","realname":"Henk Sijgers","favedate":"1398817912","iconserver":"2862","iconfarm":3,"contact":0,"friend":0,"family":0},{"nsid":"95104112@N05","username":"nouregef","realname":"Dimitris Karkanis","favedate":"1382357288","iconserver":"7792","iconfarm":8,"contact":0,"friend":0,"family":0},{"nsid":"48569916@N03","username":"Tashunka Witko (alias CP)","realname":"","favedate":"1382077869","iconserver":"0","iconfarm":0,"contact":0,"friend":0,"family":0},{"nsid":"101131362@N03","username":"AKDphotography","realname":"","favedate":"1381614729","iconserver":"8804","iconfarm":9,"contact":0,"friend":0,"family":0},{"nsid":"86203180@N06","username":"ankeshkatoch","realname":"ANKESH KATOCH","favedate":"1379771552","iconserver":"7330","iconfarm":8,"contact":0,"friend":0,"family":0},{"nsid":"68781153@N03","username":"femantione","realname":"Federico Mantione","favedate":"1379469890","iconserver":"3907","iconfarm":4,"contact":0,"friend":0,"family":0}],"id":"9460655797","secret":"2314ccfc66","server":"2862","farm":3,"page":1,"pages":10,"perpage":10,"total":"100"},"stat":"ok"}