{"photo":{"person":[{"nsid":"79058749@N06","username":"Martasusanaperez","realname":"","favedate":"1428535848","iconserver":"3768","iconfarm":4,"contact":0,"friend":0,"family":0},{"nsid":"125862441@N03","username":"Jay \u9f8d Den (Jayarr Denson)","realname":"","favedate":"1425143587","iconserver":"8569","iconfarm":9,"contact":0,"friend":0,"family":0},{"nsid":"73957093@N06","username":"solal16","realname":"","favedate":"1423608746","iconserver":"3733","iconfarm":4,"contact":0,"friend":0,"family":0},{"nsid":"127694247@N07","username":"e.j.sabfoku","realname":"","favedate":"1423494813","iconserver":"5585","iconfarm":6,"contact":0,"friend":0,"family":0},{"nsid":"64335262@N05","username":"Natali Antonovich","realname":"Natali Antonovich","favedate":"1423470401","iconserver":"5263","iconfarm":6,"contact":0,"friend":0,"family":0},{"nsid":"77963612@N02","username":"Bas1953","realname":"","favedate":"1423467347","iconserver":"8566","iconfarm":9,"contact":0,"friend":0,"family":0},{"nsid":"128099735@N08","username":"Miquel Fabr\u00e9","realname":"Miquel Fabre","favedate":"1423392340","iconserver":"7583","iconfarm":8,"contact":0,"friend":0,"family":0},{"nsid":"69609548@N07","username":"Vad Sid","realname":"Vadim Sidoruk","favedate":"1422734027","iconserver":"8573","iconfarm":9,"contact":0,"friend":0,"family":0},{"nsid":"14566455@N00","username":"classicphoto62 (Schopenhauer1962)","realname":"","favedate":"1422582291","iconserver":"2910","iconfarm":3,"contact":0,"friend":0,"family":0},{"nsid":"86505708@N06","username":"Remo Sloof","realname":"","favedate":"1422560013","iconserver":"7493","iconfarm":8,"contact":0,"friend":0,"family":0}],"id":"16194192190","secret":"774a9bb9d9","server":"7390","farm":8,"page":1,"pages":3,"perpage":10,"total":"24"},"stat":"ok"}