{"photo":{"person":[{"nsid":"125768867@N04","username":"jospedro_cordeiro","realname":"Jos\u00e9 Pedro Cordeiro","favedate":"1422394554","iconserver":"3873","iconfarm":4,"contact":0,"friend":0,"family":0},{"nsid":"96981888@N02","username":"jospedrocordeiro","realname":"Jos\u00e9 Pedro Cordeiro","favedate":"1382640902","iconserver":"7447","iconfarm":8,"contact":0,"friend":0,"family":0},{"nsid":"63693278@N00","username":"~Shilpa","realname":"","favedate":"1350164154","iconserver":"3687","iconfarm":4,"contact":0,"friend":0,"family":0},{"nsid":"12836528@N00","username":"kevin dooley","realname":"Kevin Dooley","favedate":"1349542499","iconserver":"171","iconfarm":1,"contact":0,"friend":0,"family":0},{"nsid":"46524103@N07","username":"M\u00e5L","realname":"","favedate":"1349386764","iconserver":"8406","iconfarm":9,"contact":0,"friend":0,"family":0},{"nsid":"55910642@N04","username":"mahdieh mirmoezi","realname":"Mahdieh Mirmoezi","favedate":"1349362369","iconserver":"3817","iconfarm":4,"contact":0,"friend":0,"family":0},{"nsid":"51724855@N05","username":"Paulo_Veiga","realname":"Paulo  Veiga","favedate":"1349355528","iconserver":"3684","iconfarm":4,"contact":0,"friend":0,"family":0},{"nsid":"69459995@N06","username":"Lisa Plymell","realname":"","favedate":"1349327257","iconserver":"8645","iconfarm":9,"contact":0,"friend":0,"family":0},{"nsid":"10085547@N08","username":"Kawsar_K","realname":"Kawsar Khan","favedate":"1349309880","iconserver":"7405","iconfarm":8,"contact":0,"friend":0,"family":0},{"nsid":"11261062@N00","username":"vanto5 (Antonio Vaccarini)","realname":"Antonio Vaccarini","favedate":"1349301284","iconserver":"5452","iconfarm":6,"contact":0,"friend":0,"family":0}],"id":"8050157582","secret":"f766627ebe","server":"8032","farm":9,"page":1,"pages":5,"perpage":10,"total":"46"},"stat":"ok"}