{"photo":{"person":[{"nsid":"126119333@N06","username":"MIHAI TROANA","realname":"MIHAI TROANA","favedate":"1424626016","iconserver":"7715","iconfarm":8,"contact":0,"friend":0,"family":0},{"nsid":"128470608@N02","username":"Nicole Karolina","realname":"Gordon Shumway","favedate":"1416940399","iconserver":"0","iconfarm":0,"contact":0,"friend":0,"family":0},{"nsid":"99172002@N08","username":"ch.weidinger","realname":"Christian Weidinger","favedate":"1400227474","iconserver":"5550","iconfarm":6,"contact":0,"friend":0,"family":0},{"nsid":"96667746@N04","username":"Alfred Grupstra Photography","realname":"Alfred Grupstra","favedate":"1400149943","iconserver":"3738","iconfarm":4,"contact":0,"friend":0,"family":0},{"nsid":"39680302@N08","username":"sigio64","realname":"Andreas","favedate":"1399841927","iconserver":"5490","iconfarm":6,"contact":0,"friend":0,"family":0},{"nsid":"124407954@N08","username":"PhD Escenario Art\u00edstico & Imagen","realname":"Marco Chinchilla (PhotoDevocion) \u0950","favedate":"1399762846","iconserver":"8626","iconfarm":9,"contact":0,"friend":0,"family":0},{"nsid":"105741646@N05","username":"violeta-ultra","realname":"Anne-Laure Tetaud","favedate":"1399709625","iconserver":"5480","iconfarm":6,"contact":0,"friend":0,"family":0},{"nsid":"92909698@N06","username":"Andreas Mezger - Art Photography","realname":"Andreas Mezger","favedate":"1399642655","iconserver":"7359","iconfarm":8,"contact":0,"friend":0,"family":0},{"nsid":"105607457@N03","username":"FaustoDiGoethe","realname":"Fausto Di Goethe","favedate":"1399617018","iconserver":"3681","iconfarm":4,"contact":0,"friend":0,"family":0},{"nsid":"31896244@N06","username":"janshin","realname":"janshin Lee","favedate":"1399596589","iconserver":"7345","iconfarm":8,"contact":0,"friend":0,"family":0}],"id":"13934254829","secret":"7285c4335d","server":"2922","farm":3,"page":1,"pages":5,"perpage":10,"total":"42"},"stat":"ok"}