{"photo":{"person":[{"nsid":"30503506@N03","username":"MICHAELTHEGEEK","realname":"","favedate":"1430045830","iconserver":"2923","iconfarm":3,"contact":0,"friend":0,"family":0},{"nsid":"62741934@N04","username":"Nancy A-T ~ obsessive gardener","realname":"Nancy Armstrong-Thomson","favedate":"1416247777","iconserver":"5597","iconfarm":6,"contact":0,"friend":0,"family":0},{"nsid":"87147179@N00","username":"dorofofoto","realname":"Doug Ford","favedate":"1414632197","iconserver":"8200","iconfarm":9,"contact":0,"friend":0,"family":0},{"nsid":"53575739@N06","username":"Jims_photos","realname":"Jim Allen","favedate":"1414162296","iconserver":"7650","iconfarm":8,"contact":0,"friend":0,"family":0},{"nsid":"24860795@N06","username":"brunosuras","realname":"","favedate":"1413393453","iconserver":"489","iconfarm":1,"contact":0,"friend":0,"family":0},{"nsid":"53080129@N05","username":"fernandoleyder","realname":"Fernando Leyder","favedate":"1413311384","iconserver":"7339","iconfarm":8,"contact":0,"friend":0,"family":0},{"nsid":"91624497@N05","username":"Momo1230","realname":"","favedate":"1412571114","iconserver":"3784","iconfarm":4,"contact":0,"friend":0,"family":0},{"nsid":"45334555@N07","username":"tikitonite","realname":"","favedate":"1412184832","iconserver":"5587","iconfarm":6,"contact":0,"friend":0,"family":0},{"nsid":"94204811@N06","username":"Dorje65","realname":"G\u00f6npo Dorje","favedate":"1412107233","iconserver":"2874","iconfarm":3,"contact":0,"friend":0,"family":0},{"nsid":"102889044@N04","username":"http:\/\/ein.photo","realname":"","favedate":"1412001620","iconserver":"7335","iconfarm":8,"contact":0,"friend":0,"family":0}],"id":"15231520281","secret":"e24f455bf7","server":"5587","farm":6,"page":1,"pages":3,"perpage":10,"total":"27"},"stat":"ok"}