{"photo":{"person":[{"nsid":"62459562@N06","username":"Hoshiryuk","realname":"","favedate":"1425910445","iconserver":"6124","iconfarm":7,"contact":0,"friend":0,"family":0},{"nsid":"126943581@N08","username":"dcyeve327","realname":"Spring Spring","favedate":"1425534811","iconserver":"5570","iconfarm":6,"contact":0,"friend":0,"family":0},{"nsid":"125343727@N06","username":"renecarbajal11","realname":"","favedate":"1418576488","iconserver":"5500","iconfarm":6,"contact":0,"friend":0,"family":0},{"nsid":"58636334@N03","username":"artepiu.ch","realname":"Roberto","favedate":"1418558694","iconserver":"7718","iconfarm":8,"contact":0,"friend":0,"family":0},{"nsid":"48135025@N06","username":"Ding Zhou","realname":"Ding Zhou","favedate":"1418437983","iconserver":"7361","iconfarm":8,"contact":0,"friend":0,"family":0},{"nsid":"43133078@N07","username":"Taqi\u00ae\u2122","realname":"","favedate":"1418197269","iconserver":"455","iconfarm":1,"contact":0,"friend":0,"family":0},{"nsid":"99375245@N04","username":"adwanmu","realname":"muhammed adwan","favedate":"1418147537","iconserver":"0","iconfarm":0,"contact":0,"friend":0,"family":0},{"nsid":"32911536@N04","username":"amosduggan","realname":"Amos Duggan","favedate":"1418094181","iconserver":"490","iconfarm":1,"contact":0,"friend":0,"family":0},{"nsid":"127993305@N04","username":"Michelle Guo (\u7c73\u96ea)","realname":"Michelle Guo","favedate":"1418052750","iconserver":"5610","iconfarm":6,"contact":0,"friend":0,"family":0},{"nsid":"52355738@N04","username":"Raju_Singh_AP","realname":"Raju Singh","favedate":"1418049793","iconserver":"8899","iconfarm":9,"contact":0,"friend":0,"family":0}],"id":"15782725547","secret":"c140ea81ef","server":"7579","farm":8,"page":1,"pages":2,"perpage":10,"total":"17"},"stat":"ok"}