{"photo":{"person":[{"nsid":"78401818@N08","username":"stef demeester","realname":"Stef Demeester","favedate":"1433419092","iconserver":"7360","iconfarm":8,"contact":0,"friend":0,"family":0},{"nsid":"130901411@N04","username":"Alex - Berlin","realname":"","favedate":"1429708844","iconserver":"8591","iconfarm":9,"contact":0,"friend":0,"family":0},{"nsid":"51035555243@N01","username":"Thomas Hawk","realname":"Thomas Hawk","favedate":"1428749242","iconserver":"7370","iconfarm":8,"contact":0,"friend":0,"family":0},{"nsid":"77237839@N03","username":"ATHOS TH. OFF","realname":"ATHOS THEOCHARIDES OFF","favedate":"1428685695","iconserver":"7341","iconfarm":8,"contact":0,"friend":0,"family":0},{"nsid":"126869385@N02","username":"iggyshoot","realname":"","favedate":"1428418144","iconserver":"7471","iconfarm":8,"contact":0,"friend":0,"family":0},{"nsid":"125194658@N05","username":"gustavommaia","realname":"Gustavo Maia","favedate":"1428295369","iconserver":"8574","iconfarm":9,"contact":0,"friend":0,"family":0},{"nsid":"93482748@N02","username":"Thomas8047","realname":"","favedate":"1428235637","iconserver":"0","iconfarm":0,"contact":0,"friend":0,"family":0},{"nsid":"12836528@N00","username":"kevin dooley","realname":"Kevin Dooley","favedate":"1428181438","iconserver":"171","iconfarm":1,"contact":0,"friend":0,"family":0},{"nsid":"98227287@N05","username":"Marco Lamberto (mobile)","realname":"Marco Lamberto","favedate":"1428082664","iconserver":"2864","iconfarm":3,"contact":0,"friend":0,"family":0},{"nsid":"93161065@N07","username":"pepoexpress - A few million thanks!","realname":"pepoexpress,  Madrid fun street!","favedate":"1427956795","iconserver":"3713","iconfarm":4,"contact":0,"friend":0,"family":0}],"id":"16802577029","secret":"1aef911d3d","server":"8743","farm":9,"page":1,"pages":3,"perpage":10,"total":"30"},"stat":"ok"}