{"photo":{"person":[{"nsid":"124836610@N02","username":"Tjitjak Hitam","realname":"Winny de Meij","favedate":"1426278562","iconserver":"3668","iconfarm":4,"contact":0,"friend":0,"family":0},{"nsid":"85465967@N00","username":"Theophilos","realname":"Theophilos Papadopoulos","favedate":"1423765782","iconserver":"5476","iconfarm":6,"contact":0,"friend":0,"family":0},{"nsid":"30981933@N08","username":"Preston Ashton","realname":"","favedate":"1412712014","iconserver":"8598","iconfarm":9,"contact":0,"friend":0,"family":0},{"nsid":"112349245@N06","username":"ag Art","realname":"photo dng","favedate":"1412706763","iconserver":"5472","iconfarm":6,"contact":0,"friend":0,"family":0},{"nsid":"125003956@N04","username":"carmarmato","realname":"Marco Carfora","favedate":"1412623588","iconserver":"0","iconfarm":0,"contact":0,"friend":0,"family":0},{"nsid":"78970829@N05","username":"Lucien Schilling","realname":"Lucien Schilling","favedate":"1411514273","iconserver":"546","iconfarm":1,"contact":0,"friend":0,"family":0},{"nsid":"127050655@N04","username":"paulo ceteol","realname":"","favedate":"1411508001","iconserver":"318","iconfarm":1,"contact":0,"friend":0,"family":0},{"nsid":"122230023@N05","username":"Mitch Mirror","realname":"","favedate":"1411506539","iconserver":"3836","iconfarm":4,"contact":0,"friend":0,"family":0},{"nsid":"7518165@N02","username":"z000p","realname":"","favedate":"1411500414","iconserver":"3873","iconfarm":4,"contact":0,"friend":0,"family":0},{"nsid":"103492235@N04","username":"Karl Erik Vasslag Photography","realname":"Karl Erik Vasslag","favedate":"1411500265","iconserver":"7578","iconfarm":8,"contact":0,"friend":0,"family":0}],"id":"15147463810","secret":"d5933b43b7","server":"3861","farm":4,"page":1,"pages":2,"perpage":10,"total":"12"},"stat":"ok"}