{"photo":{"person":[{"nsid":"108426446@N06","username":"Nailton Barbosa","realname":"Nailton Barbosa","favedate":"1393474675","iconserver":"5472","iconfarm":6,"contact":0,"friend":0,"family":0},{"nsid":"90735017@N04","username":"Rerolde Alexandre","realname":"Rerolde Alexandre","favedate":"1390775860","iconserver":"5557","iconfarm":6,"contact":0,"friend":0,"family":0},{"nsid":"92036053@N06","username":"IVOLINES","realname":"IVOLINES","favedate":"1390060794","iconserver":"404","iconfarm":1,"contact":0,"friend":0,"family":0},{"nsid":"59375638@N05","username":"Fabijsantos","realname":"","favedate":"1388965096","iconserver":"7454","iconfarm":8,"contact":0,"friend":0,"family":0},{"nsid":"73226325@N07","username":"JORGEDAMATA","realname":"Jorge Carvajal","favedate":"1380821890","iconserver":"3817","iconfarm":4,"contact":0,"friend":0,"family":0},{"nsid":"54181494@N06","username":"Michel.Rossetti","realname":"Michel Rossetti","favedate":"1380484324","iconserver":"4126","iconfarm":5,"contact":0,"friend":0,"family":0},{"nsid":"14456749@N04","username":"Manoel L\u00e1zaro","realname":"Manoel Augusto L\u00e1zaro","favedate":"1379938774","iconserver":"7398","iconfarm":8,"contact":0,"friend":0,"family":0},{"nsid":"49803765@N07","username":"J Brasil","realname":"","favedate":"1379894617","iconserver":"7328","iconfarm":8,"contact":0,"friend":0,"family":0},{"nsid":"99527760@N03","username":"rudy rodriguez jr","realname":"Rudy Rodriguez Jr.","favedate":"1379893439","iconserver":"7328","iconfarm":8,"contact":0,"friend":0,"family":0},{"nsid":"90634379@N06","username":"Lilian_Anadan","realname":"Lilian -:\u00a6:-  Anadan","favedate":"1379887037","iconserver":"7714","iconfarm":8,"contact":0,"friend":0,"family":0}],"id":"9876782606","secret":"7facc1066b","server":"5471","farm":6,"page":1,"pages":2,"perpage":10,"total":"20"},"stat":"ok"}