{"photo":{"person":[{"nsid":"21663968@N03","username":"Grande Miguel","realname":"","favedate":"1417194597","iconserver":"5233","iconfarm":6,"contact":0,"friend":0,"family":0},{"nsid":"94585117@N03","username":"Robynne Of Brenne","realname":"Brenne Cottage","favedate":"1415664938","iconserver":"7033","iconfarm":8,"contact":0,"friend":0,"family":0},{"nsid":"99781851@N07","username":"Stevie 66","realname":"","favedate":"1415090382","iconserver":"299","iconfarm":1,"contact":0,"friend":0,"family":0},{"nsid":"17680066@N04","username":"Valerio_D","realname":"","favedate":"1414050762","iconserver":"3585","iconfarm":4,"contact":0,"friend":0,"family":0},{"nsid":"27681134@N08","username":"sunset1uk","realname":"Dave Curtis","favedate":"1413984261","iconserver":"8406","iconfarm":9,"contact":0,"friend":0,"family":0},{"nsid":"115188198@N03","username":"augustynbatko","realname":"Augustyn Batko","favedate":"1413749812","iconserver":"7356","iconfarm":8,"contact":0,"friend":0,"family":0},{"nsid":"41055505@N00","username":"Ambir\u00f3","realname":"","favedate":"1413663023","iconserver":"153","iconfarm":1,"contact":0,"friend":0,"family":0},{"nsid":"33771712@N07","username":"mp13 nhnc","realname":"Paul. (mp13 nhnc)","favedate":"1413654266","iconserver":"5442","iconfarm":6,"contact":0,"friend":0,"family":0},{"nsid":"56788082@N07","username":"Ricardo Gomez A Very busy","realname":"","favedate":"1413568664","iconserver":"3865","iconfarm":4,"contact":0,"friend":0,"family":0},{"nsid":"123503695@N02","username":"JvK Photo","realname":"John van Kekem","favedate":"1413565688","iconserver":"7429","iconfarm":8,"contact":0,"friend":0,"family":0}],"id":"14923083634","secret":"9eb3070931","server":"3928","farm":4,"page":1,"pages":4,"perpage":10,"total":"36"},"stat":"ok"}