{"photo":{"person":[{"nsid":"77844686@N04","username":"PIERRE260","realname":"PIERRE BIGOT","favedate":"1405030447","iconserver":"8316","iconfarm":9,"contact":0,"friend":0,"family":0},{"nsid":"69129761@N06","username":"Daniel.35690","realname":"Daniel RENVERSEAU","favedate":"1405008593","iconserver":"8258","iconfarm":9,"contact":0,"friend":0,"family":0},{"nsid":"65075983@N03","username":"Faisal Aljunied","realname":"Faisal Aljunied","favedate":"1404971498","iconserver":"8736","iconfarm":9,"contact":0,"friend":0,"family":0},{"nsid":"94067071@N05","username":"Madmax Cyrado","realname":"MadMax Cyrado","favedate":"1404950520","iconserver":"7689","iconfarm":8,"contact":0,"friend":0,"family":0},{"nsid":"67963985@N07","username":"Delta9 Mikki (out of town-back at monday)","realname":"","favedate":"1404898883","iconserver":"6164","iconfarm":7,"contact":0,"friend":0,"family":0},{"nsid":"54911318@N07","username":"instagram ajbellizzio..","realname":"argenis bellizzio ...","favedate":"1404898400","iconserver":"8761","iconfarm":9,"contact":0,"friend":0,"family":0},{"nsid":"14329779@N06","username":"borjoz -thx for (half)Million views :)","realname":"Joseph","favedate":"1404886941","iconserver":"7251","iconfarm":8,"contact":0,"friend":0,"family":0},{"nsid":"54891558@N07","username":"fabrimassaro","realname":"Fabrizio Massaro","favedate":"1404886558","iconserver":"5543","iconfarm":6,"contact":0,"friend":0,"family":0},{"nsid":"61745419@N03","username":"Sofia Vitori","realname":"Sofia Vitori","favedate":"1404886511","iconserver":"2907","iconfarm":3,"contact":0,"friend":0,"family":0},{"nsid":"94379741@N04","username":"liverpool1587","realname":"James","favedate":"1404878628","iconserver":"5471","iconfarm":6,"contact":0,"friend":0,"family":0}],"id":"14422482118","secret":"4bd5dbc838","server":"3853","farm":4,"page":1,"pages":2,"perpage":10,"total":"11"},"stat":"ok"}