{"photo":{"person":[{"nsid":"132224988@N03","username":"mr_t.i.m_","realname":"Theodoros Maroulakis","favedate":"1434613998","iconserver":"485","iconfarm":1,"contact":0,"friend":0,"family":0},{"nsid":"49332481@N00","username":"cigornia","realname":"","favedate":"1433588544","iconserver":"8738","iconfarm":9,"contact":0,"friend":0,"family":0},{"nsid":"41005569@N08","username":"Something Sighted","realname":"","favedate":"1432309006","iconserver":"3941","iconfarm":4,"contact":0,"friend":0,"family":0},{"nsid":"123811527@N02","username":"Christian Meyer (Street Photography)","realname":"","favedate":"1431268723","iconserver":"7564","iconfarm":8,"contact":0,"friend":0,"family":0},{"nsid":"69721540@N05","username":"Georg Ka","realname":"Georg Ka","favedate":"1431107724","iconserver":"7615","iconfarm":8,"contact":0,"friend":0,"family":0},{"nsid":"115874217@N08","username":"Massimo Accarino","realname":"M. Accarino","favedate":"1430572218","iconserver":"7373","iconfarm":8,"contact":0,"friend":0,"family":0},{"nsid":"129816297@N02","username":"doto2015","realname":"Detlef Trede","favedate":"1428435099","iconserver":"7283","iconfarm":8,"contact":0,"friend":0,"family":0},{"nsid":"131829066@N05","username":"matej.vinko","realname":"Matej Vinko","favedate":"1428431849","iconserver":"8592","iconfarm":9,"contact":0,"friend":0,"family":0},{"nsid":"125227418@N02","username":"mitchschuh","realname":"Michael Schuh","favedate":"1427032316","iconserver":"8626","iconfarm":9,"contact":0,"friend":0,"family":0},{"nsid":"74815958@N08","username":"ART-BRAITMAN","realname":"Art Braitman","favedate":"1425533763","iconserver":"3815","iconfarm":4,"contact":0,"friend":0,"family":0}],"id":"16287383160","secret":"32269266bc","server":"7426","farm":8,"page":1,"pages":11,"perpage":10,"total":"110"},"stat":"ok"}