{"photo":{"person":[{"nsid":"127272946@N05","username":"rotariu.bianca@ymail.com","realname":"Rotariu Bianca","favedate":"1409651790","iconserver":"0","iconfarm":0,"contact":0,"friend":0,"family":0},{"nsid":"94585117@N03","username":"Robynne Of Brenne","realname":"Brenne Cottage","favedate":"1398031993","iconserver":"7033","iconfarm":8,"contact":0,"friend":0,"family":0},{"nsid":"60649197@N07","username":"helvildt","realname":"S\u00f8ren Raagaard","favedate":"1395473493","iconserver":"3953","iconfarm":4,"contact":0,"friend":0,"family":0},{"nsid":"84173467@N00","username":"kalikali","realname":"","favedate":"1392694565","iconserver":"3818","iconfarm":4,"contact":0,"friend":0,"family":0},{"nsid":"81963686@N02","username":"Moonkey King","realname":"KIng Monkey","favedate":"1392411471","iconserver":"332","iconfarm":1,"contact":0,"friend":0,"family":0},{"nsid":"91624497@N05","username":"Momo1230","realname":"","favedate":"1391752799","iconserver":"3784","iconfarm":4,"contact":0,"friend":0,"family":0},{"nsid":"87704344@N06","username":"olivicoltore","realname":"Olivicoltore \u5955\u4e1e","favedate":"1390741632","iconserver":"8746","iconfarm":9,"contact":0,"friend":0,"family":0},{"nsid":"76109285@N02","username":"jeronimoooooooo","realname":"jeronimo sanz","favedate":"1390402530","iconserver":"8261","iconfarm":9,"contact":0,"friend":0,"family":0},{"nsid":"78558463@N00","username":"pinnee.","realname":"pinnee","favedate":"1390323948","iconserver":"3787","iconfarm":4,"contact":0,"friend":0,"family":0},{"nsid":"27034896@N06","username":"MissLydia","realname":"","favedate":"1390255101","iconserver":"7502","iconfarm":8,"contact":0,"friend":0,"family":0}],"id":"11825997543","secret":"663586741c","server":"2881","farm":3,"page":1,"pages":5,"perpage":10,"total":"50"},"stat":"ok"}