{"photo":{"person":[{"nsid":"75557906@N04","username":"taniuha","realname":"","favedate":"1402900320","iconserver":"5577","iconfarm":6,"contact":0,"friend":0,"family":0},{"nsid":"97943011@N04","username":"AbstractDan","realname":"Daniel Haswell","favedate":"1372553709","iconserver":"3826","iconfarm":4,"contact":0,"friend":0,"family":0},{"nsid":"29705075@N04","username":"reverie_luv","realname":"","favedate":"1352939457","iconserver":"3114","iconfarm":4,"contact":0,"friend":0,"family":0},{"nsid":"31337460@N00","username":"Derek Flack","realname":"Derek Flack","favedate":"1352390698","iconserver":"3924","iconfarm":4,"contact":0,"friend":0,"family":0},{"nsid":"7222813@N08","username":"Glenn R Gannon","realname":"Glenn Gannon","favedate":"1351541025","iconserver":"5229","iconfarm":6,"contact":0,"friend":0,"family":0},{"nsid":"48912008@N02","username":"ALEXLINCHEN","realname":"ALEX CHEN","favedate":"1351393668","iconserver":"3756","iconfarm":4,"contact":0,"friend":0,"family":0},{"nsid":"27851017@N08","username":"And\u00aee","realname":"","favedate":"1351295298","iconserver":"2869","iconfarm":3,"contact":0,"friend":0,"family":0},{"nsid":"58171316@N08","username":"William J H Leonard","realname":"William Leonard","favedate":"1351230810","iconserver":"270","iconfarm":1,"contact":0,"friend":0,"family":0},{"nsid":"61392797@N00","username":"wyn \u2665 lok","realname":"","favedate":"1351031855","iconserver":"8276","iconfarm":9,"contact":0,"friend":0,"family":0},{"nsid":"82262029@N04","username":"karinapol","realname":"Karina","favedate":"1351020401","iconserver":"8643","iconfarm":9,"contact":0,"friend":0,"family":0}],"id":"8110754771","secret":"6f524ce25c","server":"8473","farm":9,"page":1,"pages":2,"perpage":10,"total":"19"},"stat":"ok"}