{"photo":{"person":[{"nsid":"131441508@N06","username":"\uc138\uc5f0261.8","realname":"Katarina261.8","favedate":"1426427325","iconserver":"7606","iconfarm":8,"contact":0,"friend":0,"family":0},{"nsid":"110474725@N07","username":"saiwairen","realname":"\u767e     \u5ddd","favedate":"1420644930","iconserver":"2818","iconfarm":3,"contact":0,"friend":0,"family":0},{"nsid":"125283927@N06","username":"Sano(Japan)","realname":"yoshihiko sano","favedate":"1416718812","iconserver":"3863","iconfarm":4,"contact":0,"friend":0,"family":0},{"nsid":"53611143@N08","username":"lcfrr","realname":"","favedate":"1414722820","iconserver":"8849","iconfarm":9,"contact":0,"friend":0,"family":0},{"nsid":"79080061@N06","username":"Luis Minguill\u00f3n","realname":"Luis Minguill\u00f3n","favedate":"1410938091","iconserver":"2936","iconfarm":3,"contact":0,"friend":0,"family":0},{"nsid":"122846078@N08","username":"chinhnc","realname":"","favedate":"1409133115","iconserver":"7777","iconfarm":8,"contact":0,"friend":0,"family":0},{"nsid":"117302433@N02","username":"A. Baibars","realname":"A. Baibars","favedate":"1408096131","iconserver":"3924","iconfarm":4,"contact":0,"friend":0,"family":0},{"nsid":"120825773@N05","username":"Lukasan2014","realname":"","favedate":"1406773847","iconserver":"7301","iconfarm":8,"contact":0,"friend":0,"family":0},{"nsid":"23855111@N02","username":"thequietrabbit","realname":"kate rabbit","favedate":"1405200482","iconserver":"3908","iconfarm":4,"contact":0,"friend":0,"family":0},{"nsid":"123643180@N08","username":"Julien Richa","realname":"Julien Richa","favedate":"1404822840","iconserver":"5237","iconfarm":6,"contact":0,"friend":0,"family":0}],"id":"13563003813","secret":"455057c921","server":"3737","farm":4,"page":1,"pages":6,"perpage":10,"total":"54"},"stat":"ok"}