{"photo":{"person":[{"nsid":"134107636@N07","username":"cristianemarques73","realname":"Cristiane Marques","favedate":"1434823614","iconserver":"461","iconfarm":1,"contact":0,"friend":0,"family":0},{"nsid":"33374027@N07","username":"sajan164","realname":"Sajan Islam","favedate":"1312618322","iconserver":"3272","iconfarm":4,"contact":0,"friend":0,"family":0},{"nsid":"36364101@N08","username":"\u85cd\u5927\u885b","realname":"","favedate":"1286453765","iconserver":"7180","iconfarm":8,"contact":0,"friend":0,"family":0},{"nsid":"25851862@N06","username":"Mario Mart\u00ed","realname":"Mario Mart\u00ed","favedate":"1286008973","iconserver":"8393","iconfarm":9,"contact":0,"friend":0,"family":0},{"nsid":"45759083@N05","username":"cecilia masiero","realname":"","favedate":"1285991463","iconserver":"4038","iconfarm":5,"contact":0,"friend":0,"family":0},{"nsid":"47687470@N07","username":"Me on Flickr ! OFF for a while","realname":"S.T.\/Tiziana","favedate":"1285940518","iconserver":"4024","iconfarm":5,"contact":0,"friend":0,"family":0},{"nsid":"87091938@N00","username":"Liamfm .","realname":"Liam Moloney","favedate":"1285932932","iconserver":"7385","iconfarm":8,"contact":0,"friend":0,"family":0},{"nsid":"28823486@N08","username":"\u273fLEA\u273f","realname":"","favedate":"1285885886","iconserver":"3229","iconfarm":4,"contact":0,"friend":0,"family":0},{"nsid":"24419270@N04","username":"Angy Fotoclick ( OFF )","realname":"","favedate":"1285882367","iconserver":"7459","iconfarm":8,"contact":0,"friend":0,"family":0},{"nsid":"52071423@N03","username":"t1nytr0n","realname":"William Braik","favedate":"1285879155","iconserver":"4141","iconfarm":5,"contact":0,"friend":0,"family":0}],"id":"5026012283","secret":"376ef9b8d3","server":"4092","farm":5,"page":1,"pages":5,"perpage":10,"total":"50"},"stat":"ok"}