{"photo":{"person":[{"nsid":"13994614@N00","username":"Hondo Walker","realname":"","favedate":"1422652358","iconserver":"170","iconfarm":1,"contact":0,"friend":0,"family":0},{"nsid":"64998258@N03","username":"nazkiylagun","realname":"su","favedate":"1419807907","iconserver":"3890","iconfarm":4,"contact":0,"friend":0,"family":0},{"nsid":"118947203@N02","username":"HADAOPHOTO","realname":"","favedate":"1416066650","iconserver":"420","iconfarm":1,"contact":0,"friend":0,"family":0},{"nsid":"102864633@N02","username":"bobj001","realname":"Bobby","favedate":"1413130269","iconserver":"5448","iconfarm":6,"contact":0,"friend":0,"family":0},{"nsid":"120349915@N07","username":"camus agp","realname":"","favedate":"1400434654","iconserver":"3807","iconfarm":4,"contact":0,"friend":0,"family":0},{"nsid":"103279233@N02","username":"Jeff and PJ","realname":"Jeff, PJ and Taiki","favedate":"1398907745","iconserver":"7445","iconfarm":8,"contact":0,"friend":0,"family":0},{"nsid":"86370526@N02","username":"fstkkk","realname":"","favedate":"1362849165","iconserver":"7307","iconfarm":8,"contact":0,"friend":0,"family":0},{"nsid":"30741231@N00","username":"destinatio (very busy)","realname":"","favedate":"1351104297","iconserver":"28","iconfarm":1,"contact":0,"friend":0,"family":0},{"nsid":"67183217@N07","username":"Samuel Louis McCloud","realname":"Samuel McCloud","favedate":"1351103965","iconserver":"3771","iconfarm":4,"contact":0,"friend":0,"family":0},{"nsid":"52028595@N04","username":"Es.mond","realname":"","favedate":"1324666662","iconserver":"7343","iconfarm":8,"contact":0,"friend":0,"family":0}],"id":"4130437711","secret":"91fd965185","server":"2556","farm":3,"page":1,"pages":3,"perpage":10,"total":"25"},"stat":"ok"}