{"photo":{"person":[{"nsid":"124200530@N05","username":"matthewtokar","realname":"Matej Tokar","favedate":"1434996224","iconserver":"7550","iconfarm":8,"contact":0,"friend":0,"family":0},{"nsid":"114285700@N03","username":"rawpixxx","realname":"raw pixxx","favedate":"1427716229","iconserver":"7354","iconfarm":8,"contact":0,"friend":0,"family":0},{"nsid":"28321132@N04","username":"Taylord the Great","realname":"Taylor Thoenes","favedate":"1427254642","iconserver":"3553","iconfarm":4,"contact":0,"friend":0,"family":0},{"nsid":"57377423@N00","username":"isdky","realname":"Brian Barnett","favedate":"1422365836","iconserver":"1261","iconfarm":2,"contact":0,"friend":0,"family":0},{"nsid":"38653842@N00","username":"amnesiak1978","realname":"","favedate":"1420115178","iconserver":"3709","iconfarm":4,"contact":0,"friend":0,"family":0},{"nsid":"89036724@N02","username":"Markel93","realname":"Markel Photography","favedate":"1419716507","iconserver":"7328","iconfarm":8,"contact":0,"friend":0,"family":0},{"nsid":"123865561@N08","username":"wayne_dmt","realname":"Wayne DMT","favedate":"1419351112","iconserver":"7422","iconfarm":8,"contact":0,"friend":0,"family":0},{"nsid":"94910680@N03","username":"Foosili","realname":"Kevin Doty","favedate":"1417561694","iconserver":"7273","iconfarm":8,"contact":0,"friend":0,"family":0},{"nsid":"41811670@N00","username":"1ke","realname":"Dwight Eisenhower","favedate":"1416974303","iconserver":"27","iconfarm":1,"contact":0,"friend":0,"family":0},{"nsid":"110292279@N08","username":"nico?","realname":"","favedate":"1415721971","iconserver":"0","iconfarm":0,"contact":0,"friend":0,"family":0}],"id":"13125472463","secret":"6923723107","server":"3794","farm":4,"page":1,"pages":35,"perpage":10,"total":"341"},"stat":"ok"}