{"photo":{"person":[{"nsid":"61446344@N03","username":"JarHTC","realname":"Jar","favedate":"1437145288","iconserver":"3702","iconfarm":4,"contact":0,"friend":0,"family":0},{"nsid":"73939264@N08","username":"Glenn Pye","realname":"Glenn Pye","favedate":"1430158130","iconserver":"7020","iconfarm":8,"contact":0,"friend":0,"family":0},{"nsid":"62004616@N06","username":"shelby-dog","realname":"","favedate":"1428014866","iconserver":"5143","iconfarm":6,"contact":0,"friend":0,"family":0},{"nsid":"8653544@N02","username":"Humble Tommy","realname":"","favedate":"1427999916","iconserver":"3941","iconfarm":4,"contact":0,"friend":0,"family":0},{"nsid":"28649709@N05","username":"Jaime Villaseca","realname":"Jaime Villaseca","favedate":"1427995419","iconserver":"3217","iconfarm":4,"contact":0,"friend":0,"family":0},{"nsid":"51165675@N06","username":"Chau Long_64","realname":"","favedate":"1427995400","iconserver":"3850","iconfarm":4,"contact":0,"friend":0,"family":0},{"nsid":"128738183@N04","username":"demirciogluhulya","realname":"H\u00fclya Demircio\u011flu","favedate":"1427991944","iconserver":"418","iconfarm":1,"contact":0,"friend":0,"family":0},{"nsid":"79510655@N08","username":"dee_dee_creamer","realname":"","favedate":"1427981440","iconserver":"7348","iconfarm":8,"contact":0,"friend":0,"family":0},{"nsid":"128363297@N02","username":"Bernd Kretzer","realname":"Bernd Kretzer","favedate":"1427979046","iconserver":"7484","iconfarm":8,"contact":0,"friend":0,"family":0},{"nsid":"110781628@N08","username":"bc50099","realname":"","favedate":"1427975344","iconserver":"8598","iconfarm":9,"contact":0,"friend":0,"family":0}],"id":"16385581913","secret":"4a3dcdbd13","server":"7605","farm":8,"page":1,"pages":3,"perpage":10,"total":"25"},"stat":"ok"}