{"photo":{"person":[{"nsid":"76098459@N04","username":"rschnaible","realname":"","favedate":"1432914420","iconserver":"3808","iconfarm":4,"contact":0,"friend":0,"family":0},{"nsid":"123842805@N07","username":"Art-Monito","realname":"David Mason","favedate":"1432328027","iconserver":"2914","iconfarm":3,"contact":0,"friend":0,"family":0},{"nsid":"111348998@N08","username":"qinxiaofeng","realname":"qinxiaofeng JINSON","favedate":"1432277911","iconserver":"2822","iconfarm":3,"contact":0,"friend":0,"family":0},{"nsid":"43588196@N05","username":"kennethcanada1","realname":"kenneth r rowley","favedate":"1432221970","iconserver":"294","iconfarm":1,"contact":0,"friend":0,"family":0},{"nsid":"82229206@N06","username":"Ng\u1ecdc Black","realname":"","favedate":"1432187341","iconserver":"7625","iconfarm":8,"contact":0,"friend":0,"family":0},{"nsid":"127014979@N05","username":"christiansaouma","realname":"Christian Saouma","favedate":"1432177358","iconserver":"3878","iconfarm":4,"contact":0,"friend":0,"family":0},{"nsid":"56191768@N08","username":"Megareds Whitehead","realname":"Megareds Whitehead","favedate":"1432175138","iconserver":"7734","iconfarm":8,"contact":0,"friend":0,"family":0},{"nsid":"110569055@N04","username":"Justin Kenneth Rowley","realname":"Justin Kenneth Rowley","favedate":"1432175030","iconserver":"5534","iconfarm":6,"contact":0,"friend":0,"family":0},{"nsid":"41260125@N05","username":"BTerryComptonPhotography","realname":"Berkeley T.  Compton","favedate":"1432137174","iconserver":"8218","iconfarm":9,"contact":0,"friend":0,"family":0},{"nsid":"124552114@N05","username":"maggie_coneva","realname":"","favedate":"1432122615","iconserver":"8565","iconfarm":9,"contact":0,"friend":0,"family":0}],"id":"17886732472","secret":"07708920ea","server":"8862","farm":9,"page":1,"pages":2,"perpage":10,"total":"14"},"stat":"ok"}