{"photo":{"person":[{"nsid":"99412962@N08","username":"Dobbins ARB Public Affairs","realname":"Dobbins Air Reserve Base","favedate":"1432412645","iconserver":"5451","iconfarm":6,"contact":0,"friend":0,"family":0},{"nsid":"130642928@N08","username":"veganamarija","realname":"Ana-Marija Veg","favedate":"1431063206","iconserver":"417","iconfarm":1,"contact":0,"friend":0,"family":0},{"nsid":"87777742@N02","username":"Rutsimta","realname":"Rutsimta","favedate":"1430640096","iconserver":"295","iconfarm":1,"contact":0,"friend":0,"family":0},{"nsid":"129097355@N02","username":"pxlline","realname":"PixelLine","favedate":"1430569684","iconserver":"412","iconfarm":1,"contact":0,"friend":0,"family":0},{"nsid":"63598627@N03","username":"RUMTIME","realname":"gary","favedate":"1430429709","iconserver":"5468","iconfarm":6,"contact":0,"friend":0,"family":0},{"nsid":"49468710@N07","username":"Divaraba","realname":"Diego Valera","favedate":"1429900478","iconserver":"8780","iconfarm":9,"contact":0,"friend":0,"family":0},{"nsid":"80005720@N02","username":"lititw","realname":"","favedate":"1428422731","iconserver":"7543","iconfarm":8,"contact":0,"friend":0,"family":0},{"nsid":"113904088@N03","username":"Alexander Fatyanov","realname":"- Life As Impression -","favedate":"1428135371","iconserver":"3935","iconfarm":4,"contact":0,"friend":0,"family":0},{"nsid":"129272763@N04","username":"juandavid.enriquez","realname":"Juan David Enriquez","favedate":"1427194911","iconserver":"7435","iconfarm":8,"contact":0,"friend":0,"family":0},{"nsid":"52286867@N08","username":"MAXDB","realname":"Massimo","favedate":"1426947027","iconserver":"3697","iconfarm":4,"contact":0,"friend":0,"family":0}],"id":"7988715726","secret":"f17ab7d94a","server":"8299","farm":9,"page":1,"pages":26,"perpage":10,"total":"257"},"stat":"ok"}