{"photo":{"person":[{"nsid":"33948455@N06","username":"Sergio Esth\u00e8te","realname":"","favedate":"1263109779","iconserver":"4022","iconfarm":5,"contact":0,"friend":0,"family":0},{"nsid":"7216982@N08","username":"vampirogordo","realname":"","favedate":"1258083065","iconserver":"8136","iconfarm":9,"contact":0,"friend":0,"family":0},{"nsid":"30568249@N07","username":"hans jesus wurst","realname":"Moritz Haase","favedate":"1255616169","iconserver":"3136","iconfarm":4,"contact":0,"friend":0,"family":0},{"nsid":"70145872@N00","username":"Luriana L","realname":"zuza","favedate":"1255211870","iconserver":"5346","iconfarm":6,"contact":0,"friend":0,"family":0},{"nsid":"71295694@N00","username":"Rebelxtnut","realname":"David Venezia","favedate":"1255211408","iconserver":"160","iconfarm":1,"contact":0,"friend":0,"family":0},{"nsid":"23746565@N05","username":"...Eszter...","realname":"","favedate":"1255200452","iconserver":"2028","iconfarm":3,"contact":0,"friend":0,"family":0},{"nsid":"29227933@N07","username":"hehuace","realname":"Thi Ho","favedate":"1255189368","iconserver":"3816","iconfarm":4,"contact":0,"friend":0,"family":0},{"nsid":"31686148@N02","username":"tyler gee","realname":"","favedate":"1255188730","iconserver":"3042","iconfarm":4,"contact":0,"friend":0,"family":0},{"nsid":"24947988@N02","username":"s.h.u.t.t.e.r.b.u.g","realname":"","favedate":"1255135715","iconserver":"2374","iconfarm":3,"contact":0,"friend":0,"family":0},{"nsid":"37843455@N06","username":"nanaosei_2007","realname":"","favedate":"1255040112","iconserver":"0","iconfarm":0,"contact":0,"friend":0,"family":0}],"id":"3979713593","secret":"217f5a7063","server":"2624","farm":3,"page":1,"pages":3,"perpage":10,"total":"21"},"stat":"ok"}