{"photo":{"person":[{"nsid":"41807251@N04","username":"dariusz.korn","realname":"","favedate":"1433699014","iconserver":"2663","iconfarm":3,"contact":0,"friend":0,"family":0},{"nsid":"130642928@N08","username":"veganamarija","realname":"Ana-Marija Veg","favedate":"1431063307","iconserver":"417","iconfarm":1,"contact":0,"friend":0,"family":0},{"nsid":"129097355@N02","username":"pxlline","realname":"PixelLine","favedate":"1430569711","iconserver":"412","iconfarm":1,"contact":0,"friend":0,"family":0},{"nsid":"52286867@N08","username":"MAXDB","realname":"Massimo","favedate":"1428397060","iconserver":"3697","iconfarm":4,"contact":0,"friend":0,"family":0},{"nsid":"110021975@N05","username":"Canon-Mani","realname":"Manfred Ihrig","favedate":"1426878952","iconserver":"8750","iconfarm":9,"contact":0,"friend":0,"family":0},{"nsid":"46654156@N03","username":"Rondlarg Photos","realname":"Roland Lausberg","favedate":"1426662300","iconserver":"2820","iconfarm":3,"contact":0,"friend":0,"family":0},{"nsid":"127055480@N05","username":"MD. Rakib Islam","realname":"MD. Rakib Islam","favedate":"1425727955","iconserver":"3889","iconfarm":4,"contact":0,"friend":0,"family":0},{"nsid":"69512723@N02","username":"JardimSecreto","realname":"","favedate":"1425691000","iconserver":"5273","iconfarm":6,"contact":0,"friend":0,"family":0},{"nsid":"121232586@N08","username":"georgeplakides","realname":"George Plakides","favedate":"1424040723","iconserver":"7443","iconfarm":8,"contact":0,"friend":0,"family":0},{"nsid":"128325945@N05","username":"MyKerttu","realname":"Kerttu","favedate":"1422480198","iconserver":"3929","iconfarm":4,"contact":0,"friend":0,"family":0}],"id":"5871732609","secret":"63de00e219","server":"5116","farm":6,"page":1,"pages":18,"perpage":10,"total":"178"},"stat":"ok"}