{"photo":{"person":[{"nsid":"78853988@N07","username":"beauty of all things","realname":"Manfred Geyer","favedate":"1419206627","iconserver":"3729","iconfarm":4,"contact":0,"friend":0,"family":0},{"nsid":"24539340@N07","username":"mellis61","realname":"Michael Ellis","favedate":"1415771761","iconserver":"2934","iconfarm":3,"contact":0,"friend":0,"family":0},{"nsid":"96144834@N02","username":"Dave Driscoll","realname":"Dave  Driscoll","favedate":"1415216384","iconserver":"3749","iconfarm":4,"contact":0,"friend":0,"family":0},{"nsid":"53080129@N05","username":"fernandoleyder","realname":"Fernando Leyder","favedate":"1415179499","iconserver":"7339","iconfarm":8,"contact":0,"friend":0,"family":0},{"nsid":"10120147@N05","username":"Monika Dorniak (Sketch Book)","realname":"Monika Dorniak","favedate":"1414934922","iconserver":"7322","iconfarm":8,"contact":0,"friend":0,"family":0},{"nsid":"16449096@N05","username":"emcphoto","realname":"Richard Gross","favedate":"1414448083","iconserver":"7445","iconfarm":8,"contact":0,"friend":0,"family":0},{"nsid":"58780472@N04","username":"S\u00e9bastien Gampert","realname":"","favedate":"1414447155","iconserver":"7333","iconfarm":8,"contact":0,"friend":0,"family":0},{"nsid":"57399910@N00","username":"claudia luthi","realname":"claudia luthi","favedate":"1414377503","iconserver":"8729","iconfarm":9,"contact":0,"friend":0,"family":0},{"nsid":"127214241@N04","username":"ryuujin.majutsu","realname":"Aaron Mueller","favedate":"1414357064","iconserver":"8606","iconfarm":9,"contact":0,"friend":0,"family":0},{"nsid":"69527500@N04","username":"ToruUkai","realname":"Toru Ukai","favedate":"1414334285","iconserver":"2842","iconfarm":3,"contact":0,"friend":0,"family":0}],"id":"15444142547","secret":"58b77469e0","server":"3940","farm":4,"page":1,"pages":2,"perpage":10,"total":"13"},"stat":"ok"}