{"photo":{"person":[{"nsid":"114066474@N07","username":"juanjosediezba\u00f1uelos","realname":"Juan Jose Diez Ba\u00f1uelos","favedate":"1396360938","iconserver":"0","iconfarm":0,"contact":0,"friend":0,"family":0},{"nsid":"47532811@N03","username":"stampolina","realname":"","favedate":"1393791295","iconserver":"7608","iconfarm":8,"contact":0,"friend":0,"family":0},{"nsid":"114409020@N03","username":"joselorivera","realname":"Jos\u00e9 Luis de la Rosa Sghirla","favedate":"1393473407","iconserver":"2819","iconfarm":3,"contact":0,"friend":0,"family":0},{"nsid":"40122107@N07","username":"Bearded iris.","realname":"ANDREW","favedate":"1393273892","iconserver":"3541","iconfarm":4,"contact":0,"friend":0,"family":0},{"nsid":"99577562@N04","username":"FF_Photography","realname":"","favedate":"1393213669","iconserver":"3704","iconfarm":4,"contact":0,"friend":0,"family":0},{"nsid":"114338343@N05","username":"Chris k50","realname":"","favedate":"1393213565","iconserver":"8610","iconfarm":9,"contact":0,"friend":0,"family":0},{"nsid":"117484593@N02","username":"LUV.LABRADORS","realname":"","favedate":"1393211115","iconserver":"8406","iconfarm":9,"contact":0,"friend":0,"family":0},{"nsid":"91463065@N06","username":"BennyM Photography","realname":"Benny Majar","favedate":"1393205185","iconserver":"5608","iconfarm":6,"contact":0,"friend":0,"family":0},{"nsid":"95338701@N03","username":"hechizera22","realname":"Neyra Martinez","favedate":"1393203263","iconserver":"5518","iconfarm":6,"contact":0,"friend":0,"family":0},{"nsid":"63530591@N07","username":"Dalia G.","realname":"Dalia A","favedate":"1393201633","iconserver":"5584","iconfarm":6,"contact":0,"friend":0,"family":0}],"id":"12701754743","secret":"3dd59292fc","server":"5471","farm":6,"page":1,"pages":9,"perpage":10,"total":"87"},"stat":"ok"}