{"photo":{"person":[{"nsid":"17685557@N02","username":"Xocoatz\u00edn","realname":"","favedate":"1436062917","iconserver":"503","iconfarm":1,"contact":0,"friend":0,"family":0},{"nsid":"39001016@N00","username":"jinchinlin","realname":"jinchin  \u5efa\u660c lin","favedate":"1423391554","iconserver":"2256","iconfarm":3,"contact":0,"friend":0,"family":0},{"nsid":"86733045@N08","username":"aneiahl","realname":"","favedate":"1419096778","iconserver":"8646","iconfarm":9,"contact":0,"friend":0,"family":0},{"nsid":"111077306@N05","username":"finfily","realname":"","favedate":"1414067426","iconserver":"0","iconfarm":0,"contact":0,"friend":0,"family":0},{"nsid":"110156657@N06","username":"Cathy Le Scolan-Qu\u00e9r\u00e9 Photographies","realname":"Catherine Le scolan","favedate":"1403555552","iconserver":"5534","iconfarm":6,"contact":0,"friend":0,"family":0},{"nsid":"67316228@N00","username":"princess_of_llyr","realname":"","favedate":"1393611999","iconserver":"42","iconfarm":1,"contact":0,"friend":0,"family":0},{"nsid":"94991666@N04","username":"o-baka","realname":"Song Jihyoo","favedate":"1366871537","iconserver":"0","iconfarm":0,"contact":0,"friend":0,"family":0},{"nsid":"17768970@N00","username":"Geoff LMV","realname":"","favedate":"1353044757","iconserver":"46","iconfarm":1,"contact":0,"friend":0,"family":0},{"nsid":"62998563@N04","username":"la-methode-bio","realname":"Mel","favedate":"1343736560","iconserver":"8322","iconfarm":9,"contact":0,"friend":0,"family":0},{"nsid":"78957243@N08","username":"fffyu","realname":"","favedate":"1343488983","iconserver":"0","iconfarm":0,"contact":0,"friend":0,"family":0}],"id":"6984433399","secret":"8e7f152fea","server":"7069","farm":8,"page":1,"pages":3,"perpage":10,"total":"22"},"stat":"ok"}