{"photo":{"person":[{"nsid":"7317609@N07","username":"Emotionally & creatively, photography passionately","realname":"Laurence G.","favedate":"1414152495","iconserver":"494","iconfarm":1,"contact":0,"friend":0,"family":0},{"nsid":"100101212@N04","username":"Wout2.0","realname":"wout vuijk","favedate":"1413730936","iconserver":"2885","iconfarm":3,"contact":0,"friend":0,"family":0},{"nsid":"88795127@N02","username":"LPiH","realname":"Louis-Pierre Henry","favedate":"1405795877","iconserver":"2808","iconfarm":3,"contact":0,"friend":0,"family":0},{"nsid":"37527280@N02","username":"'mayam'","realname":"","favedate":"1404309867","iconserver":"2910","iconfarm":3,"contact":0,"friend":0,"family":0},{"nsid":"123175028@N08","username":"j_gondim","realname":"Joao Gondim","favedate":"1404299674","iconserver":"8625","iconfarm":9,"contact":0,"friend":0,"family":0},{"nsid":"10558478@N05","username":"l_Gallant@rogers.com","realname":"Lisa Gallant","favedate":"1404094501","iconserver":"319","iconfarm":1,"contact":0,"friend":0,"family":0},{"nsid":"43896901@N00","username":"jfgornet","realname":"Jean-Fran\u00e7ois Gornet","favedate":"1404089365","iconserver":"3266","iconfarm":4,"contact":0,"friend":0,"family":0},{"nsid":"9480454@N08","username":"Haberuvi","realname":"Haberuvi","favedate":"1404079466","iconserver":"2415","iconfarm":3,"contact":0,"friend":0,"family":0},{"nsid":"125013463@N03","username":"Cat_11_9","realname":"","favedate":"1404074608","iconserver":"5592","iconfarm":6,"contact":0,"friend":0,"family":0},{"nsid":"87798736@N08","username":"TeoMat A.","realname":"Matteo Ansaloni","favedate":"1404066899","iconserver":"8768","iconfarm":9,"contact":0,"friend":0,"family":0}],"id":"14338132668","secret":"698fa41e22","server":"5563","farm":6,"page":1,"pages":2,"perpage":10,"total":"16"},"stat":"ok"}